CH= 0 MOD= 10 BIAS= 10
* YB2 S9 MB2 ROB0    0 pos_09.54	yb2 [s9 mtp1.6 mb2.0] [s9 st2.0 (SL1/3 w1-16)]	0	0	0

CH= 0 MOD= 10 BIAS= 20
* YB2 S9 MB2 ROB0    0 pos_09.54	yb2 [s9 mtp1.6 mb2.0] [s9 st2.0 (SL1/3 w1-16)]	0	0	0

CH= 0 MOD= 10 BIAS= 40
* YB2 S9 MB2 ROB0    0 pos_09.54	yb2 [s9 mtp1.6 mb2.0] [s9 st2.0 (SL1/3 w1-16)]	0	0	0

CH= 0 MOD= 10 BIAS= 60
* YB2 S9 MB2 ROB0    0 pos_09.54	yb2 [s9 mtp1.6 mb2.0] [s9 st2.0 (SL1/3 w1-16)]	0	0	0

CH= 0 MOD= 10 BIAS= 80
* YB2 S9 MB2 ROB0    0 pos_09.54	yb2 [s9 mtp1.6 mb2.0] [s9 st2.0 (SL1/3 w1-16)]	0	0	0

CH= 0 MOD= 10 BIAS= 100
* YB2 S9 MB2 ROB0    0 pos_09.54	yb2 [s9 mtp1.6 mb2.0] [s9 st2.0 (SL1/3 w1-16)]	0	0	0

CH= 0 MOD= 20 BIAS= 10
* YB2 S9 MB2 ROB0    0 pos_09.54	yb2 [s9 mtp1.6 mb2.0] [s9 st2.0 (SL1/3 w1-16)]	0	0	0

CH= 0 MOD= 20 BIAS= 20
* YB2 S9 MB2 ROB0    0 pos_09.54	yb2 [s9 mtp1.6 mb2.0] [s9 st2.0 (SL1/3 w1-16)]	0	0	0

CH= 0 MOD= 20 BIAS= 40
* YB2 S9 MB2 ROB0    0 pos_09.54	yb2 [s9 mtp1.6 mb2.0] [s9 st2.0 (SL1/3 w1-16)]	0	0	0

CH= 0 MOD= 20 BIAS= 60
* YB2 S9 MB2 ROB0    0 pos_09.54	yb2 [s9 mtp1.6 mb2.0] [s9 st2.0 (SL1/3 w1-16)]	0	0	0

CH= 0 MOD= 20 BIAS= 80
* YB2 S9 MB2 ROB0    0 pos_09.54	yb2 [s9 mtp1.6 mb2.0] [s9 st2.0 (SL1/3 w1-16)]	0	0	0

CH= 0 MOD= 20 BIAS= 100
* YB2 S9 MB2 ROB0    0 pos_09.54	yb2 [s9 mtp1.6 mb2.0] [s9 st2.0 (SL1/3 w1-16)]	0	0	0

CH= 0 MOD= 40 BIAS= 10
* YB2 S9 MB2 ROB0    0 pos_09.54	yb2 [s9 mtp1.6 mb2.0] [s9 st2.0 (SL1/3 w1-16)]	0	0	0

CH= 0 MOD= 40 BIAS= 20
* YB2 S9 MB2 ROB0    0 pos_09.54	yb2 [s9 mtp1.6 mb2.0] [s9 st2.0 (SL1/3 w1-16)]	0	0	0

CH= 0 MOD= 40 BIAS= 40
* YB2 S9 MB2 ROB0    0 pos_09.54	yb2 [s9 mtp1.6 mb2.0] [s9 st2.0 (SL1/3 w1-16)]	0	0	0

CH= 0 MOD= 40 BIAS= 60
* YB2 S9 MB2 ROB0    0 pos_09.54	yb2 [s9 mtp1.6 mb2.0] [s9 st2.0 (SL1/3 w1-16)]	0	0	0

CH= 0 MOD= 40 BIAS= 80
* YB2 S9 MB2 ROB0    0 pos_09.54	yb2 [s9 mtp1.6 mb2.0] [s9 st2.0 (SL1/3 w1-16)]	0	0	0

CH= 0 MOD= 40 BIAS= 100
* YB2 S9 MB2 ROB0    0 pos_09.54	yb2 [s9 mtp1.6 mb2.0] [s9 st2.0 (SL1/3 w1-16)]	0	0	0

CH= 0 MOD= 60 BIAS= 10
* YB2 S9 MB2 ROB0    0 pos_09.54	yb2 [s9 mtp1.6 mb2.0] [s9 st2.0 (SL1/3 w1-16)]	0	0	0

CH= 0 MOD= 60 BIAS= 20
* YB2 S9 MB2 ROB0    0 pos_09.54	yb2 [s9 mtp1.6 mb2.0] [s9 st2.0 (SL1/3 w1-16)]	0	0	0

CH= 0 MOD= 60 BIAS= 40
* YB2 S9 MB2 ROB0    0 pos_09.54	yb2 [s9 mtp1.6 mb2.0] [s9 st2.0 (SL1/3 w1-16)]	0	0	0

CH= 0 MOD= 60 BIAS= 60
* YB2 S9 MB2 ROB0    0 pos_09.54	yb2 [s9 mtp1.6 mb2.0] [s9 st2.0 (SL1/3 w1-16)]	0	0	0

CH= 0 MOD= 60 BIAS= 80
* YB2 S9 MB2 ROB0    0 pos_09.54	yb2 [s9 mtp1.6 mb2.0] [s9 st2.0 (SL1/3 w1-16)]	0	0	0

CH= 0 MOD= 60 BIAS= 100
* YB2 S9 MB2 ROB0    0 pos_09.54	yb2 [s9 mtp1.6 mb2.0] [s9 st2.0 (SL1/3 w1-16)]	0	0	0

CH= 0 MOD= 80 BIAS= 10
* YB2 S9 MB2 ROB0    0 pos_09.54	yb2 [s9 mtp1.6 mb2.0] [s9 st2.0 (SL1/3 w1-16)]	0	0	0

CH= 0 MOD= 80 BIAS= 20
* YB2 S9 MB2 ROB0    0 pos_09.54	yb2 [s9 mtp1.6 mb2.0] [s9 st2.0 (SL1/3 w1-16)]	0	0	0

CH= 0 MOD= 80 BIAS= 40
* YB2 S9 MB2 ROB0    0 pos_09.54	yb2 [s9 mtp1.6 mb2.0] [s9 st2.0 (SL1/3 w1-16)]	0	0	0

CH= 0 MOD= 80 BIAS= 60
* YB2 S9 MB2 ROB0    0 pos_09.54	yb2 [s9 mtp1.6 mb2.0] [s9 st2.0 (SL1/3 w1-16)]	0	0	0

CH= 0 MOD= 80 BIAS= 80
* YB2 S9 MB2 ROB0    0 pos_09.54	yb2 [s9 mtp1.6 mb2.0] [s9 st2.0 (SL1/3 w1-16)]	0	0	0

CH= 0 MOD= 80 BIAS= 100
* YB2 S9 MB2 ROB0    0 pos_09.54	yb2 [s9 mtp1.6 mb2.0] [s9 st2.0 (SL1/3 w1-16)]	0	0	0

CH= 0 MOD= 100 BIAS= 10
* YB2 S9 MB2 ROB0    0 pos_09.54	yb2 [s9 mtp1.6 mb2.0] [s9 st2.0 (SL1/3 w1-16)]	0	0	0

CH= 0 MOD= 100 BIAS= 20
* YB2 S9 MB2 ROB0    0 pos_09.54	yb2 [s9 mtp1.6 mb2.0] [s9 st2.0 (SL1/3 w1-16)]	0	0	0

CH= 0 MOD= 100 BIAS= 40
* YB2 S9 MB2 ROB0    0 pos_09.54	yb2 [s9 mtp1.6 mb2.0] [s9 st2.0 (SL1/3 w1-16)]	0	0	0

CH= 0 MOD= 100 BIAS= 60
* YB2 S9 MB2 ROB0    0 pos_09.54	yb2 [s9 mtp1.6 mb2.0] [s9 st2.0 (SL1/3 w1-16)]	0	0	0

CH= 0 MOD= 100 BIAS= 80
* YB2 S9 MB2 ROB0    0 pos_09.54	yb2 [s9 mtp1.6 mb2.0] [s9 st2.0 (SL1/3 w1-16)]	0	0	0

CH= 0 MOD= 100 BIAS= 100
* YB2 S9 MB2 ROB0    0 pos_09.54	yb2 [s9 mtp1.6 mb2.0] [s9 st2.0 (SL1/3 w1-16)]	0	0	0

