CH= 1 MOD= 40 BIAS= 16
YB+1_S1   	0 	0 	0 	1577
YB+1_S2   	0 	0 	0 	23
YB+1_S3   	0 	0 	0 	111
YB+1_S4   	0 	0 	0 	0 	0
YB+1_S5   	0 	0 	0 	0
YB+1_S6   	0 	0 	855 	0
YB+1_S7   	0 	0 	0 	3
YB+1_S8   	0 	0 	0 	0
YB+1_S9   	0 	-64607 	0 	0
YB+1_S10   	0 	17 	3 	0 	0
YB+1_S11   	0 	1 	0 	0
YB+1_S12   	0 	0 	0 	0
YB+1_S1   	0 	0 	0 	43
YB+1_S2   	2959 	0 	0 	10705
YB+1_S3   	0 	0 	1245 	-4420
YB+1_S4   	0 	0 	0 	0 	0
YB+1_S5   	0 	0 	0 	7617
YB+1_S6   	0 	0 	0 	0
YB+1_S7   	0 	0 	0 	18
YB+1_S8   	0 	0 	0 	1081
YB+1_S9   	0 	0 	0 	0
YB+1_S10   	1 	0 	40 	955 	0
YB+1_S11   	0 	77 	16153 	0
YB+1_S12   	0 	0 	0 	0
CH= 1 MOD= 40 BIAS= 18
YB+1_S1   	0 	0 	0 	2
YB+1_S2   	0 	0 	0 	0
YB+1_S3   	0 	0 	0 	0
YB+1_S4   	0 	0 	0 	0 	0
YB+1_S5   	0 	0 	0 	0
YB+1_S6   	0 	0 	0 	0
YB+1_S7   	0 	0 	0 	0
YB+1_S8   	0 	0 	0 	0
YB+1_S9   	0 	0 	0 	0
YB+1_S10   	0 	0 	0 	0 	0
YB+1_S11   	0 	0 	0 	0
YB+1_S12   	0 	0 	0 	0
YB+1_S1   	0 	0 	0 	0
YB+1_S2   	353 	0 	0 	4944
YB+1_S3   	0 	0 	0 	42498
YB+1_S4   	0 	0 	0 	0 	0
YB+1_S5   	0 	0 	0 	15
YB+1_S6   	0 	0 	0 	0
YB+1_S7   	0 	0 	0 	0
YB+1_S8   	0 	0 	0 	0
YB+1_S9   	0 	0 	0 	0
YB+1_S10   	0 	0 	0 	0 	0
YB+1_S11   	0 	0 	0 	0
YB+1_S12   	0 	0 	0 	0
CH= 1 MOD= 40 BIAS= 22
YB+1_S1   	0 	0 	0 	2
YB+1_S2   	0 	0 	0 	0
YB+1_S3   	0 	0 	0 	0
YB+1_S4   	0 	0 	0 	0 	0
YB+1_S5   	0 	0 	0 	0
YB+1_S6   	0 	0 	0 	0
YB+1_S7   	0 	0 	0 	0
YB+1_S8   	0 	0 	0 	0
YB+1_S9   	0 	0 	0 	0
YB+1_S10   	0 	0 	6 	0 	0
YB+1_S11   	0 	0 	0 	0
YB+1_S12   	0 	0 	0 	0
YB+1_S1   	0 	0 	0 	0
YB+1_S2   	0 	0 	0 	0
YB+1_S3   	0 	0 	0 	0
YB+1_S4   	0 	0 	0 	0 	0
YB+1_S5   	0 	0 	0 	0
YB+1_S6   	0 	0 	0 	0
YB+1_S7   	0 	0 	0 	0
YB+1_S8   	0 	0 	0 	0
YB+1_S9   	0 	0 	0 	0
YB+1_S10   	0 	0 	0 	0 	0
YB+1_S11   	2 	0 	0 	0
YB+1_S12   	0 	0 	0 	0
CH= 1 MOD= 40 BIAS= 26
YB+1_S1   	0 	0 	0 	2
YB+1_S2   	0 	0 	0 	0
YB+1_S3   	0 	0 	0 	0
YB+1_S4   	0 	0 	0 	0 	0
YB+1_S5   	0 	0 	0 	0
YB+1_S6   	0 	0 	0 	0
YB+1_S7   	0 	0 	0 	0
YB+1_S8   	0 	0 	0 	0
YB+1_S9   	0 	0 	0 	0
YB+1_S10   	0 	0 	63 	0 	0
YB+1_S11   	0 	0 	0 	0
YB+1_S12   	0 	0 	0 	0
YB+1_S1   	0 	0 	0 	0
YB+1_S2   	0 	0 	0 	0
YB+1_S3   	0 	0 	0 	0
YB+1_S4   	0 	0 	0 	0 	0
YB+1_S5   	0 	0 	0 	0
YB+1_S6   	0 	0 	0 	0
YB+1_S7   	0 	0 	0 	0
YB+1_S8   	0 	0 	0 	0
YB+1_S9   	0 	0 	0 	0
YB+1_S10   	0 	0 	0 	0 	0
YB+1_S11   	233 	0 	0 	0
YB+1_S12   	0 	0 	0 	0
CH= 1 MOD= 40 BIAS= 30
YB+1_S1   	0 	0 	0 	3
YB+1_S2   	0 	0 	0 	0
YB+1_S3   	0 	0 	0 	0
YB+1_S4   	0 	1 	0 	0 	0
YB+1_S5   	0 	0 	0 	0
YB+1_S6   	0 	0 	0 	0
YB+1_S7   	0 	0 	0 	0
YB+1_S8   	0 	0 	0 	12
YB+1_S9   	0 	0 	0 	0
YB+1_S10   	0 	0 	142 	0 	0
YB+1_S11   	0 	0 	0 	0
YB+1_S12   	0 	0 	0 	0
YB+1_S1   	0 	0 	0 	0
YB+1_S2   	0 	0 	0 	0
YB+1_S3   	0 	0 	0 	0
YB+1_S4   	0 	0 	0 	0 	0
YB+1_S5   	0 	0 	0 	0
YB+1_S6   	0 	0 	0 	0
YB+1_S7   	0 	0 	0 	0
YB+1_S8   	0 	0 	2 	0
YB+1_S9   	0 	0 	0 	0
YB+1_S10   	0 	0 	1 	0 	0
YB+1_S11   	1079 	0 	0 	0
YB+1_S12   	0 	0 	0 	0
CH= 1 MOD= 40 BIAS= 34
YB+1_S1   	0 	0 	0 	4
YB+1_S2   	0 	0 	0 	0
YB+1_S3   	0 	0 	0 	0
YB+1_S4   	0 	2082 	0 	0 	0
YB+1_S5   	0 	0 	0 	0
YB+1_S6   	0 	0 	0 	0
YB+1_S7   	0 	0 	0 	0
YB+1_S8   	0 	0 	0 	0
YB+1_S9   	0 	0 	0 	0
YB+1_S10   	0 	0 	57 	0 	0
YB+1_S11   	0 	0 	0 	0
YB+1_S12   	0 	0 	0 	0
YB+1_S1   	0 	0 	0 	0
YB+1_S2   	0 	0 	0 	0
YB+1_S3   	0 	0 	0 	0
YB+1_S4   	0 	0 	0 	0 	0
YB+1_S5   	0 	942 	0 	0
YB+1_S6   	0 	0 	0 	0
YB+1_S7   	0 	0 	0 	0
YB+1_S8   	0 	0 	14 	0
YB+1_S9   	0 	0 	0 	0
YB+1_S10   	0 	0 	0 	0 	0
YB+1_S11   	185 	0 	0 	0
YB+1_S12   	0 	0 	0 	0
CH= 1 MOD= 40 BIAS= 38
YB+1_S1   	0 	0 	0 	4
YB+1_S2   	0 	0 	0 	0
YB+1_S3   	0 	0 	0 	0
YB+1_S4   	0 	1906 	0 	0 	0
YB+1_S5   	0 	0 	0 	0
YB+1_S6   	0 	0 	0 	0
YB+1_S7   	0 	0 	0 	0
YB+1_S8   	0 	0 	0 	3
YB+1_S9   	0 	0 	0 	0
YB+1_S10   	0 	0 	70 	0 	0
YB+1_S11   	0 	0 	0 	0
YB+1_S12   	0 	0 	0 	0
YB+1_S1   	0 	0 	0 	0
YB+1_S2   	0 	0 	0 	0
YB+1_S3   	0 	0 	0 	0
YB+1_S4   	0 	0 	0 	0 	0
YB+1_S5   	0 	4142 	0 	0
YB+1_S6   	0 	0 	0 	0
YB+1_S7   	0 	0 	0 	0
YB+1_S8   	0 	0 	2477 	0
YB+1_S9   	0 	0 	0 	0
YB+1_S10   	0 	0 	2 	0 	0
YB+1_S11   	5217 	0 	0 	0
YB+1_S12   	0 	0 	0 	0
CH= 1 MOD= 40 BIAS= 42
YB+1_S1   	0 	0 	0 	1
YB+1_S2   	0 	0 	1 	0
YB+1_S3   	0 	0 	0 	0
YB+1_S4   	0 	2453 	0 	0 	0
YB+1_S5   	0 	0 	0 	0
YB+1_S6   	0 	0 	734 	0
YB+1_S7   	0 	0 	0 	0
YB+1_S8   	0 	0 	0 	526
YB+1_S9   	0 	0 	0 	29
YB+1_S10   	0 	0 	107 	0 	0
YB+1_S11   	0 	0 	0 	0
YB+1_S12   	2 	0 	0 	0
YB+1_S1   	3 	0 	0 	0
YB+1_S2   	0 	0 	0 	0
YB+1_S3   	0 	0 	0 	0
YB+1_S4   	0 	0 	0 	0 	0
YB+1_S5   	0 	3194 	0 	0
YB+1_S6   	0 	0 	0 	0
YB+1_S7   	0 	0 	0 	0
YB+1_S8   	0 	0 	120 	0
YB+1_S9   	0 	0 	0 	0
YB+1_S10   	0 	0 	1 	0 	0
YB+1_S11   	-38640 	0 	0 	0
YB+1_S12   	0 	0 	0 	0
CH= 1 MOD= 40 BIAS= 46
YB+1_S1   	0 	0 	0 	8
YB+1_S2   	158 	0 	1239 	0
YB+1_S3   	1 	0 	0 	0
YB+1_S4   	61 	6683 	0 	0 	0
YB+1_S5   	0 	0 	0 	0
YB+1_S6   	0 	0 	737 	2
YB+1_S7   	976 	0 	0 	0
YB+1_S8   	5638 	0 	0 	1470
YB+1_S9   	0 	0 	0 	1565
YB+1_S10   	0 	0 	148 	0 	0
YB+1_S11   	0 	0 	0 	67
YB+1_S12   	0 	0 	0 	0
YB+1_S1   	39 	0 	0 	0
YB+1_S2   	0 	0 	83 	0
YB+1_S3   	0 	5 	0 	0
YB+1_S4   	0 	1 	0 	0 	0
YB+1_S5   	0 	12320 	0 	0
YB+1_S6   	0 	0 	0 	0
YB+1_S7   	0 	6 	0 	0
YB+1_S8   	0 	41 	30795 	0
YB+1_S9   	0 	0 	0 	0
YB+1_S10   	0 	0 	53 	0 	0
YB+1_S11   	-30898 	0 	0 	0
YB+1_S12   	0 	0 	0 	0
CH= 1 MOD= 50 BIAS= 16
YB+1_S1   	0 	0 	0 	5
YB+1_S2   	0 	0 	0 	0
YB+1_S3   	0 	0 	0 	0
YB+1_S4   	0 	0 	0 	0 	0
YB+1_S5   	0 	0 	0 	0
YB+1_S6   	0 	0 	0 	0
YB+1_S7   	0 	0 	0 	1
YB+1_S8   	0 	0 	0 	0
YB+1_S9   	0 	8 	0 	0
YB+1_S10   	0 	6 	0 	0 	0
YB+1_S11   	0 	0 	0 	0
YB+1_S12   	0 	0 	0 	0
YB+1_S1   	0 	0 	0 	0
YB+1_S2   	1685 	0 	0 	26899
YB+1_S3   	0 	0 	12 	18747
YB+1_S4   	0 	0 	0 	0 	0
YB+1_S5   	0 	0 	0 	759
YB+1_S6   	0 	0 	0 	0
YB+1_S7   	0 	0 	0 	0
YB+1_S8   	0 	0 	0 	11
YB+1_S9   	0 	0 	0 	0
YB+1_S10   	0 	0 	1 	0 	0
YB+1_S11   	0 	0 	40 	0
YB+1_S12   	0 	0 	0 	0
CH= 1 MOD= 50 BIAS= 18
YB+1_S1   	0 	0 	0 	2
YB+1_S2   	0 	0 	0 	0
YB+1_S3   	0 	0 	0 	0
YB+1_S4   	0 	0 	0 	0 	0
YB+1_S5   	0 	0 	0 	0
YB+1_S6   	0 	0 	0 	0
YB+1_S7   	0 	0 	0 	0
YB+1_S8   	0 	0 	0 	0
YB+1_S9   	0 	0 	0 	0
YB+1_S10   	0 	0 	1 	0 	0
YB+1_S11   	0 	0 	0 	0
YB+1_S12   	0 	0 	0 	0
YB+1_S1   	0 	0 	0 	0
YB+1_S2   	0 	0 	0 	-23605
YB+1_S3   	0 	0 	0 	3046
YB+1_S4   	0 	0 	0 	0 	0
YB+1_S5   	0 	0 	0 	4
YB+1_S6   	0 	0 	0 	0
YB+1_S7   	0 	0 	0 	0
YB+1_S8   	0 	0 	0 	0
YB+1_S9   	0 	0 	0 	0
YB+1_S10   	0 	0 	0 	0 	0
YB+1_S11   	0 	0 	0 	0
YB+1_S12   	0 	0 	0 	0
CH= 1 MOD= 50 BIAS= 22
YB+1_S1   	0 	0 	0 	1
YB+1_S2   	0 	0 	0 	0
YB+1_S3   	0 	0 	0 	0
YB+1_S4   	0 	0 	0 	0 	0
YB+1_S5   	0 	0 	0 	0
YB+1_S6   	0 	0 	0 	0
YB+1_S7   	0 	0 	0 	0
YB+1_S8   	0 	0 	0 	0
YB+1_S9   	0 	0 	0 	0
YB+1_S10   	0 	0 	0 	0 	0
YB+1_S11   	0 	0 	0 	0
YB+1_S12   	0 	0 	0 	0
YB+1_S1   	0 	0 	0 	0
YB+1_S2   	0 	0 	0 	0
YB+1_S3   	0 	0 	0 	0
YB+1_S4   	0 	0 	0 	0 	0
YB+1_S5   	0 	0 	0 	0
YB+1_S6   	0 	0 	0 	0
YB+1_S7   	0 	0 	0 	0
YB+1_S8   	0 	0 	0 	0
YB+1_S9   	0 	0 	0 	0
YB+1_S10   	0 	0 	0 	0 	0
YB+1_S11   	1 	0 	0 	0
YB+1_S12   	0 	0 	0 	0
CH= 1 MOD= 50 BIAS= 26
YB+1_S1   	0 	0 	0 	4
YB+1_S2   	0 	0 	0 	0
YB+1_S3   	0 	0 	0 	0
YB+1_S4   	0 	0 	0 	0 	0
YB+1_S5   	0 	0 	0 	0
YB+1_S6   	0 	0 	0 	0
YB+1_S7   	0 	0 	0 	0
YB+1_S8   	0 	0 	0 	0
YB+1_S9   	0 	0 	0 	0
YB+1_S10   	0 	0 	48 	0 	0
YB+1_S11   	0 	0 	0 	0
YB+1_S12   	0 	0 	0 	0
YB+1_S1   	0 	0 	0 	0
YB+1_S2   	0 	0 	0 	0
YB+1_S3   	0 	0 	0 	0
YB+1_S4   	0 	0 	0 	0 	0
YB+1_S5   	0 	0 	0 	0
YB+1_S6   	0 	0 	0 	0
YB+1_S7   	0 	0 	0 	0
YB+1_S8   	0 	0 	0 	0
YB+1_S9   	0 	0 	0 	0
YB+1_S10   	0 	0 	0 	0 	0
YB+1_S11   	22 	0 	0 	0
YB+1_S12   	0 	0 	0 	0
CH= 1 MOD= 50 BIAS= 30
YB+1_S1   	0 	0 	0 	4
YB+1_S2   	0 	0 	0 	0
YB+1_S3   	0 	0 	0 	0
YB+1_S4   	0 	0 	0 	0 	0
YB+1_S5   	0 	0 	0 	0
YB+1_S6   	0 	0 	0 	0
YB+1_S7   	0 	0 	0 	0
YB+1_S8   	0 	0 	0 	1
YB+1_S9   	0 	0 	0 	1
YB+1_S10   	0 	0 	142 	0 	0
YB+1_S11   	0 	0 	0 	0
YB+1_S12   	0 	0 	0 	0
YB+1_S1   	0 	0 	0 	0
YB+1_S2   	0 	0 	0 	0
YB+1_S3   	0 	0 	0 	0
YB+1_S4   	0 	0 	0 	0 	0
YB+1_S5   	0 	0 	0 	0
YB+1_S6   	0 	0 	0 	0
YB+1_S7   	0 	0 	0 	0
YB+1_S8   	0 	0 	0 	0
YB+1_S9   	0 	0 	0 	0
YB+1_S10   	0 	0 	26 	0 	0
YB+1_S11   	298 	0 	0 	0
YB+1_S12   	0 	0 	0 	0
CH= 1 MOD= 50 BIAS= 34
YB+1_S1   	0 	0 	0 	4
YB+1_S2   	0 	0 	0 	0
YB+1_S3   	0 	0 	0 	0
YB+1_S4   	0 	2433 	0 	0 	0
YB+1_S5   	0 	0 	0 	0
YB+1_S6   	0 	0 	0 	0
YB+1_S7   	1 	0 	0 	0
YB+1_S8   	0 	0 	0 	0
YB+1_S9   	0 	0 	0 	0
YB+1_S10   	0 	0 	72 	0 	0
YB+1_S11   	0 	0 	0 	0
YB+1_S12   	0 	0 	0 	0
YB+1_S1   	0 	0 	0 	0
YB+1_S2   	0 	0 	0 	0
YB+1_S3   	0 	0 	0 	0
YB+1_S4   	0 	0 	0 	0 	0
YB+1_S5   	0 	464 	0 	0
YB+1_S6   	0 	0 	0 	0
YB+1_S7   	0 	0 	0 	0
YB+1_S8   	0 	0 	10 	0
YB+1_S9   	0 	0 	0 	0
YB+1_S10   	0 	0 	0 	0 	0
YB+1_S11   	65 	0 	0 	0
YB+1_S12   	0 	0 	0 	0
CH= 1 MOD= 50 BIAS= 38
YB+1_S1   	0 	0 	0 	3
YB+1_S2   	0 	0 	1 	0
YB+1_S3   	0 	0 	0 	0
YB+1_S4   	0 	2952 	0 	0 	0
YB+1_S5   	0 	0 	0 	0
YB+1_S6   	0 	0 	0 	0
YB+1_S7   	0 	0 	0 	0
YB+1_S8   	0 	0 	0 	0
YB+1_S9   	0 	0 	0 	0
YB+1_S10   	0 	0 	148 	0 	0
YB+1_S11   	0 	0 	0 	0
YB+1_S12   	0 	0 	0 	0
YB+1_S1   	0 	0 	0 	0
YB+1_S2   	0 	0 	0 	0
YB+1_S3   	0 	0 	0 	0
YB+1_S4   	0 	0 	0 	0 	0
YB+1_S5   	0 	5703 	0 	0
YB+1_S6   	0 	0 	0 	0
YB+1_S7   	0 	0 	0 	0
YB+1_S8   	0 	1 	1204 	0
YB+1_S9   	0 	0 	0 	0
YB+1_S10   	0 	0 	1 	0 	0
YB+1_S11   	4072 	0 	0 	0
YB+1_S12   	0 	0 	0 	0
CH= 1 MOD= 50 BIAS= 42
YB+1_S1   	0 	0 	0 	5
YB+1_S2   	0 	0 	143 	0
YB+1_S3   	0 	0 	0 	0
YB+1_S4   	0 	4439 	0 	0 	0
YB+1_S5   	0 	0 	0 	0
YB+1_S6   	0 	0 	111 	0
YB+1_S7   	0 	0 	0 	0
YB+1_S8   	0 	0 	1 	457
YB+1_S9   	0 	0 	0 	14
YB+1_S10   	0 	0 	102 	0 	0
YB+1_S11   	0 	0 	0 	0
YB+1_S12   	0 	0 	0 	0
YB+1_S1   	0 	0 	0 	0
YB+1_S2   	0 	0 	0 	0
YB+1_S3   	0 	0 	0 	0
YB+1_S4   	0 	0 	0 	0 	2
YB+1_S5   	0 	5799 	0 	0
YB+1_S6   	0 	0 	0 	0
YB+1_S7   	0 	0 	0 	0
YB+1_S8   	0 	0 	140 	0
YB+1_S9   	0 	0 	0 	0
YB+1_S10   	0 	0 	1 	0 	0
YB+1_S11   	-29945 	0 	0 	0
YB+1_S12   	0 	0 	0 	0
CH= 1 MOD= 50 BIAS= 46
YB+1_S1   	0 	0 	0 	4
YB+1_S2   	4 	0 	3413 	1
YB+1_S3   	21 	0 	0 	0
YB+1_S4   	5 	13532 	0 	0 	0
YB+1_S5   	0 	0 	0 	0
YB+1_S6   	0 	0 	328 	17
YB+1_S7   	4361 	0 	0 	0
YB+1_S8   	6134 	0 	0 	4642
YB+1_S9   	0 	0 	0 	665
YB+1_S10   	0 	0 	149 	0 	0
YB+1_S11   	0 	0 	0 	118
YB+1_S12   	0 	0 	0 	0
YB+1_S1   	32 	0 	0 	0
YB+1_S2   	0 	0 	47 	0
YB+1_S3   	0 	7 	0 	0
YB+1_S4   	0 	0 	0 	0 	2
YB+1_S5   	0 	-27500 	0 	0
YB+1_S6   	0 	0 	0 	0
YB+1_S7   	0 	82 	0 	0
YB+1_S8   	0 	37 	50053 	0
YB+1_S9   	0 	0 	0 	0
YB+1_S10   	0 	0 	84 	0 	0
YB+1_S11   	-9929 	0 	0 	0
YB+1_S12   	1 	0 	0 	0
CH= 1 MOD= 60 BIAS= 16
YB+1_S1   	0 	0 	0 	6
YB+1_S2   	0 	0 	0 	0
YB+1_S3   	0 	0 	0 	0
YB+1_S4   	0 	0 	0 	0 	0
YB+1_S5   	0 	0 	0 	0
YB+1_S6   	0 	0 	0 	0
YB+1_S7   	0 	0 	0 	0
YB+1_S8   	0 	0 	0 	0
YB+1_S9   	0 	0 	0 	0
YB+1_S10   	0 	0 	0 	0 	0
YB+1_S11   	0 	0 	0 	0
YB+1_S12   	0 	0 	0 	0
YB+1_S1   	0 	0 	0 	0
YB+1_S2   	20 	0 	0 	17508
YB+1_S3   	0 	0 	0 	30868
YB+1_S4   	0 	0 	0 	0 	0
YB+1_S5   	0 	0 	0 	185
YB+1_S6   	0 	0 	0 	0
YB+1_S7   	0 	0 	0 	0
YB+1_S8   	0 	0 	0 	14
YB+1_S9   	0 	0 	0 	0
YB+1_S10   	0 	0 	23 	0 	0
YB+1_S11   	0 	0 	0 	0
YB+1_S12   	0 	0 	0 	0
CH= 1 MOD= 60 BIAS= 18
YB+1_S1   	0 	0 	0 	3
YB+1_S2   	0 	0 	0 	0
YB+1_S3   	0 	0 	0 	0
YB+1_S4   	0 	0 	0 	0 	0
YB+1_S5   	0 	0 	0 	0
YB+1_S6   	0 	0 	0 	0
YB+1_S7   	0 	0 	0 	0
YB+1_S8   	0 	0 	0 	0
YB+1_S9   	0 	0 	0 	0
YB+1_S10   	0 	0 	0 	0 	0
YB+1_S11   	0 	0 	0 	0
YB+1_S12   	0 	0 	0 	0
YB+1_S1   	0 	0 	0 	0
YB+1_S2   	0 	0 	0 	-41107
YB+1_S3   	0 	0 	0 	8
YB+1_S4   	0 	0 	0 	0 	0
YB+1_S5   	0 	0 	0 	0
YB+1_S6   	0 	0 	0 	0
YB+1_S7   	0 	0 	0 	0
YB+1_S8   	0 	0 	0 	0
YB+1_S9   	0 	0 	0 	0
YB+1_S10   	0 	0 	2 	0 	0
YB+1_S11   	0 	0 	0 	0
YB+1_S12   	0 	0 	0 	0
CH= 1 MOD= 60 BIAS= 22
YB+1_S1   	0 	0 	0 	2
YB+1_S2   	0 	0 	0 	0
YB+1_S3   	0 	0 	0 	0
YB+1_S4   	0 	0 	0 	0 	0
YB+1_S5   	0 	0 	0 	0
YB+1_S6   	0 	0 	0 	0
YB+1_S7   	0 	0 	0 	0
YB+1_S8   	0 	0 	0 	0
YB+1_S9   	0 	0 	0 	1
YB+1_S10   	0 	0 	1 	0 	0
YB+1_S11   	0 	0 	0 	0
YB+1_S12   	0 	0 	0 	0
YB+1_S1   	0 	0 	0 	0
YB+1_S2   	0 	0 	0 	0
YB+1_S3   	0 	0 	0 	0
YB+1_S4   	0 	3 	0 	0 	0
YB+1_S5   	0 	0 	0 	0
YB+1_S6   	0 	0 	0 	0
YB+1_S7   	0 	0 	0 	0
YB+1_S8   	0 	0 	0 	0
YB+1_S9   	0 	0 	0 	0
YB+1_S10   	0 	0 	0 	0 	0
YB+1_S11   	0 	0 	0 	0
YB+1_S12   	0 	0 	0 	0
CH= 1 MOD= 60 BIAS= 26
YB+1_S1   	0 	0 	0 	4
YB+1_S2   	0 	0 	0 	0
YB+1_S3   	0 	0 	0 	0
YB+1_S4   	0 	0 	0 	0 	0
YB+1_S5   	0 	0 	0 	0
YB+1_S6   	0 	0 	0 	0
YB+1_S7   	2 	0 	0 	0
YB+1_S8   	0 	0 	0 	0
YB+1_S9   	0 	0 	0 	0
YB+1_S10   	0 	0 	14 	0 	0
YB+1_S11   	0 	0 	0 	0
YB+1_S12   	0 	0 	0 	0
YB+1_S1   	0 	0 	0 	0
YB+1_S2   	0 	0 	0 	0
YB+1_S3   	0 	0 	0 	0
YB+1_S4   	0 	0 	0 	0 	0
YB+1_S5   	0 	0 	0 	0
YB+1_S6   	0 	0 	0 	0
YB+1_S7   	0 	0 	0 	0
YB+1_S8   	0 	0 	0 	0
YB+1_S9   	0 	0 	0 	0
YB+1_S10   	0 	0 	0 	0 	0
YB+1_S11   	19 	0 	0 	0
YB+1_S12   	0 	0 	0 	0
CH= 1 MOD= 60 BIAS= 30
YB+1_S1   	0 	0 	0 	3
YB+1_S2   	0 	0 	0 	0
YB+1_S3   	0 	0 	0 	0
YB+1_S4   	0 	2 	0 	0 	0
YB+1_S5   	0 	0 	0 	0
YB+1_S6   	0 	0 	0 	0
YB+1_S7   	1 	0 	0 	0
YB+1_S8   	0 	0 	0 	3
YB+1_S9   	0 	0 	0 	0
YB+1_S10   	0 	0 	37 	0 	0
YB+1_S11   	0 	0 	0 	0
YB+1_S12   	0 	0 	0 	0
YB+1_S1   	0 	0 	0 	0
YB+1_S2   	6 	0 	0 	0
YB+1_S3   	0 	0 	0 	0
YB+1_S4   	0 	0 	0 	0 	0
YB+1_S5   	0 	0 	0 	0
YB+1_S6   	0 	0 	0 	0
YB+1_S7   	0 	0 	0 	0
YB+1_S8   	0 	0 	0 	0
YB+1_S9   	0 	0 	0 	0
YB+1_S10   	0 	0 	0 	0 	0
YB+1_S11   	314 	0 	0 	0
YB+1_S12   	0 	0 	0 	0
CH= 1 MOD= 60 BIAS= 34
YB+1_S1   	0 	0 	0 	2
YB+1_S2   	0 	0 	39 	0
YB+1_S3   	0 	0 	0 	0
YB+1_S4   	0 	6790 	0 	0 	0
YB+1_S5   	0 	0 	0 	0
YB+1_S6   	0 	0 	0 	0
YB+1_S7   	6 	0 	0 	0
YB+1_S8   	0 	0 	0 	0
YB+1_S9   	0 	0 	0 	0
YB+1_S10   	0 	0 	108 	0 	0
YB+1_S11   	0 	0 	0 	0
YB+1_S12   	0 	0 	0 	0
YB+1_S1   	0 	0 	0 	0
YB+1_S2   	0 	0 	0 	0
YB+1_S3   	0 	0 	0 	0
YB+1_S4   	0 	0 	0 	0 	0
YB+1_S5   	0 	782 	0 	0
YB+1_S6   	0 	0 	0 	0
YB+1_S7   	0 	1 	0 	0
YB+1_S8   	0 	0 	67 	0
YB+1_S9   	0 	0 	0 	0
YB+1_S10   	0 	0 	0 	0 	0
YB+1_S11   	114 	0 	0 	0
YB+1_S12   	0 	0 	0 	0
CH= 1 MOD= 60 BIAS= 38
YB+1_S1   	0 	0 	0 	5
YB+1_S2   	0 	0 	10 	0
YB+1_S3   	0 	0 	0 	0
YB+1_S4   	0 	12994 	0 	0 	0
YB+1_S5   	0 	0 	0 	0
YB+1_S6   	0 	0 	0 	0
YB+1_S7   	25 	1 	0 	0
YB+1_S8   	5 	0 	0 	3
YB+1_S9   	0 	0 	0 	1
YB+1_S10   	0 	0 	100 	0 	0
YB+1_S11   	0 	0 	0 	1
YB+1_S12   	0 	0 	0 	0
YB+1_S1   	0 	0 	0 	0
YB+1_S2   	0 	0 	0 	0
YB+1_S3   	0 	0 	0 	0
YB+1_S4   	0 	0 	0 	0 	0
YB+1_S5   	0 	13929 	0 	0
YB+1_S6   	0 	0 	0 	0
YB+1_S7   	0 	0 	0 	0
YB+1_S8   	0 	12 	2463 	0
YB+1_S9   	0 	0 	0 	0
YB+1_S10   	0 	0 	10 	0 	0
YB+1_S11   	-53929 	0 	0 	0
YB+1_S12   	0 	0 	0 	0
CH= 1 MOD= 60 BIAS= 42
YB+1_S1   	0 	0 	0 	5
YB+1_S2   	0 	0 	13765 	4
YB+1_S3   	3 	0 	0 	0
YB+1_S4   	6 	36244 	0 	0 	0
YB+1_S5   	0 	0 	0 	0
YB+1_S6   	0 	0 	0 	0
YB+1_S7   	19 	0 	1 	0
YB+1_S8   	13 	0 	30 	822
YB+1_S9   	0 	0 	0 	75
YB+1_S10   	0 	0 	102 	0 	0
YB+1_S11   	0 	0 	0 	0
YB+1_S12   	1 	0 	0 	0
YB+1_S1   	20 	0 	0 	0
YB+1_S2   	1 	0 	1 	0
YB+1_S3   	0 	0 	0 	0
YB+1_S4   	0 	0 	0 	0 	96
YB+1_S5   	4 	-29077 	0 	0
YB+1_S6   	0 	0 	0 	0
YB+1_S7   	0 	7 	2 	0
YB+1_S8   	0 	17 	1261 	0
YB+1_S9   	0 	0 	0 	0
YB+1_S10   	0 	0 	13 	0 	0
YB+1_S11   	-8416 	0 	0 	0
YB+1_S12   	0 	0 	0 	0
CH= 1 MOD= 60 BIAS= 46
YB+1_S1   	0 	0 	0 	0
YB+1_S2   	10 	0 	13038 	278
YB+1_S3   	2804 	2 	0 	0
YB+1_S4   	9 	-44200 	0 	5 	0
YB+1_S5   	0 	0 	0 	0
YB+1_S6   	0 	0 	2878 	311
YB+1_S7   	-18045 	0 	1 	0
YB+1_S8   	21528 	0 	33 	19176
YB+1_S9   	0 	0 	0 	3395
YB+1_S10   	0 	9 	79 	2 	1
YB+1_S11   	0 	0 	0 	602
YB+1_S12   	7 	0 	0 	0
YB+1_S1   	251 	0 	0 	0
YB+1_S2   	6 	0 	129 	0
YB+1_S3   	0 	51 	0 	0
YB+1_S4   	0 	0 	0 	0 	131
YB+1_S5   	28 	22095 	0 	0
YB+1_S6   	0 	0 	0 	0
YB+1_S7   	0 	2102 	11 	0
YB+1_S8   	3 	354 	12942 	0
YB+1_S9   	0 	0 	0 	0
YB+1_S10   	0 	0 	260 	0 	0
YB+1_S11   	12295 	0 	0 	0
YB+1_S12   	3 	0 	4 	0
CH= 1 MOD= 70 BIAS= 16
YB+1_S1   	0 	0 	0 	2
YB+1_S2   	0 	0 	0 	0
YB+1_S3   	0 	0 	0 	0
YB+1_S4   	0 	0 	0 	0 	0
YB+1_S5   	0 	0 	0 	0
YB+1_S6   	0 	0 	0 	0
YB+1_S7   	0 	0 	0 	0
YB+1_S8   	0 	0 	0 	0
YB+1_S9   	0 	0 	0 	0
YB+1_S10   	0 	0 	0 	0 	0
YB+1_S11   	0 	0 	0 	0
YB+1_S12   	0 	0 	0 	0
YB+1_S1   	0 	0 	0 	0
YB+1_S2   	0 	0 	0 	36517
YB+1_S3   	0 	0 	0 	13914
YB+1_S4   	0 	0 	0 	0 	0
YB+1_S5   	0 	0 	0 	153
YB+1_S6   	0 	0 	0 	0
YB+1_S7   	0 	0 	0 	0
YB+1_S8   	0 	0 	0 	3
YB+1_S9   	0 	0 	0 	0
YB+1_S10   	0 	0 	0 	0 	0
YB+1_S11   	0 	0 	0 	0
YB+1_S12   	0 	0 	0 	0
CH= 1 MOD= 70 BIAS= 18
YB+1_S1   	0 	0 	0 	0
YB+1_S2   	0 	0 	0 	0
YB+1_S3   	0 	0 	0 	0
YB+1_S4   	0 	0 	0 	0 	0
YB+1_S5   	0 	0 	0 	0
YB+1_S6   	0 	0 	0 	0
YB+1_S7   	0 	0 	0 	0
YB+1_S8   	0 	0 	0 	0
YB+1_S9   	0 	0 	0 	0
YB+1_S10   	0 	0 	1 	0 	0
YB+1_S11   	0 	0 	0 	0
YB+1_S12   	0 	0 	0 	0
YB+1_S1   	0 	0 	0 	0
YB+1_S2   	0 	0 	0 	22941
YB+1_S3   	0 	0 	0 	5
YB+1_S4   	0 	0 	0 	0 	0
YB+1_S5   	0 	0 	0 	0
YB+1_S6   	0 	0 	0 	0
YB+1_S7   	0 	0 	0 	0
YB+1_S8   	0 	0 	0 	0
YB+1_S9   	0 	0 	0 	0
YB+1_S10   	0 	0 	0 	0 	0
YB+1_S11   	0 	0 	0 	0
YB+1_S12   	0 	0 	0 	0
CH= 1 MOD= 70 BIAS= 22
YB+1_S1   	0 	0 	0 	1
YB+1_S2   	0 	0 	0 	0
YB+1_S3   	0 	0 	0 	0
YB+1_S4   	0 	0 	0 	0 	0
YB+1_S5   	0 	0 	0 	0
YB+1_S6   	0 	0 	0 	0
YB+1_S7   	0 	0 	0 	0
YB+1_S8   	0 	0 	0 	0
YB+1_S9   	0 	0 	0 	0
YB+1_S10   	0 	0 	15 	0 	0
YB+1_S11   	0 	0 	0 	0
YB+1_S12   	0 	0 	0 	0
YB+1_S1   	0 	0 	0 	0
YB+1_S2   	0 	0 	0 	0
YB+1_S3   	0 	0 	0 	0
YB+1_S4   	0 	0 	0 	0 	0
YB+1_S5   	0 	0 	0 	0
YB+1_S6   	0 	0 	0 	0
YB+1_S7   	0 	0 	0 	0
YB+1_S8   	0 	0 	0 	0
YB+1_S9   	0 	0 	0 	0
YB+1_S10   	0 	0 	0 	0 	0
YB+1_S11   	0 	0 	0 	0
YB+1_S12   	0 	0 	0 	0
CH= 1 MOD= 70 BIAS= 26
YB+1_S1   	0 	0 	0 	1
YB+1_S2   	0 	0 	0 	0
YB+1_S3   	0 	0 	0 	0
YB+1_S4   	0 	0 	0 	0 	0
YB+1_S5   	0 	0 	0 	0
YB+1_S6   	0 	0 	0 	0
YB+1_S7   	1506 	0 	0 	0
YB+1_S8   	5 	0 	0 	0
YB+1_S9   	0 	0 	0 	0
YB+1_S10   	0 	0 	56 	0 	0
YB+1_S11   	0 	0 	0 	0
YB+1_S12   	0 	0 	0 	0
YB+1_S1   	0 	0 	0 	0
YB+1_S2   	0 	0 	0 	0
YB+1_S3   	0 	0 	0 	0
YB+1_S4   	0 	0 	0 	0 	0
YB+1_S5   	0 	0 	0 	0
YB+1_S6   	0 	0 	0 	0
YB+1_S7   	0 	0 	0 	0
YB+1_S8   	0 	0 	0 	0
YB+1_S9   	0 	0 	0 	0
YB+1_S10   	0 	0 	0 	0 	0
YB+1_S11   	23 	0 	0 	0
YB+1_S12   	0 	0 	0 	0
CH= 1 MOD= 70 BIAS= 30
YB+1_S1   	0 	0 	0 	5
YB+1_S2   	0 	0 	0 	0
YB+1_S3   	0 	0 	0 	0
YB+1_S4   	0 	114 	0 	0 	0
YB+1_S5   	0 	0 	0 	0
YB+1_S6   	0 	0 	0 	6
YB+1_S7   	428 	0 	7 	0
YB+1_S8   	0 	0 	0 	9
YB+1_S9   	0 	0 	0 	0
YB+1_S10   	0 	0 	149 	0 	0
YB+1_S11   	0 	0 	0 	0
YB+1_S12   	0 	0 	0 	0
YB+1_S1   	0 	0 	0 	0
YB+1_S2   	2425 	0 	0 	0
YB+1_S3   	0 	0 	0 	0
YB+1_S4   	0 	1 	0 	0 	0
YB+1_S5   	0 	3 	0 	0
YB+1_S6   	0 	0 	0 	0
YB+1_S7   	0 	0 	1 	0
YB+1_S8   	0 	0 	1 	0
YB+1_S9   	0 	0 	0 	0
YB+1_S10   	0 	0 	6 	0 	0
YB+1_S11   	750 	0 	0 	0
YB+1_S12   	0 	0 	0 	0
CH= 1 MOD= 70 BIAS= 34
YB+1_S1   	0 	0 	0 	4
YB+1_S2   	0 	0 	1750 	0
YB+1_S3   	0 	0 	0 	0
YB+1_S4   	0 	-37253 	0 	0 	0
YB+1_S5   	0 	0 	0 	0
YB+1_S6   	0 	0 	0 	0
YB+1_S7   	668 	0 	0 	0
YB+1_S8   	0 	0 	0 	0
YB+1_S9   	0 	0 	0 	1
YB+1_S10   	0 	0 	55 	0 	0
YB+1_S11   	0 	0 	0 	0
YB+1_S12   	0 	0 	0 	0
YB+1_S1   	1 	0 	0 	0
YB+1_S2   	0 	0 	0 	0
YB+1_S3   	0 	0 	0 	0
YB+1_S4   	0 	0 	0 	0 	0
YB+1_S5   	0 	2750 	0 	0
YB+1_S6   	0 	0 	0 	0
YB+1_S7   	0 	28 	3 	0
YB+1_S8   	0 	1 	960 	0
YB+1_S9   	0 	0 	0 	0
YB+1_S10   	0 	0 	0 	0 	0
YB+1_S11   	464 	0 	0 	0
YB+1_S12   	0 	0 	0 	0
CH= 1 MOD= 70 BIAS= 38
YB+1_S1   	0 	0 	0 	9
YB+1_S2   	0 	0 	313 	8
YB+1_S3   	18 	0 	0 	0
YB+1_S4   	0 	-6733 	0 	0 	0
YB+1_S5   	0 	0 	0 	0
YB+1_S6   	0 	0 	0 	7
YB+1_S7   	1673 	102 	50 	0
YB+1_S8   	124 	0 	4 	58
YB+1_S9   	0 	0 	0 	11
YB+1_S10   	0 	0 	194 	0 	0
YB+1_S11   	0 	0 	0 	1
YB+1_S12   	0 	0 	0 	0
YB+1_S1   	2 	0 	0 	0
YB+1_S2   	139 	0 	0 	0
YB+1_S3   	0 	1 	0 	0
YB+1_S4   	0 	0 	0 	0 	0
YB+1_S5   	38 	33843 	0 	0
YB+1_S6   	0 	0 	0 	0
YB+1_S7   	0 	8 	4 	0
YB+1_S8   	0 	131 	-54756 	0
YB+1_S9   	0 	0 	0 	0
YB+1_S10   	0 	0 	151 	0 	0
YB+1_S11   	-16594 	0 	0 	0
YB+1_S12   	0 	0 	0 	0
CH= 1 MOD= 70 BIAS= 42
YB+1_S1   	0 	0 	0 	5
YB+1_S2   	3 	0 	16131 	374
YB+1_S3   	538 	0 	0 	0
YB+1_S4   	420 	20951 	0 	0 	0
YB+1_S5   	0 	0 	0 	0
YB+1_S6   	0 	0 	0 	40
YB+1_S7   	2974 	82 	52 	0
YB+1_S8   	651 	0 	1671 	2674
YB+1_S9   	0 	0 	0 	1608
YB+1_S10   	0 	1 	188 	5 	3
YB+1_S11   	0 	0 	0 	0
YB+1_S12   	19 	0 	0 	0
YB+1_S1   	102 	0 	0 	0
YB+1_S2   	167 	0 	11 	0
YB+1_S3   	0 	0 	0 	0
YB+1_S4   	0 	0 	0 	0 	1761
YB+1_S5   	669 	-29424 	0 	0
YB+1_S6   	0 	0 	0 	0
YB+1_S7   	0 	632 	369 	0
YB+1_S8   	1 	401 	8979 	0
YB+1_S9   	0 	0 	0 	0
YB+1_S10   	0 	0 	80 	0 	0
YB+1_S11   	25425 	0 	0 	3
YB+1_S12   	0 	0 	0 	0
CH= 1 MOD= 70 BIAS= 46
YB+1_S1   	21 	0 	0 	14
YB+1_S2   	108 	0 	2575 	-50902
YB+1_S3   	-9864 	46 	0 	0
YB+1_S4   	35 	19612 	4 	19 	0
YB+1_S5   	0 	0 	32 	0
YB+1_S6   	0 	0 	-34777 	4634
YB+1_S7   	7954 	538 	562 	0
YB+1_S8   	10217 	68 	1340 	-7260
YB+1_S9   	57 	0 	0 	38429
YB+1_S10   	0 	157 	345 	580 	76
YB+1_S11   	0 	0 	0 	2616
YB+1_S12   	190 	0 	0 	0
YB+1_S1   	3750 	0 	0 	0
YB+1_S2   	731 	0 	818 	0
YB+1_S3   	0 	197 	0 	0
YB+1_S4   	6 	0 	0 	0 	815
YB+1_S5   	2406 	-22353 	0 	0
YB+1_S6   	4 	0 	0 	0
YB+1_S7   	0 	-31235 	409 	0
YB+1_S8   	256 	3921 	-18278 	0
YB+1_S9   	0 	34 	0 	0
YB+1_S10   	0 	0 	1337 	0 	0
YB+1_S11   	8038 	0 	0 	0
YB+1_S12   	140 	0 	372 	0
CH= 1 MOD= 80 BIAS= 16
YB+1_S1   	0 	0 	0 	8
YB+1_S2   	0 	0 	0 	0
YB+1_S3   	0 	0 	0 	0
YB+1_S4   	0 	0 	0 	0 	0
YB+1_S5   	0 	0 	0 	0
YB+1_S6   	0 	0 	0 	0
YB+1_S7   	0 	0 	0 	0
YB+1_S8   	0 	0 	0 	0
YB+1_S9   	0 	0 	0 	0
YB+1_S10   	0 	0 	0 	0 	0
YB+1_S11   	0 	0 	0 	0
YB+1_S12   	0 	0 	0 	0
YB+1_S1   	0 	0 	0 	0
YB+1_S2   	0 	0 	0 	-36772
YB+1_S3   	0 	0 	0 	478
YB+1_S4   	0 	0 	0 	0 	0
YB+1_S5   	0 	0 	0 	68
YB+1_S6   	0 	0 	0 	0
YB+1_S7   	0 	0 	0 	0
YB+1_S8   	0 	0 	0 	7
YB+1_S9   	0 	0 	0 	0
YB+1_S10   	0 	0 	0 	0 	0
YB+1_S11   	0 	0 	0 	0
YB+1_S12   	0 	0 	0 	0
CH= 1 MOD= 80 BIAS= 18
YB+1_S1   	0 	0 	0 	4
YB+1_S2   	0 	0 	0 	0
YB+1_S3   	0 	0 	0 	0
YB+1_S4   	0 	0 	0 	0 	0
YB+1_S5   	0 	0 	0 	0
YB+1_S6   	0 	0 	0 	0
YB+1_S7   	0 	0 	0 	0
YB+1_S8   	0 	0 	0 	0
YB+1_S9   	0 	0 	0 	0
YB+1_S10   	0 	0 	0 	0 	0
YB+1_S11   	0 	0 	0 	0
YB+1_S12   	0 	0 	0 	0
YB+1_S1   	0 	0 	0 	0
YB+1_S2   	0 	0 	0 	1552
YB+1_S3   	0 	0 	0 	0
YB+1_S4   	0 	0 	0 	0 	0
YB+1_S5   	0 	0 	0 	0
YB+1_S6   	0 	0 	0 	0
YB+1_S7   	0 	0 	0 	0
YB+1_S8   	0 	0 	0 	0
YB+1_S9   	0 	0 	0 	0
YB+1_S10   	0 	0 	0 	0 	0
YB+1_S11   	0 	0 	0 	0
YB+1_S12   	0 	0 	0 	0
CH= 1 MOD= 80 BIAS= 22
YB+1_S1   	0 	0 	0 	4
YB+1_S2   	0 	0 	0 	0
YB+1_S3   	0 	0 	0 	0
YB+1_S4   	0 	0 	0 	0 	0
YB+1_S5   	0 	0 	0 	0
YB+1_S6   	0 	0 	0 	0
YB+1_S7   	0 	0 	0 	0
YB+1_S8   	0 	0 	0 	0
YB+1_S9   	0 	0 	0 	0
YB+1_S10   	0 	0 	41 	0 	45
YB+1_S11   	0 	0 	0 	0
YB+1_S12   	0 	0 	0 	0
YB+1_S1   	0 	0 	0 	0
YB+1_S2   	0 	0 	0 	0
YB+1_S3   	0 	0 	0 	0
YB+1_S4   	0 	0 	0 	0 	0
YB+1_S5   	0 	0 	0 	0
YB+1_S6   	0 	0 	0 	0
YB+1_S7   	0 	0 	0 	0
YB+1_S8   	0 	0 	0 	0
YB+1_S9   	0 	1 	0 	0
YB+1_S10   	0 	0 	25 	0 	0
YB+1_S11   	0 	0 	0 	0
YB+1_S12   	0 	0 	0 	0
CH= 1 MOD= 80 BIAS= 26
YB+1_S1   	0 	0 	0 	4
YB+1_S2   	0 	0 	0 	0
YB+1_S3   	6 	0 	0 	0
YB+1_S4   	0 	56 	0 	0 	0
YB+1_S5   	0 	0 	0 	0
YB+1_S6   	0 	0 	0 	0
YB+1_S7   	19251 	29 	0 	0
YB+1_S8   	14 	0 	0 	0
YB+1_S9   	0 	0 	0 	0
YB+1_S10   	0 	0 	65 	0 	0
YB+1_S11   	0 	0 	0 	0
YB+1_S12   	0 	0 	0 	0
YB+1_S1   	0 	0 	0 	0
YB+1_S2   	0 	0 	0 	0
YB+1_S3   	0 	0 	0 	0
YB+1_S4   	0 	0 	0 	0 	0
YB+1_S5   	0 	8 	0 	0
YB+1_S6   	0 	0 	0 	0
YB+1_S7   	0 	0 	0 	0
YB+1_S8   	0 	0 	0 	0
YB+1_S9   	0 	0 	0 	0
YB+1_S10   	0 	0 	0 	0 	0
YB+1_S11   	103 	0 	0 	0
YB+1_S12   	0 	0 	0 	0
CH= 1 MOD= 80 BIAS= 30
YB+1_S1   	0 	2 	0 	6
YB+1_S2   	0 	0 	13 	62
YB+1_S3   	135 	0 	2 	0
YB+1_S4   	0 	3597 	0 	0 	0
YB+1_S5   	0 	0 	1 	0
YB+1_S6   	0 	0 	0 	216
YB+1_S7   	24766 	5 	155 	0
YB+1_S8   	9 	0 	0 	72
YB+1_S9   	0 	0 	0 	0
YB+1_S10   	0 	0 	171 	0 	1
YB+1_S11   	0 	0 	0 	0
YB+1_S12   	0 	0 	0 	0
YB+1_S1   	0 	0 	0 	0
YB+1_S2   	-6641 	0 	2 	0
YB+1_S3   	0 	0 	1 	0
YB+1_S4   	0 	0 	0 	0 	0
YB+1_S5   	0 	301 	0 	0
YB+1_S6   	0 	0 	17 	0
YB+1_S7   	0 	8 	17 	0
YB+1_S8   	0 	0 	14 	0
YB+1_S9   	0 	1 	0 	0
YB+1_S10   	0 	0 	0 	0 	0
YB+1_S11   	2722 	0 	0 	0
YB+1_S12   	0 	0 	0 	0
CH= 1 MOD= 80 BIAS= 34
YB+1_S1   	0 	0 	0 	2
YB+1_S2   	0 	0 	-29185 	2
YB+1_S3   	0 	0 	0 	0
YB+1_S4   	0 	-9403 	0 	0 	0
YB+1_S5   	0 	0 	5 	0
YB+1_S6   	0 	0 	0 	115
YB+1_S7   	-45784 	32 	106 	0
YB+1_S8   	24 	0 	0 	10
YB+1_S9   	0 	0 	0 	15
YB+1_S10   	0 	2 	76 	0 	1
YB+1_S11   	0 	0 	0 	0
YB+1_S12   	0 	0 	0 	0
YB+1_S1   	19 	0 	0 	0
YB+1_S2   	876 	0 	0 	0
YB+1_S3   	0 	0 	0 	0
YB+1_S4   	0 	0 	0 	0 	0
YB+1_S5   	0 	12114 	0 	0
YB+1_S6   	1 	0 	0 	0
YB+1_S7   	0 	2094 	265 	0
YB+1_S8   	13 	22 	11807 	0
YB+1_S9   	0 	1 	0 	0
YB+1_S10   	0 	0 	46 	0 	0
YB+1_S11   	3386 	0 	0 	0
YB+1_S12   	0 	0 	0 	0
CH= 1 MOD= 80 BIAS= 38
YB+1_S1   	0 	0 	0 	8
YB+1_S2   	0 	0 	6598 	815
YB+1_S3   	1929 	0 	0 	0
YB+1_S4   	1 	29772 	28 	0 	0
YB+1_S5   	0 	0 	2 	0
YB+1_S6   	0 	0 	0 	2459
YB+1_S7   	-7579 	10052 	6786 	0
YB+1_S8   	-62709 	7 	259 	1235
YB+1_S9   	1 	0 	0 	312
YB+1_S10   	1 	28 	78 	65 	110
YB+1_S11   	0 	0 	0 	25
YB+1_S12   	1 	0 	0 	0
YB+1_S1   	43 	0 	0 	0
YB+1_S2   	14703 	0 	14 	0
YB+1_S3   	0 	233 	0 	0
YB+1_S4   	0 	0 	0 	0 	47
YB+1_S5   	14564 	31162 	7 	0
YB+1_S6   	20 	0 	2 	0
YB+1_S7   	2 	1089 	882 	0
YB+1_S8   	2 	1729 	-3004 	0
YB+1_S9   	0 	30 	0 	0
YB+1_S10   	0 	0 	1245 	0 	0
YB+1_S11   	-8778 	0 	0 	0
YB+1_S12   	0 	0 	83 	0
CH= 1 MOD= 80 BIAS= 42
YB+1_S1   	43 	100 	0 	4
YB+1_S2   	83 	0 	-33924 	16944
YB+1_S3   	34588 	18 	24 	0
YB+1_S4   	15702 	7263 	6 	0 	0
YB+1_S5   	0 	1 	226 	0
YB+1_S6   	0 	0 	0 	7183
YB+1_S7   	-48777 	13086 	5817 	3
YB+1_S8   	-39569 	372 	28066 	-38306
YB+1_S9   	24 	0 	0 	-40812
YB+1_S10   	24 	137 	110 	915 	417
YB+1_S11   	0 	0 	0 	96
YB+1_S12   	657 	0 	14 	0
YB+1_S1   	930 	4 	0 	0
YB+1_S2   	-51774 	0 	113 	0
YB+1_S3   	0 	2 	0 	0
YB+1_S4   	1 	1 	0 	0 	10100
YB+1_S5   	5926 	19038 	1 	0
YB+1_S6   	10 	3 	17 	0
YB+1_S7   	1 	23997 	22911 	0
YB+1_S8   	187 	6406 	25006 	0
YB+1_S9   	2 	1335 	0 	0
YB+1_S10   	6 	0 	695 	0 	0
YB+1_S11   	37568 	0 	0 	125
YB+1_S12   	1 	0 	326 	0
CH= 1 MOD= 80 BIAS= 46
YB+1_S1   	192 	320 	0 	4
YB+1_S2   	2197 	0 	25786 	41263
YB+1_S3   	28112 	4266 	15 	0
YB+1_S4   	734 	-17758 	534 	63 	11
YB+1_S5   	0 	0 	3522 	0
YB+1_S6   	0 	0 	-148 	4504
YB+1_S7   	2181 	32304 	-25871 	0
YB+1_S8   	-14132 	11399 	-26263 	35530
YB+1_S9   	2217 	0 	0 	-14936
YB+1_S10   	8 	3249 	136 	23984 	5777
YB+1_S11   	0 	0 	0 	13759
YB+1_S12   	-62270 	0 	5 	0
YB+1_S1   	-21556 	25 	0 	0
YB+1_S2   	-9286 	0 	6569 	0
YB+1_S3   	0 	3851 	0 	0
YB+1_S4   	83 	11 	0 	0 	7777
YB+1_S5   	-33743 	1676 	275 	0
YB+1_S6   	121 	60 	419 	0
YB+1_S7   	0 	3286 	17725 	0
YB+1_S8   	11534 	32967 	-15755 	0
YB+1_S9   	1 	5796 	0 	77
YB+1_S10   	9 	0 	6352 	0 	0
YB+1_S11   	58939 	0 	0 	3
YB+1_S12   	1216 	0 	16740 	0
CH= 1 MOD= 90 BIAS= 16
YB+1_S1   	0 	0 	0 	8
YB+1_S2   	0 	0 	0 	0
YB+1_S3   	0 	0 	0 	0
YB+1_S4   	0 	0 	0 	0 	0
YB+1_S5   	0 	0 	0 	0
YB+1_S6   	0 	0 	0 	0
YB+1_S7   	0 	0 	0 	0
YB+1_S8   	0 	0 	0 	0
YB+1_S9   	0 	0 	0 	0
YB+1_S10   	0 	0 	0 	0 	0
YB+1_S11   	0 	0 	0 	0
YB+1_S12   	0 	0 	0 	0
YB+1_S1   	0 	0 	0 	0
YB+1_S2   	0 	0 	0 	-42825
YB+1_S3   	0 	0 	0 	26
YB+1_S4   	0 	0 	0 	0 	0
YB+1_S5   	0 	0 	0 	35
YB+1_S6   	0 	0 	0 	0
YB+1_S7   	0 	0 	0 	0
YB+1_S8   	0 	0 	0 	0
YB+1_S9   	0 	0 	0 	0
YB+1_S10   	0 	0 	1 	0 	0
YB+1_S11   	0 	0 	0 	0
YB+1_S12   	0 	0 	0 	0
CH= 1 MOD= 90 BIAS= 18
YB+1_S1   	0 	0 	0 	5
YB+1_S2   	0 	0 	0 	0
YB+1_S3   	0 	0 	0 	0
YB+1_S4   	0 	0 	0 	0 	0
YB+1_S5   	0 	0 	0 	0
YB+1_S6   	0 	0 	0 	0
YB+1_S7   	0 	0 	0 	0
YB+1_S8   	0 	0 	0 	0
YB+1_S9   	0 	0 	0 	0
YB+1_S10   	0 	0 	0 	0 	0
YB+1_S11   	0 	0 	0 	0
YB+1_S12   	0 	0 	0 	0
YB+1_S1   	0 	0 	0 	0
YB+1_S2   	0 	0 	0 	137
YB+1_S3   	0 	0 	0 	0
YB+1_S4   	0 	0 	0 	0 	0
YB+1_S5   	0 	0 	0 	0
YB+1_S6   	0 	0 	0 	0
YB+1_S7   	0 	0 	0 	0
YB+1_S8   	0 	0 	0 	0
YB+1_S9   	0 	0 	0 	0
YB+1_S10   	0 	0 	0 	0 	0
YB+1_S11   	0 	0 	0 	0
YB+1_S12   	0 	0 	0 	0
CH= 1 MOD= 90 BIAS= 22
YB+1_S1   	0 	0 	0 	3
YB+1_S2   	0 	0 	0 	0
YB+1_S3   	0 	0 	0 	0
YB+1_S4   	0 	0 	0 	0 	0
YB+1_S5   	0 	0 	0 	0
YB+1_S6   	0 	0 	0 	0
YB+1_S7   	0 	0 	0 	0
YB+1_S8   	0 	0 	0 	0
YB+1_S9   	0 	0 	0 	0
YB+1_S10   	0 	0 	1 	0 	9228
YB+1_S11   	0 	0 	0 	0
YB+1_S12   	0 	0 	0 	0
YB+1_S1   	0 	0 	0 	0
YB+1_S2   	0 	0 	0 	0
YB+1_S3   	0 	0 	0 	0
YB+1_S4   	0 	0 	0 	0 	0
YB+1_S5   	0 	0 	0 	0
YB+1_S6   	0 	0 	0 	0
YB+1_S7   	0 	0 	0 	0
YB+1_S8   	0 	0 	0 	0
YB+1_S9   	0 	19 	0 	0
YB+1_S10   	0 	0 	0 	0 	0
YB+1_S11   	0 	0 	0 	0
YB+1_S12   	0 	0 	0 	0
CH= 1 MOD= 90 BIAS= 26
YB+1_S1   	0 	0 	0 	9
YB+1_S2   	0 	0 	65 	23
YB+1_S3   	112 	0 	0 	0
YB+1_S4   	0 	3478 	0 	0 	0
YB+1_S5   	0 	0 	0 	0
YB+1_S6   	0 	0 	1 	5
YB+1_S7   	24015 	5026 	11 	0
YB+1_S8   	762 	0 	0 	0
YB+1_S9   	6 	0 	0 	0
YB+1_S10   	11 	0 	33 	1 	1
YB+1_S11   	0 	15 	0 	0
YB+1_S12   	0 	0 	0 	0
YB+1_S1   	0 	0 	0 	0
YB+1_S2   	0 	0 	0 	0
YB+1_S3   	0 	0 	0 	0
YB+1_S4   	0 	0 	0 	0 	0
YB+1_S5   	0 	63 	0 	0
YB+1_S6   	0 	0 	1 	0
YB+1_S7   	0 	0 	2 	0
YB+1_S8   	0 	0 	17 	0
YB+1_S9   	0 	10 	0 	0
YB+1_S10   	0 	0 	0 	0 	0
YB+1_S11   	718 	0 	0 	0
YB+1_S12   	0 	0 	1 	0
CH= 1 MOD= 90 BIAS= 30
YB+1_S1   	21 	325 	0 	9
YB+1_S2   	0 	0 	816 	2661
YB+1_S3   	14898 	2 	196 	0
YB+1_S4   	8 	-19761 	17 	0 	0
YB+1_S5   	0 	0 	61 	0
YB+1_S6   	0 	0 	0 	7862
YB+1_S7   	1189 	7626 	5798 	0
YB+1_S8   	670 	22 	19 	527
YB+1_S9   	102 	0 	0 	4
YB+1_S10   	2 	144 	44 	365 	616
YB+1_S11   	0 	0 	0 	6
YB+1_S12   	0 	0 	6 	0
YB+1_S1   	49 	0 	0 	0
YB+1_S2   	-2173 	0 	193 	0
YB+1_S3   	0 	0 	2872 	0
YB+1_S4   	0 	0 	0 	0 	0
YB+1_S5   	0 	13710 	0 	0
YB+1_S6   	0 	0 	3361 	0
YB+1_S7   	0 	444 	640 	0
YB+1_S8   	366 	48 	367 	0
YB+1_S9   	0 	283 	0 	8
YB+1_S10   	0 	0 	90 	0 	0
YB+1_S11   	17461 	0 	0 	0
YB+1_S12   	0 	0 	463 	0
CH= 1 MOD= 90 BIAS= 34
YB+1_S1   	2 	198 	0 	8
YB+1_S2   	5 	0 	18249 	1557
YB+1_S3   	493 	2 	110 	0
YB+1_S4   	18 	969 	208 	0 	0
YB+1_S5   	0 	1 	1871 	0
YB+1_S6   	1 	0 	0 	33794
YB+1_S7   	8760 	21121 	18123 	0
YB+1_S8   	2312 	337 	1085 	517
YB+1_S9   	182 	0 	0 	954
YB+1_S10   	11 	89 	117 	457 	548
YB+1_S11   	0 	0 	0 	17
YB+1_S12   	2 	0 	0 	0
YB+1_S1   	638 	0 	0 	0
YB+1_S2   	12388 	0 	21 	0
YB+1_S3   	1 	0 	240 	0
YB+1_S4   	19 	6 	0 	0 	225
YB+1_S5   	0 	-50731 	68 	0
YB+1_S6   	41 	0 	342 	0
YB+1_S7   	2 	-10741 	6249 	0
YB+1_S8   	3474 	910 	-59300 	0
YB+1_S9   	4 	3822 	0 	4
YB+1_S10   	182 	0 	1638 	0 	0
YB+1_S11   	34747 	0 	0 	0
YB+1_S12   	0 	0 	892 	0
CH= 1 MOD= 90 BIAS= 38
YB+1_S1   	232 	2822 	4 	9
YB+1_S2   	132 	38 	-9429 	21861
YB+1_S3   	27394 	165 	263 	0
YB+1_S4   	513 	-23414 	10110 	0 	4
YB+1_S5   	0 	0 	1293 	0
YB+1_S6   	0 	0 	0 	15471
YB+1_S7   	-40558 	-12769 	18399 	0
YB+1_S8   	-10 	15304 	19435 	17512
YB+1_S9   	228 	0 	0 	16288
YB+1_S10   	593 	1559 	39 	20786 	-39839
YB+1_S11   	0 	2 	0 	1077
YB+1_S12   	30 	0 	345 	0
YB+1_S1   	686 	279 	0 	0
YB+1_S2   	-2113 	1 	932 	0
YB+1_S3   	0 	8743 	21 	0
YB+1_S4   	10 	5 	0 	0 	54669
YB+1_S5   	-1618 	-26702 	3554 	0
YB+1_S6   	624 	22 	5695 	0
YB+1_S7   	118 	49261 	2542 	0
YB+1_S8   	5958 	19414 	-19507 	0
YB+1_S9   	16 	26269 	2 	109
YB+1_S10   	6 	2 	11072 	0 	0
YB+1_S11   	-12681 	0 	1 	0
YB+1_S12   	0 	0 	-28116 	0
CH= 1 MOD= 90 BIAS= 42
YB+1_S1   	8019 	-36984 	63 	21
YB+1_S2   	3091 	42 	29052 	-27608
YB+1_S3   	-17912 	3950 	2597 	0
YB+1_S4   	37344 	39165 	2964 	179 	384
YB+1_S5   	1 	108 	-41751 	0
YB+1_S6   	0 	0 	1 	35591
YB+1_S7   	-3979 	-27136 	-36530 	245
YB+1_S8   	-3909 	-32383 	8853 	12973
YB+1_S9   	-63541 	0 	0 	-13192
YB+1_S10   	3330 	5738 	139 	30741 	44901
YB+1_S11   	0 	1 	0 	5225
YB+1_S12   	9840 	0 	-59204 	0
YB+1_S1   	7709 	3755 	0 	0
YB+1_S2   	1472 	0 	2455 	0
YB+1_S3   	0 	601 	7 	0
YB+1_S4   	181 	1514 	0 	0 	-8858
YB+1_S5   	-25365 	49756 	3928 	0
YB+1_S6   	698 	1041 	28155 	0
YB+1_S7   	278 	-3927 	-19527 	0
YB+1_S8   	30681 	13389 	12789 	0
YB+1_S9   	173 	-36779 	0 	679
YB+1_S10   	1359 	6 	4954 	0 	0
YB+1_S11   	34486 	0 	0 	493
YB+1_S12   	115 	0 	-38157 	0
CH= 1 MOD= 90 BIAS= 46
YB+1_S1   	13701 	9229 	736 	182
YB+1_S2   	-46449 	191 	-10393 	-49126
YB+1_S3   	-26435 	-35767 	2113 	0
YB+1_S4   	18781 	37915 	-19282 	21170 	2671
YB+1_S5   	0 	71 	-26255 	41
YB+1_S6   	33 	0 	-5929 	-18023
YB+1_S7   	35819 	46175 	-26352 	1
YB+1_S8   	12540 	25801 	1974 	40315
YB+1_S9   	-11317 	0 	1 	-29961
YB+1_S10   	4932 	-18523 	514 	-13488 	-24081
YB+1_S11   	0 	10 	0 	-17869
YB+1_S12   	-18895 	0 	4350 	0
YB+1_S1   	-33144 	18896 	4 	0
YB+1_S2   	-3782 	5 	-7469 	0
YB+1_S3   	15 	56754 	215 	0
YB+1_S4   	2084 	152 	0 	0 	1779
YB+1_S5   	15183 	-9313 	-31388 	0
YB+1_S6   	1850 	7634 	41591 	0
YB+1_S7   	204 	-10747 	-993 	0
YB+1_S8   	-11270 	12350 	2988 	0
YB+1_S9   	817 	-7153 	0 	-54658
YB+1_S10   	-61683 	463 	-26829 	0 	0
YB+1_S11   	18518 	0 	0 	472
YB+1_S12   	12249 	0 	8721 	0
CH= 1 MOD= 100 BIAS= 16
YB+1_S1   	0 	0 	0 	8
YB+1_S2   	0 	0 	0 	0
YB+1_S3   	0 	0 	0 	0
YB+1_S4   	0 	0 	0 	0 	0
YB+1_S5   	0 	0 	0 	0
YB+1_S6   	0 	0 	0 	0
YB+1_S7   	0 	0 	0 	0
YB+1_S8   	0 	0 	0 	0
YB+1_S9   	0 	0 	0 	0
YB+1_S10   	0 	0 	0 	0 	0
YB+1_S11   	0 	0 	0 	0
YB+1_S12   	0 	0 	0 	0
YB+1_S1   	0 	0 	0 	0
YB+1_S2   	0 	0 	0 	19305
YB+1_S3   	0 	0 	0 	23
YB+1_S4   	0 	0 	0 	0 	0
YB+1_S5   	0 	0 	0 	0
YB+1_S6   	0 	0 	0 	0
YB+1_S7   	0 	0 	0 	0
YB+1_S8   	0 	0 	0 	0
YB+1_S9   	0 	0 	0 	0
YB+1_S10   	0 	0 	0 	0 	0
YB+1_S11   	0 	0 	0 	0
YB+1_S12   	0 	0 	0 	0
CH= 1 MOD= 100 BIAS= 18
YB+1_S1   	0 	0 	0 	4
YB+1_S2   	0 	0 	0 	0
YB+1_S3   	0 	0 	0 	0
YB+1_S4   	0 	0 	0 	0 	0
YB+1_S5   	0 	0 	0 	0
YB+1_S6   	0 	0 	0 	0
YB+1_S7   	0 	0 	0 	0
YB+1_S8   	0 	0 	0 	0
YB+1_S9   	0 	0 	0 	0
YB+1_S10   	0 	0 	1 	0 	0
YB+1_S11   	0 	0 	0 	0
YB+1_S12   	0 	0 	0 	0
YB+1_S1   	0 	0 	0 	0
YB+1_S2   	0 	0 	0 	29
YB+1_S3   	0 	0 	0 	1
YB+1_S4   	0 	0 	0 	0 	0
YB+1_S5   	0 	0 	0 	0
YB+1_S6   	0 	0 	0 	0
YB+1_S7   	0 	0 	0 	0
YB+1_S8   	0 	0 	0 	0
YB+1_S9   	0 	0 	0 	0
YB+1_S10   	0 	0 	0 	0 	0
YB+1_S11   	0 	0 	0 	0
YB+1_S12   	0 	0 	0 	0
CH= 1 MOD= 100 BIAS= 22
YB+1_S1   	0 	0 	0 	5
YB+1_S2   	0 	0 	0 	0
YB+1_S3   	0 	0 	0 	0
YB+1_S4   	0 	0 	1 	0 	0
YB+1_S5   	0 	0 	0 	0
YB+1_S6   	0 	0 	0 	1
YB+1_S7   	2 	0 	0 	0
YB+1_S8   	0 	0 	0 	0
YB+1_S9   	0 	0 	0 	0
YB+1_S10   	0 	0 	5 	0 	18863
YB+1_S11   	0 	0 	0 	0
YB+1_S12   	0 	0 	0 	0
YB+1_S1   	0 	0 	0 	0
YB+1_S2   	0 	0 	0 	0
YB+1_S3   	0 	0 	0 	0
YB+1_S4   	0 	0 	0 	0 	0
YB+1_S5   	0 	0 	0 	0
YB+1_S6   	0 	0 	0 	0
YB+1_S7   	0 	0 	0 	0
YB+1_S8   	0 	0 	0 	0
YB+1_S9   	0 	0 	0 	0
YB+1_S10   	0 	0 	0 	0 	0
YB+1_S11   	24 	0 	0 	0
YB+1_S12   	0 	0 	0 	0
CH= 1 MOD= 100 BIAS= 26
YB+1_S1   	3 	28 	0 	6
YB+1_S2   	0 	0 	2092 	2659
YB+1_S3   	163 	0 	5 	0
YB+1_S4   	1 	54825 	5 	0 	0
YB+1_S5   	0 	0 	1 	0
YB+1_S6   	0 	0 	77 	623
YB+1_S7   	-7513 	-5267 	3008 	0
YB+1_S8   	8641 	6 	23 	10
YB+1_S9   	1067 	0 	19 	2
YB+1_S10   	49 	0 	89 	2 	287
YB+1_S11   	0 	352 	0 	0
YB+1_S12   	25 	0 	0 	0
YB+1_S1   	0 	1 	0 	0
YB+1_S2   	0 	0 	0 	0
YB+1_S3   	0 	0 	0 	0
YB+1_S4   	0 	0 	0 	0 	0
YB+1_S5   	3 	893 	2 	0
YB+1_S6   	0 	0 	552 	0
YB+1_S7   	0 	8 	36 	0
YB+1_S8   	244 	0 	482 	0
YB+1_S9   	0 	1319 	0 	1
YB+1_S10   	0 	0 	11 	0 	0
YB+1_S11   	5789 	0 	0 	0
YB+1_S12   	1 	0 	1279 	0
CH= 1 MOD= 100 BIAS= 30
YB+1_S1   	599 	10956 	0 	5
YB+1_S2   	28 	34 	31046 	42821
YB+1_S3   	44916 	425 	4304 	0
YB+1_S4   	746 	26257 	2672 	0 	2
YB+1_S5   	0 	10 	2232 	0
YB+1_S6   	2 	0 	0 	-48648
YB+1_S7   	-16629 	-8631 	5514 	0
YB+1_S8   	-44760 	5888 	3867 	5188
YB+1_S9   	5888 	0 	0 	421
YB+1_S10   	529 	2784 	77 	19281 	-7412
YB+1_S11   	0 	7 	0 	114
YB+1_S12   	33 	0 	279 	0
YB+1_S1   	1261 	36 	0 	0
YB+1_S2   	-35615 	0 	8030 	0
YB+1_S3   	0 	0 	-551 	0
YB+1_S4   	3 	0 	0 	0 	1131
YB+1_S5   	165 	-41510 	501 	0
YB+1_S6   	1 	10 	-60133 	0
YB+1_S7   	1 	7861 	11518 	0
YB+1_S8   	12680 	2121 	7723 	0
YB+1_S9   	0 	12909 	0 	544
YB+1_S10   	0 	10 	3765 	0 	0
YB+1_S11   	-34285 	0 	0 	0
YB+1_S12   	0 	0 	-60175 	0
CH= 1 MOD= 100 BIAS= 34
YB+1_S1   	1039 	26101 	17 	31
YB+1_S2   	625 	42 	-5242 	11896
YB+1_S3   	-36602 	1345 	4298 	0
YB+1_S4   	900 	14530 	-50268 	0 	50
YB+1_S5   	22 	42 	11683 	0
YB+1_S6   	9 	0 	0 	-19452
YB+1_S7   	971 	-42141 	2396 	0
YB+1_S8   	-53726 	-39011 	-4112 	-47686
YB+1_S9   	12764 	0 	0 	-41876
YB+1_S10   	1836 	1893 	130 	-13605 	-40694
YB+1_S11   	0 	2 	0 	423
YB+1_S12   	1072 	0 	197 	0
YB+1_S1   	-55252 	384 	0 	0
YB+1_S2   	40533 	0 	538 	0
YB+1_S3   	21 	94 	15148 	0
YB+1_S4   	437 	361 	0 	0 	8318
YB+1_S5   	1196 	-37160 	-50116 	0
YB+1_S6   	2186 	378 	27746 	0
YB+1_S7   	302 	361 	13331 	0
YB+1_S8   	-34758 	-50375 	-44463 	0
YB+1_S9   	297 	-335 	0 	466
YB+1_S10   	17782 	63 	20570 	0 	0
YB+1_S11   	-1987 	0 	0 	1
YB+1_S12   	20 	0 	-3734 	0
CH= 1 MOD= 100 BIAS= 38
YB+1_S1   	-34825 	826 	1726 	143
YB+1_S2   	6024 	4014 	13607 	-1482
YB+1_S3   	32321 	23902 	16506 	0
YB+1_S4   	-45911 	-32648 	5873 	6 	1939
YB+1_S5   	4 	91 	23832 	102
YB+1_S6   	7 	0 	17 	3060
YB+1_S7   	53071 	-55321 	-10438 	0
YB+1_S8   	24924 	-24628 	-3425 	-45483
YB+1_S9   	20684 	0 	10 	-40483
YB+1_S10   	31159 	-41310 	824 	3618 	10268
YB+1_S11   	0 	491 	0 	-50211
YB+1_S12   	1091 	0 	2911 	3
YB+1_S1   	14844 	-27208 	467 	0
YB+1_S2   	41934 	1125 	13515 	0
YB+1_S3   	64 	50953 	3263 	0
YB+1_S4   	470 	437 	0 	0 	-5275
YB+1_S5   	-15301 	-4373 	27699 	0
YB+1_S6   	4600 	10995 	29437 	0
YB+1_S7   	-58431 	-13956 	-57393 	0
YB+1_S8   	-55849 	10538 	6979 	0
YB+1_S9   	1619 	23929 	0 	9233
YB+1_S10   	223 	515 	18681 	11 	0
YB+1_S11   	7653 	0 	2 	2
YB+1_S12   	31 	0 	-39999 	0
CH= 1 MOD= 100 BIAS= 42
YB+1_S1   	44130 	-227 	12750 	5007
YB+1_S2   	53545 	3350 	39326 	28582
YB+1_S3   	39639 	8790 	-19898 	0
YB+1_S4   	1807 	20614 	-5819 	-25858 	-35637
YB+1_S5   	313 	9858 	26341 	175
YB+1_S6   	4 	0 	1094 	-21991
YB+1_S7   	30186 	44782 	39184 	3453
YB+1_S8   	26333 	21066 	-3174 	-14729
YB+1_S9   	-21059 	0 	14 	11400
YB+1_S10   	-1017 	-60500 	564 	-12528 	-18309
YB+1_S11   	0 	1042 	0 	34208
YB+1_S12   	12754 	0 	61442 	52
YB+1_S1   	-29200 	-33646 	63 	0
YB+1_S2   	-28914 	312 	-39851 	0
YB+1_S3   	163 	-30764 	1763 	0
YB+1_S4   	6091 	-59162 	0 	0 	39923
YB+1_S5   	47892 	-16751 	4447 	0
YB+1_S6   	8661 	8242 	5283 	0
YB+1_S7   	14014 	-35963 	-34915 	0
YB+1_S8   	-7410 	-30277 	-9750 	0
YB+1_S9   	9481 	-33701 	11 	52279
YB+1_S10   	-28745 	1060 	37493 	1 	0
YB+1_S11   	13937 	0 	0 	5440
YB+1_S12   	2536 	0 	18673 	0
CH= 1 MOD= 100 BIAS= 46
YB+1_S1   	-39668 	-60506 	-520 	-45104
YB+1_S2   	-4739 	9771 	-42905 	-8091
YB+1_S3   	58003 	-39460 	72 	0
YB+1_S4   	40755 	611 	11173 	-9707 	-21984
YB+1_S5   	74 	12087 	-21747 	7064
YB+1_S6   	1459 	0 	-9157 	-40398
YB+1_S7   	51672 	-3872 	22552 	141
YB+1_S8   	53222 	-6912 	-23284 	43938
YB+1_S9   	-40784 	0 	99 	-25781
YB+1_S10   	-23758 	-37737 	-50388 	-127 	-13160
YB+1_S11   	0 	1189 	0 	2504
YB+1_S12   	28143 	1 	4718 	416
YB+1_S1   	6988 	-40784 	210 	0
YB+1_S2   	-13703 	666 	17359 	0
YB+1_S3   	2576 	6664 	26451 	0
YB+1_S4   	-35488 	17081 	0 	0 	-12457
YB+1_S5   	-10443 	-12343 	20066 	0
YB+1_S6   	-50271 	28798 	-3392 	0
YB+1_S7   	-51250 	37788 	-32372 	0
YB+1_S8   	-8614 	52068 	6503 	0
YB+1_S9   	-38891 	39125 	55 	26177
YB+1_S10   	10114 	18878 	-6776 	0 	0
YB+1_S11   	22062 	1 	1 	7477
YB+1_S12   	14100 	0 	-19541 	0
CH= 1 MOD= 110 BIAS= 16
YB+1_S1   	0 	0 	0 	11
YB+1_S2   	0 	0 	0 	0
YB+1_S3   	0 	0 	0 	0
YB+1_S4   	0 	0 	0 	0 	0
YB+1_S5   	0 	0 	0 	0
YB+1_S6   	0 	0 	0 	0
YB+1_S7   	0 	0 	0 	0
YB+1_S8   	0 	0 	0 	0
YB+1_S9   	0 	0 	0 	0
YB+1_S10   	0 	0 	0 	0 	0
YB+1_S11   	0 	0 	0 	0
YB+1_S12   	0 	0 	0 	0
YB+1_S1   	0 	0 	0 	0
YB+1_S2   	0 	0 	0 	16365
YB+1_S3   	0 	0 	0 	1
YB+1_S4   	0 	0 	0 	0 	0
YB+1_S5   	0 	0 	0 	0
YB+1_S6   	0 	0 	0 	0
YB+1_S7   	0 	0 	0 	0
YB+1_S8   	0 	0 	0 	0
YB+1_S9   	0 	0 	0 	0
YB+1_S10   	0 	0 	0 	0 	0
YB+1_S11   	0 	0 	0 	0
YB+1_S12   	0 	0 	0 	0
CH= 1 MOD= 110 BIAS= 18
YB+1_S1   	0 	0 	0 	7
YB+1_S2   	0 	0 	0 	0
YB+1_S3   	0 	0 	0 	0
YB+1_S4   	0 	0 	0 	0 	0
YB+1_S5   	0 	0 	0 	0
YB+1_S6   	0 	0 	0 	0
YB+1_S7   	0 	0 	0 	0
YB+1_S8   	0 	0 	0 	0
YB+1_S9   	0 	0 	0 	0
YB+1_S10   	0 	0 	0 	0 	0
YB+1_S11   	0 	0 	0 	0
YB+1_S12   	0 	0 	0 	0
YB+1_S1   	0 	0 	0 	0
YB+1_S2   	0 	0 	0 	12
YB+1_S3   	0 	0 	0 	1
YB+1_S4   	0 	0 	0 	0 	0
YB+1_S5   	0 	0 	0 	0
YB+1_S6   	0 	0 	0 	0
YB+1_S7   	0 	0 	0 	0
YB+1_S8   	0 	0 	0 	0
YB+1_S9   	0 	0 	0 	0
YB+1_S10   	0 	0 	0 	0 	0
YB+1_S11   	0 	0 	0 	0
YB+1_S12   	0 	0 	0 	0
CH= 1 MOD= 110 BIAS= 22
YB+1_S1   	0 	0 	0 	5
YB+1_S2   	0 	0 	138 	0
YB+1_S3   	0 	2 	0 	0
YB+1_S4   	0 	5 	0 	0 	0
YB+1_S5   	0 	0 	0 	0
YB+1_S6   	0 	0 	0 	394
YB+1_S7   	283 	0 	445 	0
YB+1_S8   	0 	0 	10 	2
YB+1_S9   	0 	0 	0 	0
YB+1_S10   	0 	0 	3 	0 	3861
YB+1_S11   	0 	0 	0 	0
YB+1_S12   	0 	0 	0 	12
YB+1_S1   	0 	0 	0 	0
YB+1_S2   	0 	0 	0 	0
YB+1_S3   	0 	0 	0 	0
YB+1_S4   	0 	0 	0 	0 	0
YB+1_S5   	0 	0 	0 	0
YB+1_S6   	0 	5 	42 	0
YB+1_S7   	0 	0 	0 	0
YB+1_S8   	0 	0 	0 	0
YB+1_S9   	0 	0 	0 	0
YB+1_S10   	0 	0 	0 	0 	0
YB+1_S11   	55 	0 	0 	0
YB+1_S12   	0 	0 	577 	0
CH= 1 MOD= 110 BIAS= 26
YB+1_S1   	2237 	5929 	0 	8
YB+1_S2   	37 	183 	-18716 	25290
YB+1_S3   	2362 	160 	788 	0
YB+1_S4   	58 	-31010 	304 	0 	0
YB+1_S5   	1 	0 	1501 	0
YB+1_S6   	0 	0 	1 	-27725
YB+1_S7   	-11128 	2519 	40886 	0
YB+1_S8   	-5782 	1181 	9199 	336
YB+1_S9   	-13566 	0 	638 	128
YB+1_S10   	0 	0 	105 	231 	27891
YB+1_S11   	0 	62 	0 	0
YB+1_S12   	313 	0 	0 	1
YB+1_S1   	4 	1377 	0 	0
YB+1_S2   	0 	0 	1 	0
YB+1_S3   	0 	1 	0 	0
YB+1_S4   	0 	0 	0 	0 	2
YB+1_S5   	362 	-42581 	2039 	0
YB+1_S6   	0 	47 	3109 	0
YB+1_S7   	10 	354 	2631 	0
YB+1_S8   	-30968 	11 	8522 	0
YB+1_S9   	114 	1082 	0 	35
YB+1_S10   	18 	24 	2416 	0 	0
YB+1_S11   	-2374 	0 	0 	0
YB+1_S12   	321 	0 	23586 	0
CH= 1 MOD= 110 BIAS= 30
YB+1_S1   	-40739 	-37270 	133 	280
YB+1_S2   	6188 	6443 	-19354 	19315
YB+1_S3   	-15635 	23716 	1521 	0
YB+1_S4   	-22196 	29118 	17880 	1 	1752
YB+1_S5   	96 	205 	45080 	31
YB+1_S6   	37 	0 	250 	62183
YB+1_S7   	-28511 	26804 	6164 	0
YB+1_S8   	-19801 	-32367 	26557 	-23283
YB+1_S9   	4891 	0 	7 	-40512
YB+1_S10   	-37665 	46668 	210 	19142 	34649
YB+1_S11   	0 	-62250 	0 	2028
YB+1_S12   	2240 	0 	14261 	23
YB+1_S1   	23157 	9876 	0 	0
YB+1_S2   	53207 	46 	11613 	0
YB+1_S3   	59 	96 	-4489 	0
YB+1_S4   	235 	122 	0 	0 	-2104
YB+1_S5   	-12781 	890 	-741 	0
YB+1_S6   	944 	4991 	27245 	0
YB+1_S7   	1787 	-29023 	-7825 	0
YB+1_S8   	8585 	-2948 	-6143 	0
YB+1_S9   	799 	-14388 	0 	-16521
YB+1_S10   	67 	1180 	-7745 	5 	0
YB+1_S11   	11598 	0 	0 	15
YB+1_S12   	258 	0 	41481 	0
CH= 1 MOD= 110 BIAS= 34
YB+1_S1   	51178 	-12390 	-47576 	-60236
YB+1_S2   	36206 	14429 	1449 	-9157
YB+1_S3   	30549 	31563 	15492 	0
YB+1_S4   	-27845 	-15033 	57785 	28 	12748
YB+1_S5   	3167 	4369 	1906 	552
YB+1_S6   	467 	0 	586 	2492
YB+1_S7   	6584 	-6762 	-53368 	16
YB+1_S8   	22879 	48453 	-15255 	-9413
YB+1_S9   	-50233 	0 	34 	-15290
YB+1_S10   	-3936 	39999 	424 	23760 	8239
YB+1_S11   	0 	224 	0 	8536
YB+1_S12   	22956 	0 	-38588 	129
YB+1_S1   	38064 	-28654 	6 	0
YB+1_S2   	11655 	1104 	21006 	0
YB+1_S3   	1266 	3040 	15499 	0
YB+1_S4   	6772 	-53592 	0 	0 	-37197
YB+1_S5   	26836 	-13748 	16111 	0
YB+1_S6   	30568 	-4468 	6250 	0
YB+1_S7   	-37898 	-21233 	6409 	0
YB+1_S8   	-5150 	-17982 	4295 	0
YB+1_S9   	-45279 	24489 	2 	-35956
YB+1_S10   	-196 	9468 	-14633 	0 	0
YB+1_S11   	21430 	0 	6 	37
YB+1_S12   	-62956 	0 	54834 	0
CH= 1 MOD= 110 BIAS= 38
YB+1_S1   	22437 	86 	52147 	23251
YB+1_S2   	37376 	23101 	-2448 	11295
YB+1_S3   	-2252 	40488 	2057 	0
YB+1_S4   	231 	-30403 	15678 	1832 	11355
YB+1_S5   	483 	-23873 	24017 	11375
YB+1_S6   	522 	0 	4804 	12461
YB+1_S7   	18754 	28260 	-2550 	75
YB+1_S8   	-12082 	14683 	21344 	-1769
YB+1_S9   	57423 	2 	1771 	7740
YB+1_S10   	9411 	3179 	6218 	-18238 	-30022
YB+1_S11   	0 	-45150 	0 	12702
YB+1_S12   	9369 	5 	-6368 	2283
YB+1_S1   	-36362 	-57785 	-21976 	0
YB+1_S2   	-9988 	27287 	46528 	0
YB+1_S3   	12096 	45851 	-26494 	0
YB+1_S4   	-50486 	-27217 	0 	0 	-47054
YB+1_S5   	-39818 	24467 	27825 	0
YB+1_S6   	-29584 	-36898 	35524 	0
YB+1_S7   	-10200 	26688 	-12047 	0
YB+1_S8   	-25468 	-20987 	19770 	0
YB+1_S9   	-3579 	37827 	29 	-7314
YB+1_S10   	35512 	-22483 	54873 	10021 	0
YB+1_S11   	-47146 	0 	154 	812
YB+1_S12   	4933 	0 	-36212 	0
CH= 1 MOD= 110 BIAS= 42
YB+1_S1   	-35231 	3060 	10069 	-35829
YB+1_S2   	9026 	-8026 	-4520 	-919
YB+1_S3   	7834 	-15539 	13332 	0
YB+1_S4   	26313 	-3862 	6929 	348 	-13952
YB+1_S5   	35812 	-39731 	-6279 	-22285
YB+1_S6   	2148 	0 	-25868 	-394
YB+1_S7   	-33588 	-43626 	44905 	35693
YB+1_S8   	27088 	-12396 	-46458 	-12614
YB+1_S9   	373 	1 	3594 	22097
YB+1_S10   	-11890 	14657 	-30598 	26190 	-36380
YB+1_S11   	0 	-15439 	0 	-19272
YB+1_S12   	-19954 	2 	-39461 	16939
YB+1_S1   	25306 	-21551 	10225 	0
YB+1_S2   	27924 	2703 	18981 	0
YB+1_S3   	33620 	-43577 	-27757 	0
YB+1_S4   	59444 	-22381 	0 	0 	-59320
YB+1_S5   	12077 	14137 	-28606 	0
YB+1_S6   	-48897 	-202 	-24025 	0
YB+1_S7   	-10526 	-36583 	15176 	0
YB+1_S8   	16961 	-18605 	-14978 	0
YB+1_S9   	-37569 	-48884 	1439 	-2715
YB+1_S10   	-23562 	-4731 	1238 	978 	0
YB+1_S11   	-5545 	31 	921 	20919
YB+1_S12   	-8258 	0 	17853 	0
CH= 1 MOD= 110 BIAS= 46
YB+1_S1   	-11472 	-21343 	29646 	-1244
YB+1_S2   	42162 	32351 	4986 	10413
YB+1_S3   	-12698 	-23722 	6230 	0
YB+1_S4   	14900 	-130 	9839 	-37740 	-43081
YB+1_S5   	-47915 	34870 	12151 	-5756
YB+1_S6   	-29331 	0 	-16327 	-12115
YB+1_S7   	-22895 	2598 	-29553 	13587
YB+1_S8   	-993 	55800 	-31870 	-49428
YB+1_S9   	-3263 	2 	10685 	-5312
YB+1_S10   	43769 	-34387 	9360 	27287 	-35961
YB+1_S11   	0 	-3537 	0 	-22071
YB+1_S12   	-36716 	155 	5890 	-17851
YB+1_S1   	6552 	11447 	-47925 	0
YB+1_S2   	11427 	-39223 	9609 	0
YB+1_S3   	-25378 	-4605 	-16069 	0
YB+1_S4   	-29219 	-19775 	0 	0 	28535
YB+1_S5   	24991 	-1440 	8155 	0
YB+1_S6   	-4723 	-16446 	-25461 	9
YB+1_S7   	-41686 	1240 	-8736 	0
YB+1_S8   	-12404 	6808 	-16354 	90
YB+1_S9   	756 	21122 	3564 	-51104
YB+1_S10   	-16546 	30072 	54928 	11908 	0
YB+1_S11   	-31556 	2244 	2498 	-27182
YB+1_S12   	26119 	4 	-23803 	0
CH= 1 MOD= 120 BIAS= 16
YB+1_S1   	0 	0 	0 	18
YB+1_S2   	0 	0 	0 	0
YB+1_S3   	0 	0 	0 	0
YB+1_S4   	0 	0 	0 	0 	0
YB+1_S5   	0 	0 	0 	0
YB+1_S6   	0 	0 	0 	0
YB+1_S7   	0 	0 	0 	0
YB+1_S8   	0 	0 	0 	0
YB+1_S9   	0 	0 	0 	0
YB+1_S10   	0 	0 	0 	0 	0
YB+1_S11   	0 	0 	0 	0
YB+1_S12   	0 	0 	0 	0
YB+1_S1   	0 	0 	0 	0
YB+1_S2   	0 	0 	0 	3458
YB+1_S3   	0 	0 	0 	1
YB+1_S4   	0 	0 	0 	0 	0
YB+1_S5   	0 	0 	0 	0
YB+1_S6   	0 	0 	0 	0
YB+1_S7   	0 	0 	0 	0
YB+1_S8   	0 	0 	0 	0
YB+1_S9   	0 	0 	0 	0
YB+1_S10   	0 	0 	0 	0 	0
YB+1_S11   	0 	0 	0 	0
YB+1_S12   	0 	0 	0 	0
CH= 1 MOD= 120 BIAS= 18
YB+1_S1   	0 	0 	0 	5
YB+1_S2   	0 	0 	0 	0
YB+1_S3   	0 	0 	0 	0
YB+1_S4   	0 	0 	0 	0 	0
YB+1_S5   	0 	0 	0 	0
YB+1_S6   	0 	0 	0 	0
YB+1_S7   	0 	0 	0 	0
YB+1_S8   	0 	0 	0 	0
YB+1_S9   	0 	0 	0 	0
YB+1_S10   	0 	0 	1 	0 	0
YB+1_S11   	0 	0 	0 	0
YB+1_S12   	0 	0 	0 	0
YB+1_S1   	0 	0 	0 	0
YB+1_S2   	0 	0 	0 	1
YB+1_S3   	0 	0 	0 	1
YB+1_S4   	0 	0 	0 	0 	0
YB+1_S5   	0 	0 	0 	0
YB+1_S6   	0 	0 	0 	0
YB+1_S7   	0 	0 	0 	0
YB+1_S8   	0 	0 	0 	0
YB+1_S9   	0 	0 	0 	0
YB+1_S10   	0 	0 	0 	0 	0
YB+1_S11   	0 	0 	0 	0
YB+1_S12   	0 	0 	0 	0
CH= 1 MOD= 120 BIAS= 22
YB+1_S1   	0 	0 	0 	7
YB+1_S2   	0 	0 	14 	0
YB+1_S3   	0 	45 	0 	0
YB+1_S4   	0 	16 	0 	0 	0
YB+1_S5   	0 	0 	0 	0
YB+1_S6   	0 	0 	0 	1336
YB+1_S7   	5638 	0 	7571 	0
YB+1_S8   	14 	0 	1 	3
YB+1_S9   	0 	0 	0 	0
YB+1_S10   	0 	0 	1 	0 	3
YB+1_S11   	0 	0 	0 	0
YB+1_S12   	0 	0 	0 	51
YB+1_S1   	0 	0 	0 	0
YB+1_S2   	0 	0 	0 	0
YB+1_S3   	0 	24 	0 	0
YB+1_S4   	0 	0 	0 	0 	0
YB+1_S5   	0 	3 	0 	0
YB+1_S6   	0 	1072 	11619 	0
YB+1_S7   	0 	0 	0 	0
YB+1_S8   	0 	0 	0 	0
YB+1_S9   	606 	0 	0 	0
YB+1_S10   	0 	0 	0 	0 	0
YB+1_S11   	3 	0 	0 	0
YB+1_S12   	0 	0 	-29648 	0
CH= 1 MOD= 120 BIAS= 26
YB+1_S1   	2164 	360 	10 	9
YB+1_S2   	3717 	5196 	15154 	30946
YB+1_S3   	-55566 	8022 	-34530 	0
YB+1_S4   	1117 	22150 	8056 	0 	250
YB+1_S5   	33 	0 	-33587 	0
YB+1_S6   	0 	0 	0 	11571
YB+1_S7   	27403 	-31575 	-9368 	0
YB+1_S8   	12474 	16551 	-43050 	6726
YB+1_S9   	26234 	0 	9 	4302
YB+1_S10   	0 	0 	276 	5045 	36533
YB+1_S11   	0 	0 	0 	24
YB+1_S12   	1471 	0 	127 	137
YB+1_S1   	585 	-3467 	1 	0
YB+1_S2   	0 	66 	28 	0
YB+1_S3   	18 	51 	0 	0
YB+1_S4   	6 	5 	0 	0 	769
YB+1_S5   	10175 	16543 	35547 	0
YB+1_S6   	13 	6427 	-18659 	0
YB+1_S7   	1349 	9146 	42039 	0
YB+1_S8   	12796 	1310 	9285 	0
YB+1_S9   	6340 	-47543 	3 	602
YB+1_S10   	3 	4532 	-56219 	0 	0
YB+1_S11   	-38509 	0 	0 	1
YB+1_S12   	0 	0 	24025 	0
CH= 1 MOD= 120 BIAS= 30
YB+1_S1   	-33971 	585 	17770 	-54591
YB+1_S2   	27724 	-24028 	-21210 	24763
YB+1_S3   	18637 	34866 	-11288 	0
YB+1_S4   	4759 	-21524 	31275 	209 	30940
YB+1_S5   	6270 	-63609 	-27872 	2659
YB+1_S6   	771 	0 	24850 	-50013
YB+1_S7   	-14796 	-12546 	33239 	42
YB+1_S8   	3241 	3465 	39693 	52675
YB+1_S9   	-41941 	0 	745 	8954
YB+1_S10   	-40916 	-23414 	427 	-11550 	25652
YB+1_S11   	0 	5868 	0 	-44802
YB+1_S12   	-7732 	0 	31575 	5157
YB+1_S1   	-31460 	-39179 	4 	0
YB+1_S2   	56206 	6039 	33937 	0
YB+1_S3   	-62225 	-43949 	2230 	0
YB+1_S4   	3978 	-58482 	0 	0 	-18033
YB+1_S5   	271 	-19260 	63627 	0
YB+1_S6   	-50890 	5702 	25673 	0
YB+1_S7   	6109 	5640 	-21555 	0
YB+1_S8   	-34690 	25332 	34042 	0
YB+1_S9   	-22813 	-34859 	0 	32651
YB+1_S10   	5856 	-41631 	-28927 	733 	0
YB+1_S11   	23064 	0 	0 	238
YB+1_S12   	8965 	0 	-5633 	0
CH= 1 MOD= 120 BIAS= 34
YB+1_S1   	15953 	-37317 	46371 	-43995
YB+1_S2   	-38992 	-7701 	6681 	35355
YB+1_S3   	49559 	-12135 	36694 	0
YB+1_S4   	46639 	-13364 	-20036 	5190 	8260
YB+1_S5   	1497 	37354 	8765 	21292
YB+1_S6   	6342 	0 	51156 	-43527
YB+1_S7   	-11175 	3933 	55115 	656
YB+1_S8   	37427 	-30923 	27930 	-5679
YB+1_S9   	-5942 	3 	1784 	38462
YB+1_S10   	56963 	2294 	11772 	7281 	11923
YB+1_S11   	0 	10236 	0 	12589
YB+1_S12   	11405 	57 	20237 	-50106
YB+1_S1   	-8512 	-30592 	521 	0
YB+1_S2   	-6099 	9748 	2245 	0
YB+1_S3   	25220 	-41725 	-12716 	0
YB+1_S4   	-21319 	-11321 	0 	0 	-251
YB+1_S5   	-9274 	60511 	5670 	0
YB+1_S6   	56919 	45407 	-21734 	0
YB+1_S7   	12344 	-37429 	22768 	0
YB+1_S8   	57622 	-34842 	13170 	0
YB+1_S9   	25245 	-784 	354 	-12186
YB+1_S10   	17126 	-43523 	14901 	-53880 	0
YB+1_S11   	-2077 	1 	592 	823
YB+1_S12   	50307 	0 	-12089 	0
CH= 1 MOD= 120 BIAS= 38
YB+1_S1   	-5864 	-1300 	10169 	-49185
YB+1_S2   	-16313 	1045 	30034 	-10158
YB+1_S3   	-6428 	-18218 	-15977 	0
YB+1_S4   	-4624 	14528 	3055 	-46262 	9085
YB+1_S5   	-28106 	21663 	46644 	34733
YB+1_S6   	10688 	0 	-5366 	16446
YB+1_S7   	1294 	13748 	-45152 	5513
YB+1_S8   	40808 	2539 	12981 	-42951
YB+1_S9   	-10784 	19 	35849 	983
YB+1_S10   	-3364 	-10541 	24163 	-14105 	15330
YB+1_S11   	0 	5052 	0 	-24873
YB+1_S12   	49245 	796 	4866 	18906
YB+1_S1   	-42780 	10319 	6797 	0
YB+1_S2   	-20509 	10672 	-36908 	0
YB+1_S3   	7388 	-4573 	-5027 	0
YB+1_S4   	-11812 	43922 	0 	0 	2857
YB+1_S5   	4851 	-2625 	-7944 	0
YB+1_S6   	31316 	8507 	25079 	0
YB+1_S7   	38503 	41920 	23442 	0
YB+1_S8   	-21937 	-23765 	27467 	11
YB+1_S9   	19345 	-5543 	1260 	-25163
YB+1_S10   	-5587 	15371 	-14984 	-10262 	0
YB+1_S11   	-48816 	250 	5267 	23031
YB+1_S12   	13338 	0 	-16779 	0
CH= 1 MOD= 120 BIAS= 42
YB+1_S1   	-33068 	39645 	-45774 	-11935
YB+1_S2   	-6931 	32740 	27567 	-18855
YB+1_S3   	-5912 	10597 	18728 	0
YB+1_S4   	9009 	19439 	44400 	-1906 	-26303
YB+1_S5   	25520 	21033 	8902 	6542
YB+1_S6   	-11122 	0 	24386 	2792
YB+1_S7   	7501 	-25134 	-33960 	-14589
YB+1_S8   	-22086 	-26071 	36435 	32562
YB+1_S9   	16117 	71 	-7006 	-14631
YB+1_S10   	-2552 	32096 	-31370 	6694 	-38209
YB+1_S11   	0 	32493 	0 	11186
YB+1_S12   	-19070 	510 	34481 	-33050
YB+1_S1   	16952 	22066 	-27775 	0
YB+1_S2   	19744 	30275 	2884 	0
YB+1_S3   	-27960 	-42671 	40384 	0
YB+1_S4   	-23305 	-50836 	0 	0 	5244
YB+1_S5   	-44291 	23819 	25693 	0
YB+1_S6   	-3371 	-1790 	-36258 	94
YB+1_S7   	29745 	-45830 	22578 	0
YB+1_S8   	24905 	-25443 	-27982 	120
YB+1_S9   	-24352 	-3870 	36582 	61202
YB+1_S10   	-42375 	9934 	34607 	21950 	0
YB+1_S11   	-7684 	-11388 	-12829 	-21552
YB+1_S12   	8485 	16 	41415 	0
CH= 1 MOD= 120 BIAS= 46
YB+1_S1   	26169 	26249 	13080 	46685
YB+1_S2   	-6833 	13241 	8162 	22513
YB+1_S3   	10313 	26190 	-34399 	0
YB+1_S4   	40144 	-17082 	26009 	38500 	-36002
YB+1_S5   	-16583 	26074 	708 	-8794
YB+1_S6   	13041 	0 	2335 	-36195
YB+1_S7   	49687 	-29583 	42369 	-23643
YB+1_S8   	-15322 	35463 	-16273 	36731
YB+1_S9   	51098 	86 	15288 	39613
YB+1_S10   	-43551 	944 	23086 	36779 	-30116
YB+1_S11   	0 	23559 	0 	-39739
YB+1_S12   	-2301 	-53327 	-23460 	-49152
YB+1_S1   	2390 	11446 	-2623 	0
YB+1_S2   	-13318 	13291 	8029 	0
YB+1_S3   	12512 	31445 	-51911 	0
YB+1_S4   	-9291 	-333 	3 	0 	28034
YB+1_S5   	-34500 	17753 	-21218 	0
YB+1_S6   	-15633 	-9795 	27230 	7996
YB+1_S7   	1110 	-10097 	-31952 	1
YB+1_S8   	-26631 	-12679 	26380 	4236
YB+1_S9   	-19815 	19490 	520 	17579
YB+1_S10   	22418 	-5089 	-33161 	9595 	4
YB+1_S11   	-9914 	-17703 	22560 	-44844
YB+1_S12   	-2448 	250 	18774 	0
