CH= 3 MOD= 40 BIAS= 16
YB+1_S1   	0 	7810 	2 	0
YB+1_S2   	0 	1414 	0 	1
YB+1_S3   	0 	0 	0 	0
YB+1_S4   	0 	0 	0 	0 	0
YB+1_S5   	0 	0 	2 	0
YB+1_S6   	0 	0 	0 	0
YB+1_S7   	0 	3984 	0 	1
YB+1_S8   	0 	0 	0 	0
YB+1_S9   	0 	0 	0 	27
YB+1_S10   	0 	0 	0 	4300 	11490
YB+1_S11   	0 	0 	0 	0
YB+1_S12   	0 	0 	0 	0
YB+1_S1   	8787 	0 	0 	29373
YB+1_S2   	0 	1 	0 	31366
YB+1_S3   	0 	0 	195 	1
YB+1_S4   	0 	0 	2 	0 	0
YB+1_S5   	0 	2580 	0 	-52786
YB+1_S6   	0 	2 	21 	3
YB+1_S7   	0 	2 	0 	5
YB+1_S8   	0 	0 	0 	0
YB+1_S9   	9003 	0 	0 	0
YB+1_S10   	0 	0 	0 	0 	0
YB+1_S11   	0 	-34947 	0 	0
YB+1_S12   	5295 	0 	0 	0
CH= 3 MOD= 40 BIAS= 18
YB+1_S1   	0 	5 	0 	0
YB+1_S2   	0 	3 	0 	0
YB+1_S3   	0 	0 	0 	0
YB+1_S4   	0 	0 	0 	0 	0
YB+1_S5   	0 	0 	0 	0
YB+1_S6   	0 	0 	0 	0
YB+1_S7   	0 	1 	0 	0
YB+1_S8   	0 	0 	0 	0
YB+1_S9   	0 	0 	0 	20
YB+1_S10   	0 	0 	0 	51 	9314
YB+1_S11   	0 	0 	0 	0
YB+1_S12   	0 	0 	0 	0
YB+1_S1   	828 	0 	0 	10117
YB+1_S2   	0 	0 	0 	0
YB+1_S3   	0 	0 	0 	0
YB+1_S4   	0 	0 	0 	0 	0
YB+1_S5   	0 	-40446 	0 	0
YB+1_S6   	0 	0 	0 	0
YB+1_S7   	0 	0 	0 	0
YB+1_S8   	0 	0 	0 	0
YB+1_S9   	0 	0 	0 	0
YB+1_S10   	0 	0 	0 	0 	0
YB+1_S11   	0 	0 	0 	0
YB+1_S12   	0 	0 	0 	0
CH= 3 MOD= 40 BIAS= 22
YB+1_S1   	0 	0 	0 	0
YB+1_S2   	0 	0 	0 	0
YB+1_S3   	0 	0 	0 	0
YB+1_S4   	0 	0 	0 	0 	0
YB+1_S5   	0 	0 	0 	0
YB+1_S6   	0 	0 	0 	0
YB+1_S7   	0 	0 	0 	0
YB+1_S8   	0 	0 	0 	0
YB+1_S9   	0 	0 	0 	20
YB+1_S10   	0 	0 	8 	0 	6923
YB+1_S11   	0 	0 	0 	0
YB+1_S12   	0 	0 	0 	0
YB+1_S1   	0 	0 	0 	0
YB+1_S2   	0 	0 	0 	0
YB+1_S3   	0 	0 	0 	0
YB+1_S4   	0 	0 	0 	0 	0
YB+1_S5   	0 	4 	0 	0
YB+1_S6   	0 	0 	0 	0
YB+1_S7   	0 	0 	0 	0
YB+1_S8   	0 	0 	0 	0
YB+1_S9   	0 	0 	0 	0
YB+1_S10   	0 	0 	0 	0 	0
YB+1_S11   	0 	0 	0 	0
YB+1_S12   	0 	0 	0 	0
CH= 3 MOD= 40 BIAS= 26
YB+1_S1   	0 	0 	0 	0
YB+1_S2   	0 	0 	0 	0
YB+1_S3   	0 	0 	0 	0
YB+1_S4   	0 	0 	0 	0 	0
YB+1_S5   	0 	0 	0 	0
YB+1_S6   	0 	0 	0 	0
YB+1_S7   	0 	0 	0 	0
YB+1_S8   	0 	0 	0 	0
YB+1_S9   	0 	0 	0 	12
YB+1_S10   	0 	0 	9 	1 	7662
YB+1_S11   	0 	0 	0 	0
YB+1_S12   	0 	0 	0 	0
YB+1_S1   	0 	0 	0 	0
YB+1_S2   	0 	1 	0 	0
YB+1_S3   	0 	0 	0 	0
YB+1_S4   	0 	0 	0 	0 	0
YB+1_S5   	0 	0 	0 	0
YB+1_S6   	0 	0 	0 	0
YB+1_S7   	0 	0 	0 	0
YB+1_S8   	0 	0 	0 	0
YB+1_S9   	0 	0 	0 	0
YB+1_S10   	0 	0 	0 	0 	0
YB+1_S11   	0 	0 	0 	0
YB+1_S12   	0 	0 	0 	0
CH= 3 MOD= 40 BIAS= 30
YB+1_S1   	1 	0 	0 	0
YB+1_S2   	0 	0 	0 	0
YB+1_S3   	0 	0 	0 	0
YB+1_S4   	0 	0 	0 	0 	0
YB+1_S5   	0 	0 	0 	0
YB+1_S6   	0 	0 	0 	0
YB+1_S7   	0 	0 	0 	0
YB+1_S8   	0 	0 	0 	0
YB+1_S9   	0 	0 	0 	22
YB+1_S10   	0 	0 	10 	0 	9230
YB+1_S11   	0 	0 	0 	0
YB+1_S12   	0 	0 	0 	0
YB+1_S1   	0 	0 	0 	0
YB+1_S2   	0 	0 	0 	0
YB+1_S3   	0 	0 	0 	0
YB+1_S4   	0 	0 	0 	0 	0
YB+1_S5   	0 	0 	0 	0
YB+1_S6   	0 	1 	0 	0
YB+1_S7   	0 	0 	0 	0
YB+1_S8   	0 	0 	0 	0
YB+1_S9   	0 	0 	0 	0
YB+1_S10   	0 	0 	0 	0 	0
YB+1_S11   	0 	0 	0 	0
YB+1_S12   	0 	0 	0 	0
CH= 3 MOD= 40 BIAS= 34
YB+1_S1   	0 	0 	0 	0
YB+1_S2   	0 	0 	0 	0
YB+1_S3   	0 	0 	0 	0
YB+1_S4   	0 	0 	0 	0 	0
YB+1_S5   	0 	0 	0 	0
YB+1_S6   	0 	0 	0 	0
YB+1_S7   	0 	0 	0 	0
YB+1_S8   	0 	0 	0 	0
YB+1_S9   	0 	0 	0 	26
YB+1_S10   	0 	0 	17 	0 	10399
YB+1_S11   	0 	0 	0 	0
YB+1_S12   	0 	0 	0 	0
YB+1_S1   	0 	0 	0 	0
YB+1_S2   	0 	0 	0 	0
YB+1_S3   	0 	0 	0 	0
YB+1_S4   	0 	6 	0 	0 	0
YB+1_S5   	0 	0 	0 	0
YB+1_S6   	0 	1 	0 	0
YB+1_S7   	0 	0 	0 	0
YB+1_S8   	0 	0 	0 	0
YB+1_S9   	0 	0 	0 	0
YB+1_S10   	0 	0 	0 	0 	0
YB+1_S11   	0 	0 	0 	0
YB+1_S12   	0 	0 	0 	0
CH= 3 MOD= 40 BIAS= 38
YB+1_S1   	0 	0 	0 	0
YB+1_S2   	0 	0 	0 	0
YB+1_S3   	0 	0 	0 	0
YB+1_S4   	0 	0 	0 	0 	0
YB+1_S5   	0 	0 	0 	0
YB+1_S6   	0 	0 	0 	0
YB+1_S7   	0 	0 	0 	0
YB+1_S8   	0 	0 	0 	0
YB+1_S9   	0 	0 	0 	25
YB+1_S10   	0 	0 	16 	0 	11644
YB+1_S11   	0 	0 	0 	27
YB+1_S12   	0 	0 	0 	0
YB+1_S1   	0 	0 	0 	0
YB+1_S2   	0 	0 	0 	0
YB+1_S3   	0 	0 	0 	0
YB+1_S4   	0 	287 	0 	0 	0
YB+1_S5   	0 	0 	0 	0
YB+1_S6   	0 	0 	0 	0
YB+1_S7   	0 	0 	0 	0
YB+1_S8   	0 	0 	0 	0
YB+1_S9   	0 	0 	0 	0
YB+1_S10   	0 	0 	6 	0 	23
YB+1_S11   	0 	0 	0 	0
YB+1_S12   	0 	0 	0 	0
CH= 3 MOD= 40 BIAS= 42
YB+1_S1   	0 	0 	0 	0
YB+1_S2   	0 	0 	0 	0
YB+1_S3   	0 	0 	0 	0
YB+1_S4   	0 	0 	0 	0 	0
YB+1_S5   	0 	0 	0 	0
YB+1_S6   	12 	0 	0 	0
YB+1_S7   	0 	0 	0 	0
YB+1_S8   	0 	0 	3 	0
YB+1_S9   	0 	0 	0 	43
YB+1_S10   	0 	0 	22 	0 	11797
YB+1_S11   	0 	3 	1 	5
YB+1_S12   	0 	0 	0 	0
YB+1_S1   	0 	0 	0 	0
YB+1_S2   	1 	0 	0 	0
YB+1_S3   	0 	0 	0 	0
YB+1_S4   	0 	932 	0 	0 	0
YB+1_S5   	0 	0 	0 	0
YB+1_S6   	0 	0 	0 	0
YB+1_S7   	44 	0 	11 	0
YB+1_S8   	0 	195 	0 	0
YB+1_S9   	27 	0 	0 	0
YB+1_S10   	0 	0 	306 	0 	0
YB+1_S11   	0 	0 	0 	0
YB+1_S12   	0 	0 	0 	0
CH= 3 MOD= 40 BIAS= 46
YB+1_S1   	0 	0 	0 	22
YB+1_S2   	17622 	0 	0 	0
YB+1_S3   	0 	0 	0 	0
YB+1_S4   	0 	0 	0 	0 	0
YB+1_S5   	0 	0 	0 	0
YB+1_S6   	10 	0 	0 	0
YB+1_S7   	0 	0 	0 	0
YB+1_S8   	0 	0 	12 	0
YB+1_S9   	0 	0 	0 	194
YB+1_S10   	0 	0 	19 	0 	16153
YB+1_S11   	0 	55 	10 	11716
YB+1_S12   	0 	0 	0 	0
YB+1_S1   	0 	0 	0 	0
YB+1_S2   	1381 	0 	0 	0
YB+1_S3   	0 	0 	0 	0
YB+1_S4   	0 	4592 	0 	0 	0
YB+1_S5   	0 	0 	0 	0
YB+1_S6   	0 	0 	0 	0
YB+1_S7   	1 	0 	0 	0
YB+1_S8   	0 	13376 	0 	0
YB+1_S9   	11863 	0 	0 	0
YB+1_S10   	0 	0 	-62445 	0 	1549
YB+1_S11   	6 	0 	0 	169
YB+1_S12   	0 	0 	0 	0
CH= 3 MOD= 50 BIAS= 16
YB+1_S1   	0 	481 	0 	0
YB+1_S2   	0 	173 	0 	0
YB+1_S3   	0 	0 	0 	0
YB+1_S4   	0 	1 	0 	0 	0
YB+1_S5   	0 	0 	0 	0
YB+1_S6   	0 	0 	0 	0
YB+1_S7   	0 	211 	0 	0
YB+1_S8   	0 	0 	0 	0
YB+1_S9   	0 	0 	0 	23
YB+1_S10   	0 	0 	0 	721 	-53962
YB+1_S11   	0 	0 	0 	0
YB+1_S12   	0 	0 	0 	0
YB+1_S1   	6794 	0 	0 	-46758
YB+1_S2   	0 	0 	0 	206
YB+1_S3   	0 	0 	1 	0
YB+1_S4   	0 	0 	0 	0 	0
YB+1_S5   	0 	17432 	0 	1497
YB+1_S6   	0 	0 	0 	0
YB+1_S7   	0 	0 	0 	1
YB+1_S8   	0 	0 	0 	0
YB+1_S9   	0 	0 	0 	0
YB+1_S10   	0 	0 	0 	2 	0
YB+1_S11   	0 	46025 	0 	0
YB+1_S12   	0 	0 	0 	0
CH= 3 MOD= 50 BIAS= 18
YB+1_S1   	0 	0 	0 	0
YB+1_S2   	0 	0 	0 	0
YB+1_S3   	0 	0 	0 	0
YB+1_S4   	0 	0 	0 	0 	0
YB+1_S5   	0 	0 	0 	0
YB+1_S6   	0 	0 	0 	0
YB+1_S7   	0 	0 	0 	0
YB+1_S8   	0 	0 	0 	0
YB+1_S9   	0 	0 	0 	31
YB+1_S10   	0 	0 	4 	0 	6499
YB+1_S11   	0 	0 	0 	0
YB+1_S12   	0 	0 	0 	0
YB+1_S1   	5 	0 	0 	41
YB+1_S2   	0 	1 	0 	0
YB+1_S3   	0 	0 	0 	0
YB+1_S4   	0 	0 	0 	0 	0
YB+1_S5   	0 	-43927 	0 	0
YB+1_S6   	0 	0 	0 	0
YB+1_S7   	0 	0 	0 	0
YB+1_S8   	0 	0 	0 	0
YB+1_S9   	0 	0 	0 	0
YB+1_S10   	0 	0 	11 	0 	0
YB+1_S11   	0 	0 	0 	0
YB+1_S12   	0 	0 	0 	0
CH= 3 MOD= 50 BIAS= 22
YB+1_S1   	0 	0 	0 	0
YB+1_S2   	0 	0 	0 	0
YB+1_S3   	0 	0 	0 	0
YB+1_S4   	0 	0 	0 	0 	0
YB+1_S5   	0 	0 	0 	0
YB+1_S6   	0 	0 	0 	0
YB+1_S7   	0 	0 	0 	0
YB+1_S8   	0 	0 	0 	0
YB+1_S9   	0 	0 	0 	24
YB+1_S10   	0 	0 	3 	0 	5668
YB+1_S11   	0 	0 	0 	0
YB+1_S12   	0 	0 	0 	0
YB+1_S1   	0 	0 	0 	0
YB+1_S2   	0 	0 	0 	0
YB+1_S3   	0 	0 	0 	0
YB+1_S4   	0 	0 	0 	0 	0
YB+1_S5   	0 	0 	0 	0
YB+1_S6   	0 	0 	0 	0
YB+1_S7   	0 	0 	0 	0
YB+1_S8   	0 	0 	0 	0
YB+1_S9   	0 	0 	0 	0
YB+1_S10   	0 	0 	0 	0 	0
YB+1_S11   	0 	0 	0 	0
YB+1_S12   	0 	0 	0 	0
CH= 3 MOD= 50 BIAS= 26
YB+1_S1   	0 	0 	0 	0
YB+1_S2   	0 	0 	0 	0
YB+1_S3   	0 	0 	0 	0
YB+1_S4   	0 	0 	0 	0 	0
YB+1_S5   	0 	0 	0 	0
YB+1_S6   	0 	0 	0 	0
YB+1_S7   	0 	0 	0 	0
YB+1_S8   	0 	0 	0 	0
YB+1_S9   	0 	0 	0 	16
YB+1_S10   	0 	0 	10 	1 	7067
YB+1_S11   	0 	0 	0 	0
YB+1_S12   	0 	0 	0 	0
YB+1_S1   	0 	0 	0 	0
YB+1_S2   	0 	0 	0 	0
YB+1_S3   	0 	0 	0 	0
YB+1_S4   	0 	0 	0 	0 	0
YB+1_S5   	0 	0 	0 	0
YB+1_S6   	0 	0 	0 	0
YB+1_S7   	0 	0 	0 	0
YB+1_S8   	0 	0 	0 	0
YB+1_S9   	0 	0 	0 	0
YB+1_S10   	0 	0 	0 	0 	0
YB+1_S11   	0 	0 	0 	0
YB+1_S12   	0 	0 	0 	0
CH= 3 MOD= 50 BIAS= 30
YB+1_S1   	0 	0 	0 	0
YB+1_S2   	0 	0 	0 	0
YB+1_S3   	0 	0 	0 	0
YB+1_S4   	0 	0 	0 	0 	0
YB+1_S5   	0 	0 	0 	0
YB+1_S6   	0 	0 	0 	0
YB+1_S7   	0 	0 	0 	0
YB+1_S8   	0 	0 	0 	0
YB+1_S9   	0 	0 	0 	25
YB+1_S10   	0 	0 	45 	0 	-58129
YB+1_S11   	0 	0 	0 	0
YB+1_S12   	0 	0 	0 	0
YB+1_S1   	0 	0 	0 	0
YB+1_S2   	0 	0 	0 	0
YB+1_S3   	0 	0 	0 	0
YB+1_S4   	0 	0 	0 	0 	0
YB+1_S5   	0 	0 	0 	0
YB+1_S6   	0 	0 	0 	0
YB+1_S7   	0 	0 	0 	0
YB+1_S8   	0 	0 	0 	0
YB+1_S9   	0 	0 	0 	0
YB+1_S10   	0 	0 	3 	0 	0
YB+1_S11   	0 	0 	0 	0
YB+1_S12   	0 	0 	0 	0
CH= 3 MOD= 50 BIAS= 34
YB+1_S1   	0 	0 	0 	0
YB+1_S2   	0 	0 	0 	0
YB+1_S3   	0 	0 	0 	0
YB+1_S4   	0 	0 	0 	0 	0
YB+1_S5   	0 	0 	0 	0
YB+1_S6   	0 	0 	0 	0
YB+1_S7   	0 	0 	0 	0
YB+1_S8   	0 	0 	0 	0
YB+1_S9   	0 	0 	0 	29
YB+1_S10   	0 	0 	14 	0 	-56642
YB+1_S11   	0 	0 	0 	0
YB+1_S12   	0 	0 	0 	0
YB+1_S1   	0 	0 	0 	0
YB+1_S2   	0 	0 	0 	0
YB+1_S3   	0 	0 	0 	0
YB+1_S4   	0 	1 	0 	0 	0
YB+1_S5   	0 	0 	0 	0
YB+1_S6   	0 	0 	0 	0
YB+1_S7   	0 	0 	0 	0
YB+1_S8   	0 	0 	0 	0
YB+1_S9   	0 	0 	0 	0
YB+1_S10   	0 	0 	1 	0 	0
YB+1_S11   	0 	0 	0 	0
YB+1_S12   	0 	0 	0 	0
CH= 3 MOD= 50 BIAS= 38
YB+1_S1   	0 	0 	0 	0
YB+1_S2   	0 	0 	0 	0
YB+1_S3   	0 	0 	0 	0
YB+1_S4   	0 	1 	0 	0 	0
YB+1_S5   	0 	0 	0 	0
YB+1_S6   	2 	0 	0 	0
YB+1_S7   	0 	0 	0 	0
YB+1_S8   	0 	0 	0 	0
YB+1_S9   	0 	0 	0 	23
YB+1_S10   	0 	0 	20 	0 	11156
YB+1_S11   	0 	0 	0 	1
YB+1_S12   	0 	0 	0 	0
YB+1_S1   	0 	0 	0 	0
YB+1_S2   	0 	0 	0 	0
YB+1_S3   	0 	0 	0 	0
YB+1_S4   	0 	279 	0 	0 	0
YB+1_S5   	0 	0 	0 	0
YB+1_S6   	0 	0 	0 	0
YB+1_S7   	0 	0 	0 	0
YB+1_S8   	0 	0 	0 	0
YB+1_S9   	0 	0 	0 	0
YB+1_S10   	0 	0 	2 	0 	35
YB+1_S11   	0 	0 	0 	0
YB+1_S12   	0 	0 	0 	0
CH= 3 MOD= 50 BIAS= 42
YB+1_S1   	0 	0 	0 	0
YB+1_S2   	0 	0 	0 	0
YB+1_S3   	0 	0 	0 	0
YB+1_S4   	0 	0 	0 	0 	0
YB+1_S5   	0 	0 	0 	0
YB+1_S6   	35 	0 	0 	0
YB+1_S7   	0 	0 	0 	0
YB+1_S8   	1 	0 	1 	0
YB+1_S9   	0 	0 	0 	39
YB+1_S10   	0 	0 	14 	0 	11455
YB+1_S11   	0 	12 	0 	4701
YB+1_S12   	0 	0 	0 	0
YB+1_S1   	0 	0 	0 	0
YB+1_S2   	3 	0 	0 	0
YB+1_S3   	0 	0 	0 	0
YB+1_S4   	0 	1774 	0 	0 	0
YB+1_S5   	0 	0 	0 	0
YB+1_S6   	0 	0 	0 	0
YB+1_S7   	1 	0 	7 	0
YB+1_S8   	0 	200 	0 	0
YB+1_S9   	0 	0 	0 	0
YB+1_S10   	0 	0 	129 	0 	0
YB+1_S11   	0 	0 	0 	0
YB+1_S12   	0 	0 	0 	0
CH= 3 MOD= 50 BIAS= 46
YB+1_S1   	0 	0 	0 	28
YB+1_S2   	12959 	0 	0 	0
YB+1_S3   	0 	0 	0 	0
YB+1_S4   	0 	0 	0 	0 	0
YB+1_S5   	0 	0 	0 	0
YB+1_S6   	13 	0 	0 	0
YB+1_S7   	0 	0 	0 	0
YB+1_S8   	0 	0 	37 	0
YB+1_S9   	0 	1 	0 	133
YB+1_S10   	30 	0 	14 	0 	13039
YB+1_S11   	0 	59 	1 	393
YB+1_S12   	0 	0 	0 	0
YB+1_S1   	0 	0 	0 	0
YB+1_S2   	-64287 	0 	0 	0
YB+1_S3   	2 	0 	0 	0
YB+1_S4   	0 	6644 	0 	0 	0
YB+1_S5   	0 	0 	0 	0
YB+1_S6   	0 	1 	0 	0
YB+1_S7   	16 	0 	0 	0
YB+1_S8   	0 	-53953 	0 	0
YB+1_S9   	251 	0 	0 	0
YB+1_S10   	0 	0 	1371 	0 	-63517
YB+1_S11   	2 	0 	0 	555
YB+1_S12   	0 	0 	0 	0
CH= 3 MOD= 60 BIAS= 16
YB+1_S1   	0 	5 	0 	0
YB+1_S2   	0 	0 	0 	0
YB+1_S3   	0 	0 	0 	0
YB+1_S4   	0 	0 	0 	0 	0
YB+1_S5   	0 	0 	0 	0
YB+1_S6   	0 	0 	0 	0
YB+1_S7   	0 	0 	0 	0
YB+1_S8   	0 	0 	0 	0
YB+1_S9   	0 	0 	0 	21
YB+1_S10   	0 	0 	0 	8 	12156
YB+1_S11   	0 	0 	0 	0
YB+1_S12   	0 	0 	0 	0
YB+1_S1   	1199 	0 	0 	-10857
YB+1_S2   	0 	0 	0 	6
YB+1_S3   	0 	0 	0 	0
YB+1_S4   	0 	0 	0 	0 	0
YB+1_S5   	0 	-18416 	0 	156
YB+1_S6   	0 	0 	0 	0
YB+1_S7   	0 	0 	0 	2
YB+1_S8   	0 	0 	0 	0
YB+1_S9   	0 	0 	0 	0
YB+1_S10   	0 	0 	0 	0 	0
YB+1_S11   	0 	523 	0 	0
YB+1_S12   	0 	0 	0 	0
CH= 3 MOD= 60 BIAS= 18
YB+1_S1   	0 	0 	0 	0
YB+1_S2   	0 	0 	0 	0
YB+1_S3   	0 	0 	0 	0
YB+1_S4   	0 	0 	0 	0 	0
YB+1_S5   	0 	0 	0 	0
YB+1_S6   	0 	0 	0 	0
YB+1_S7   	0 	0 	0 	0
YB+1_S8   	0 	0 	0 	0
YB+1_S9   	0 	0 	0 	26
YB+1_S10   	0 	0 	0 	0 	8439
YB+1_S11   	0 	0 	0 	0
YB+1_S12   	0 	0 	0 	0
YB+1_S1   	0 	0 	0 	18
YB+1_S2   	0 	0 	0 	0
YB+1_S3   	0 	0 	0 	0
YB+1_S4   	0 	0 	0 	0 	0
YB+1_S5   	0 	51 	0 	0
YB+1_S6   	0 	0 	0 	0
YB+1_S7   	0 	0 	0 	0
YB+1_S8   	0 	0 	0 	0
YB+1_S9   	0 	0 	0 	0
YB+1_S10   	0 	0 	0 	0 	0
YB+1_S11   	0 	0 	0 	0
YB+1_S12   	0 	0 	0 	0
CH= 3 MOD= 60 BIAS= 22
YB+1_S1   	0 	0 	0 	0
YB+1_S2   	0 	0 	0 	0
YB+1_S3   	0 	0 	0 	0
YB+1_S4   	0 	0 	0 	0 	0
YB+1_S5   	0 	0 	0 	0
YB+1_S6   	0 	0 	0 	0
YB+1_S7   	0 	0 	0 	0
YB+1_S8   	0 	0 	0 	0
YB+1_S9   	0 	0 	0 	19
YB+1_S10   	0 	0 	16 	0 	9107
YB+1_S11   	0 	0 	0 	0
YB+1_S12   	0 	0 	0 	0
YB+1_S1   	0 	0 	0 	0
YB+1_S2   	0 	0 	0 	0
YB+1_S3   	0 	0 	0 	0
YB+1_S4   	0 	0 	0 	0 	0
YB+1_S5   	0 	0 	0 	0
YB+1_S6   	0 	0 	0 	0
YB+1_S7   	0 	0 	0 	0
YB+1_S8   	0 	0 	0 	0
YB+1_S9   	0 	0 	0 	0
YB+1_S10   	0 	0 	0 	0 	0
YB+1_S11   	0 	0 	0 	0
YB+1_S12   	0 	0 	0 	0
CH= 3 MOD= 60 BIAS= 26
YB+1_S1   	0 	0 	0 	0
YB+1_S2   	0 	0 	0 	0
YB+1_S3   	0 	0 	0 	0
YB+1_S4   	0 	0 	0 	0 	0
YB+1_S5   	0 	0 	0 	0
YB+1_S6   	0 	0 	0 	0
YB+1_S7   	0 	0 	0 	0
YB+1_S8   	0 	0 	0 	0
YB+1_S9   	0 	0 	0 	21
YB+1_S10   	0 	0 	8 	0 	9595
YB+1_S11   	0 	0 	0 	0
YB+1_S12   	0 	0 	0 	0
YB+1_S1   	0 	0 	0 	0
YB+1_S2   	0 	0 	0 	0
YB+1_S3   	0 	0 	0 	0
YB+1_S4   	0 	0 	0 	0 	0
YB+1_S5   	0 	0 	0 	0
YB+1_S6   	0 	1 	0 	0
YB+1_S7   	0 	0 	0 	0
YB+1_S8   	0 	0 	0 	0
YB+1_S9   	0 	0 	0 	0
YB+1_S10   	0 	0 	0 	0 	0
YB+1_S11   	0 	0 	0 	0
YB+1_S12   	0 	0 	0 	0
CH= 3 MOD= 60 BIAS= 30
YB+1_S1   	0 	0 	0 	0
YB+1_S2   	0 	0 	0 	0
YB+1_S3   	0 	0 	0 	0
YB+1_S4   	0 	0 	0 	0 	0
YB+1_S5   	0 	0 	0 	0
YB+1_S6   	0 	0 	0 	0
YB+1_S7   	0 	0 	0 	0
YB+1_S8   	0 	0 	0 	0
YB+1_S9   	0 	0 	0 	25
YB+1_S10   	0 	0 	19 	0 	10813
YB+1_S11   	0 	0 	0 	0
YB+1_S12   	0 	0 	0 	0
YB+1_S1   	0 	0 	0 	0
YB+1_S2   	0 	0 	0 	0
YB+1_S3   	0 	0 	0 	0
YB+1_S4   	0 	0 	0 	0 	0
YB+1_S5   	0 	0 	0 	0
YB+1_S6   	0 	0 	0 	0
YB+1_S7   	0 	0 	0 	0
YB+1_S8   	0 	0 	0 	0
YB+1_S9   	0 	0 	0 	0
YB+1_S10   	0 	0 	1 	0 	0
YB+1_S11   	0 	0 	0 	0
YB+1_S12   	0 	0 	0 	0
CH= 3 MOD= 60 BIAS= 34
YB+1_S1   	0 	0 	0 	0
YB+1_S2   	0 	0 	0 	0
YB+1_S3   	0 	0 	0 	0
YB+1_S4   	0 	0 	0 	0 	0
YB+1_S5   	0 	0 	0 	0
YB+1_S6   	0 	0 	0 	0
YB+1_S7   	0 	0 	0 	0
YB+1_S8   	0 	0 	0 	0
YB+1_S9   	0 	0 	0 	31
YB+1_S10   	0 	0 	12 	0 	9847
YB+1_S11   	0 	0 	0 	0
YB+1_S12   	0 	0 	0 	0
YB+1_S1   	0 	0 	0 	0
YB+1_S2   	0 	0 	0 	0
YB+1_S3   	0 	0 	0 	0
YB+1_S4   	0 	7 	0 	0 	0
YB+1_S5   	0 	0 	0 	0
YB+1_S6   	0 	0 	0 	0
YB+1_S7   	0 	0 	0 	0
YB+1_S8   	0 	0 	0 	0
YB+1_S9   	0 	0 	0 	0
YB+1_S10   	0 	0 	6 	0 	0
YB+1_S11   	0 	0 	0 	0
YB+1_S12   	0 	0 	0 	0
CH= 3 MOD= 60 BIAS= 38
YB+1_S1   	0 	0 	0 	0
YB+1_S2   	0 	0 	0 	0
YB+1_S3   	0 	0 	0 	0
YB+1_S4   	0 	0 	0 	0 	0
YB+1_S5   	0 	0 	0 	0
YB+1_S6   	5 	0 	0 	0
YB+1_S7   	0 	0 	0 	0
YB+1_S8   	0 	0 	13 	0
YB+1_S9   	0 	0 	0 	21
YB+1_S10   	0 	0 	26 	0 	9243
YB+1_S11   	0 	0 	0 	0
YB+1_S12   	0 	0 	0 	0
YB+1_S1   	0 	0 	0 	0
YB+1_S2   	0 	0 	0 	0
YB+1_S3   	0 	0 	0 	0
YB+1_S4   	0 	1090 	0 	0 	0
YB+1_S5   	0 	0 	0 	0
YB+1_S6   	0 	0 	0 	0
YB+1_S7   	0 	0 	0 	0
YB+1_S8   	0 	1 	0 	0
YB+1_S9   	0 	0 	0 	0
YB+1_S10   	0 	0 	3 	0 	183
YB+1_S11   	0 	0 	0 	0
YB+1_S12   	0 	0 	0 	0
CH= 3 MOD= 60 BIAS= 42
YB+1_S1   	0 	0 	0 	0
YB+1_S2   	0 	0 	0 	2
YB+1_S3   	0 	0 	0 	0
YB+1_S4   	0 	1 	0 	0 	0
YB+1_S5   	0 	0 	0 	0
YB+1_S6   	355 	0 	0 	0
YB+1_S7   	0 	0 	4 	0
YB+1_S8   	3 	0 	20 	0
YB+1_S9   	0 	0 	0 	32
YB+1_S10   	0 	0 	18 	6 	10085
YB+1_S11   	0 	938 	0 	2
YB+1_S12   	0 	0 	0 	0
YB+1_S1   	0 	0 	0 	0
YB+1_S2   	73 	0 	0 	0
YB+1_S3   	0 	0 	0 	0
YB+1_S4   	0 	8194 	0 	0 	0
YB+1_S5   	0 	0 	0 	0
YB+1_S6   	0 	0 	0 	0
YB+1_S7   	5 	0 	16 	0
YB+1_S8   	0 	562 	0 	0
YB+1_S9   	0 	0 	0 	0
YB+1_S10   	0 	0 	140 	0 	0
YB+1_S11   	0 	0 	0 	0
YB+1_S12   	0 	0 	0 	0
CH= 3 MOD= 60 BIAS= 46
YB+1_S1   	0 	0 	0 	436
YB+1_S2   	11928 	0 	0 	6
YB+1_S3   	0 	0 	0 	0
YB+1_S4   	0 	0 	0 	0 	0
YB+1_S5   	0 	0 	0 	0
YB+1_S6   	192 	0 	0 	0
YB+1_S7   	0 	0 	673 	0
YB+1_S8   	4 	0 	279 	0
YB+1_S9   	0 	0 	0 	174
YB+1_S10   	1191 	0 	21 	107 	12419
YB+1_S11   	0 	206 	1 	669
YB+1_S12   	0 	0 	0 	0
YB+1_S1   	0 	0 	0 	0
YB+1_S2   	-59856 	0 	0 	0
YB+1_S3   	40 	4 	0 	0
YB+1_S4   	0 	26304 	0 	0 	0
YB+1_S5   	0 	0 	0 	0
YB+1_S6   	0 	1 	0 	0
YB+1_S7   	213 	0 	0 	0
YB+1_S8   	0 	14239 	0 	0
YB+1_S9   	2 	0 	0 	0
YB+1_S10   	0 	0 	1787 	0 	14065
YB+1_S11   	9 	0 	0 	3180
YB+1_S12   	0 	0 	0 	0
CH= 3 MOD= 70 BIAS= 16
YB+1_S1   	0 	0 	0 	0
YB+1_S2   	0 	0 	0 	0
YB+1_S3   	0 	0 	0 	0
YB+1_S4   	0 	0 	0 	0 	0
YB+1_S5   	0 	0 	0 	0
YB+1_S6   	0 	0 	0 	0
YB+1_S7   	0 	0 	0 	0
YB+1_S8   	0 	0 	0 	0
YB+1_S9   	0 	0 	0 	24
YB+1_S10   	0 	0 	0 	0 	11764
YB+1_S11   	0 	0 	0 	0
YB+1_S12   	0 	0 	0 	0
YB+1_S1   	55 	0 	0 	-62847
YB+1_S2   	0 	0 	0 	0
YB+1_S3   	0 	0 	0 	0
YB+1_S4   	0 	0 	0 	0 	0
YB+1_S5   	0 	225 	0 	19
YB+1_S6   	0 	0 	0 	0
YB+1_S7   	0 	0 	0 	3
YB+1_S8   	0 	0 	0 	0
YB+1_S9   	0 	0 	0 	0
YB+1_S10   	0 	0 	0 	0 	0
YB+1_S11   	0 	18 	0 	0
YB+1_S12   	0 	0 	0 	0
CH= 3 MOD= 70 BIAS= 18
YB+1_S1   	0 	0 	0 	0
YB+1_S2   	0 	0 	0 	0
YB+1_S3   	0 	0 	0 	0
YB+1_S4   	0 	1 	0 	0 	0
YB+1_S5   	0 	0 	0 	0
YB+1_S6   	0 	0 	0 	0
YB+1_S7   	0 	0 	0 	0
YB+1_S8   	0 	0 	0 	0
YB+1_S9   	0 	0 	0 	12
YB+1_S10   	0 	0 	0 	0 	7844
YB+1_S11   	0 	0 	0 	0
YB+1_S12   	0 	0 	0 	0
YB+1_S1   	0 	0 	0 	8
YB+1_S2   	0 	0 	0 	0
YB+1_S3   	0 	0 	0 	0
YB+1_S4   	0 	0 	0 	0 	0
YB+1_S5   	0 	5 	0 	0
YB+1_S6   	0 	0 	0 	0
YB+1_S7   	0 	0 	0 	0
YB+1_S8   	0 	0 	0 	0
YB+1_S9   	0 	0 	0 	0
YB+1_S10   	0 	0 	0 	0 	0
YB+1_S11   	0 	0 	0 	0
YB+1_S12   	0 	0 	0 	0
CH= 3 MOD= 70 BIAS= 22
YB+1_S1   	0 	0 	0 	0
YB+1_S2   	0 	0 	0 	0
YB+1_S3   	0 	0 	0 	0
YB+1_S4   	0 	0 	0 	0 	0
YB+1_S5   	0 	0 	0 	0
YB+1_S6   	0 	0 	0 	0
YB+1_S7   	0 	0 	0 	0
YB+1_S8   	0 	0 	0 	0
YB+1_S9   	0 	0 	0 	31
YB+1_S10   	0 	0 	4 	0 	7737
YB+1_S11   	0 	0 	0 	0
YB+1_S12   	0 	0 	0 	1
YB+1_S1   	0 	0 	0 	0
YB+1_S2   	0 	0 	0 	0
YB+1_S3   	0 	0 	0 	0
YB+1_S4   	0 	0 	0 	0 	0
YB+1_S5   	0 	0 	0 	0
YB+1_S6   	0 	0 	0 	0
YB+1_S7   	0 	0 	0 	0
YB+1_S8   	0 	0 	0 	0
YB+1_S9   	0 	0 	0 	0
YB+1_S10   	0 	0 	0 	0 	0
YB+1_S11   	0 	0 	0 	0
YB+1_S12   	0 	0 	0 	0
CH= 3 MOD= 70 BIAS= 26
YB+1_S1   	0 	0 	0 	0
YB+1_S2   	0 	0 	0 	0
YB+1_S3   	0 	0 	0 	0
YB+1_S4   	0 	0 	0 	0 	0
YB+1_S5   	0 	0 	0 	0
YB+1_S6   	0 	0 	0 	0
YB+1_S7   	0 	0 	0 	0
YB+1_S8   	0 	0 	0 	0
YB+1_S9   	0 	0 	0 	26
YB+1_S10   	0 	0 	18 	0 	8365
YB+1_S11   	0 	0 	0 	0
YB+1_S12   	0 	0 	0 	0
YB+1_S1   	0 	0 	0 	0
YB+1_S2   	0 	0 	0 	0
YB+1_S3   	0 	0 	0 	0
YB+1_S4   	0 	0 	0 	0 	0
YB+1_S5   	0 	0 	0 	0
YB+1_S6   	0 	1 	0 	0
YB+1_S7   	0 	0 	0 	0
YB+1_S8   	0 	0 	0 	0
YB+1_S9   	0 	0 	0 	0
YB+1_S10   	0 	0 	0 	0 	0
YB+1_S11   	0 	0 	0 	0
YB+1_S12   	0 	0 	0 	0
CH= 3 MOD= 70 BIAS= 30
YB+1_S1   	0 	0 	0 	0
YB+1_S2   	0 	0 	0 	0
YB+1_S3   	0 	0 	0 	0
YB+1_S4   	0 	0 	0 	0 	0
YB+1_S5   	0 	0 	0 	0
YB+1_S6   	0 	0 	0 	0
YB+1_S7   	0 	0 	0 	0
YB+1_S8   	3 	0 	0 	0
YB+1_S9   	0 	0 	0 	38
YB+1_S10   	0 	0 	7 	0 	-56548
YB+1_S11   	0 	0 	0 	0
YB+1_S12   	0 	0 	0 	0
YB+1_S1   	0 	0 	0 	0
YB+1_S2   	0 	0 	0 	0
YB+1_S3   	0 	0 	0 	0
YB+1_S4   	0 	0 	0 	0 	0
YB+1_S5   	0 	0 	0 	0
YB+1_S6   	0 	0 	0 	0
YB+1_S7   	0 	0 	0 	0
YB+1_S8   	0 	0 	0 	0
YB+1_S9   	0 	0 	0 	1
YB+1_S10   	0 	0 	0 	0 	0
YB+1_S11   	0 	0 	0 	0
YB+1_S12   	0 	0 	0 	0
CH= 3 MOD= 70 BIAS= 34
YB+1_S1   	0 	0 	0 	0
YB+1_S2   	0 	0 	0 	0
YB+1_S3   	1 	0 	0 	0
YB+1_S4   	0 	0 	0 	0 	0
YB+1_S5   	0 	0 	0 	0
YB+1_S6   	0 	0 	0 	0
YB+1_S7   	0 	0 	1 	0
YB+1_S8   	1 	0 	8 	0
YB+1_S9   	0 	0 	0 	24
YB+1_S10   	0 	0 	21 	0 	9881
YB+1_S11   	0 	0 	0 	0
YB+1_S12   	0 	0 	0 	0
YB+1_S1   	0 	0 	0 	0
YB+1_S2   	0 	0 	0 	0
YB+1_S3   	0 	0 	0 	0
YB+1_S4   	0 	44 	0 	0 	0
YB+1_S5   	0 	0 	0 	0
YB+1_S6   	0 	0 	0 	0
YB+1_S7   	0 	0 	0 	0
YB+1_S8   	0 	0 	0 	0
YB+1_S9   	0 	0 	0 	3
YB+1_S10   	0 	0 	3 	0 	0
YB+1_S11   	0 	0 	0 	0
YB+1_S12   	0 	0 	0 	0
CH= 3 MOD= 70 BIAS= 38
YB+1_S1   	0 	0 	0 	0
YB+1_S2   	0 	0 	0 	7
YB+1_S3   	0 	0 	0 	0
YB+1_S4   	0 	0 	0 	0 	0
YB+1_S5   	0 	0 	0 	0
YB+1_S6   	45 	0 	0 	0
YB+1_S7   	0 	0 	0 	0
YB+1_S8   	1 	0 	681 	0
YB+1_S9   	0 	0 	0 	32
YB+1_S10   	0 	0 	23 	3 	10560
YB+1_S11   	0 	0 	0 	1
YB+1_S12   	0 	0 	1 	0
YB+1_S1   	0 	0 	0 	0
YB+1_S2   	0 	1 	0 	0
YB+1_S3   	0 	0 	0 	0
YB+1_S4   	0 	6793 	0 	0 	0
YB+1_S5   	0 	0 	0 	0
YB+1_S6   	0 	0 	0 	0
YB+1_S7   	0 	0 	1 	0
YB+1_S8   	0 	3 	0 	0
YB+1_S9   	0 	0 	0 	0
YB+1_S10   	0 	0 	15 	0 	1525
YB+1_S11   	0 	0 	0 	0
YB+1_S12   	0 	0 	0 	0
CH= 3 MOD= 70 BIAS= 42
YB+1_S1   	0 	0 	0 	17
YB+1_S2   	0 	0 	0 	16
YB+1_S3   	2 	0 	0 	0
YB+1_S4   	0 	0 	0 	0 	1
YB+1_S5   	0 	0 	0 	0
YB+1_S6   	2733 	0 	0 	0
YB+1_S7   	1 	0 	275 	0
YB+1_S8   	5 	0 	574 	0
YB+1_S9   	0 	0 	0 	184
YB+1_S10   	0 	0 	20 	333 	10865
YB+1_S11   	0 	3582 	0 	7248
YB+1_S12   	0 	1 	4 	0
YB+1_S1   	0 	0 	0 	0
YB+1_S2   	507 	0 	0 	0
YB+1_S3   	0 	0 	0 	0
YB+1_S4   	0 	-32005 	0 	0 	0
YB+1_S5   	0 	0 	0 	0
YB+1_S6   	0 	1 	0 	0
YB+1_S7   	105 	0 	69 	0
YB+1_S8   	0 	1478 	0 	0
YB+1_S9   	0 	0 	0 	0
YB+1_S10   	0 	0 	540 	0 	0
YB+1_S11   	1 	0 	0 	2
YB+1_S12   	0 	0 	0 	0
CH= 3 MOD= 70 BIAS= 46
YB+1_S1   	0 	0 	0 	7062
YB+1_S2   	18994 	0 	0 	174
YB+1_S3   	5 	0 	0 	0
YB+1_S4   	0 	10 	0 	0 	2
YB+1_S5   	0 	0 	0 	0
YB+1_S6   	11186 	0 	0 	0
YB+1_S7   	0 	0 	-36798 	0
YB+1_S8   	76 	0 	5491 	0
YB+1_S9   	0 	4 	0 	879
YB+1_S10   	6281 	0 	20 	6139 	13466
YB+1_S11   	0 	900 	0 	1181
YB+1_S12   	0 	4 	0 	0
YB+1_S1   	0 	0 	1 	0
YB+1_S2   	18225 	1 	0 	0
YB+1_S3   	532 	57 	0 	0
YB+1_S4   	1 	43183 	0 	0 	0
YB+1_S5   	0 	0 	0 	0
YB+1_S6   	0 	0 	0 	0
YB+1_S7   	3556 	1 	38 	0
YB+1_S8   	0 	14937 	0 	0
YB+1_S9   	0 	0 	0 	1
YB+1_S10   	0 	0 	6836 	0 	-16940
YB+1_S11   	21 	0 	0 	21587
YB+1_S12   	0 	0 	0 	0
CH= 3 MOD= 80 BIAS= 16
YB+1_S1   	0 	0 	0 	0
YB+1_S2   	0 	0 	0 	0
YB+1_S3   	0 	0 	0 	0
YB+1_S4   	0 	0 	0 	0 	0
YB+1_S5   	0 	0 	0 	0
YB+1_S6   	0 	0 	0 	0
YB+1_S7   	0 	0 	0 	0
YB+1_S8   	0 	0 	0 	0
YB+1_S9   	0 	0 	0 	33
YB+1_S10   	0 	0 	0 	0 	10563
YB+1_S11   	0 	0 	0 	0
YB+1_S12   	0 	0 	0 	0
YB+1_S1   	0 	0 	0 	96
YB+1_S2   	0 	0 	0 	0
YB+1_S3   	0 	0 	0 	0
YB+1_S4   	0 	0 	0 	0 	0
YB+1_S5   	0 	61 	0 	1
YB+1_S6   	0 	0 	0 	0
YB+1_S7   	0 	0 	0 	0
YB+1_S8   	0 	0 	0 	0
YB+1_S9   	0 	0 	0 	0
YB+1_S10   	0 	0 	0 	0 	0
YB+1_S11   	0 	4 	0 	0
YB+1_S12   	0 	0 	0 	0
CH= 3 MOD= 80 BIAS= 18
YB+1_S1   	0 	0 	0 	0
YB+1_S2   	0 	0 	0 	0
YB+1_S3   	0 	0 	0 	0
YB+1_S4   	0 	0 	0 	0 	0
YB+1_S5   	0 	0 	0 	0
YB+1_S6   	0 	0 	0 	0
YB+1_S7   	0 	0 	0 	0
YB+1_S8   	0 	0 	0 	0
YB+1_S9   	0 	0 	0 	21
YB+1_S10   	0 	0 	0 	0 	-58374
YB+1_S11   	0 	0 	0 	0
YB+1_S12   	0 	0 	0 	0
YB+1_S1   	0 	0 	0 	6
YB+1_S2   	0 	0 	0 	0
YB+1_S3   	0 	0 	0 	0
YB+1_S4   	0 	0 	0 	0 	0
YB+1_S5   	0 	0 	0 	0
YB+1_S6   	0 	0 	0 	0
YB+1_S7   	0 	0 	0 	0
YB+1_S8   	0 	0 	0 	0
YB+1_S9   	0 	0 	0 	0
YB+1_S10   	0 	0 	0 	0 	0
YB+1_S11   	0 	0 	0 	0
YB+1_S12   	0 	0 	0 	0
CH= 3 MOD= 80 BIAS= 22
YB+1_S1   	0 	0 	0 	0
YB+1_S2   	0 	0 	0 	0
YB+1_S3   	0 	0 	0 	0
YB+1_S4   	0 	1 	0 	0 	0
YB+1_S5   	0 	0 	0 	0
YB+1_S6   	0 	0 	0 	0
YB+1_S7   	0 	0 	0 	0
YB+1_S8   	0 	0 	0 	0
YB+1_S9   	0 	0 	0 	19
YB+1_S10   	0 	0 	4 	0 	6876
YB+1_S11   	0 	0 	0 	0
YB+1_S12   	0 	0 	0 	0
YB+1_S1   	0 	0 	0 	0
YB+1_S2   	0 	0 	0 	0
YB+1_S3   	0 	0 	0 	0
YB+1_S4   	0 	0 	0 	0 	0
YB+1_S5   	0 	0 	0 	0
YB+1_S6   	0 	0 	0 	0
YB+1_S7   	0 	0 	0 	0
YB+1_S8   	0 	0 	0 	0
YB+1_S9   	0 	0 	0 	0
YB+1_S10   	0 	0 	0 	0 	0
YB+1_S11   	0 	0 	0 	0
YB+1_S12   	0 	0 	0 	0
CH= 3 MOD= 80 BIAS= 26
YB+1_S1   	0 	0 	0 	0
YB+1_S2   	0 	0 	0 	0
YB+1_S3   	0 	0 	0 	0
YB+1_S4   	0 	0 	0 	0 	0
YB+1_S5   	0 	0 	0 	0
YB+1_S6   	0 	0 	0 	0
YB+1_S7   	0 	0 	0 	0
YB+1_S8   	0 	0 	0 	0
YB+1_S9   	0 	0 	0 	24
YB+1_S10   	0 	0 	5 	0 	7975
YB+1_S11   	0 	0 	0 	0
YB+1_S12   	0 	0 	0 	0
YB+1_S1   	0 	0 	0 	0
YB+1_S2   	0 	1 	0 	0
YB+1_S3   	0 	0 	0 	0
YB+1_S4   	0 	0 	0 	0 	0
YB+1_S5   	0 	0 	0 	0
YB+1_S6   	0 	0 	0 	0
YB+1_S7   	0 	0 	0 	0
YB+1_S8   	0 	0 	0 	0
YB+1_S9   	0 	0 	0 	0
YB+1_S10   	0 	0 	0 	0 	0
YB+1_S11   	0 	0 	0 	0
YB+1_S12   	0 	0 	0 	0
CH= 3 MOD= 80 BIAS= 30
YB+1_S1   	0 	0 	0 	0
YB+1_S2   	0 	0 	0 	0
YB+1_S3   	13 	0 	0 	0
YB+1_S4   	0 	0 	0 	0 	0
YB+1_S5   	0 	0 	0 	0
YB+1_S6   	0 	0 	0 	0
YB+1_S7   	0 	0 	1 	0
YB+1_S8   	14 	0 	0 	0
YB+1_S9   	0 	0 	0 	24
YB+1_S10   	0 	0 	9 	150 	8420
YB+1_S11   	0 	0 	0 	6
YB+1_S12   	0 	0 	0 	0
YB+1_S1   	0 	0 	0 	0
YB+1_S2   	0 	0 	0 	0
YB+1_S3   	1 	0 	0 	0
YB+1_S4   	0 	0 	0 	0 	0
YB+1_S5   	0 	0 	0 	0
YB+1_S6   	0 	1 	0 	0
YB+1_S7   	0 	0 	1 	0
YB+1_S8   	0 	0 	0 	0
YB+1_S9   	0 	0 	0 	15
YB+1_S10   	0 	0 	4 	0 	0
YB+1_S11   	0 	0 	0 	0
YB+1_S12   	0 	0 	0 	0
CH= 3 MOD= 80 BIAS= 34
YB+1_S1   	0 	0 	0 	0
YB+1_S2   	0 	0 	0 	3
YB+1_S3   	47 	0 	0 	0
YB+1_S4   	0 	0 	0 	0 	0
YB+1_S5   	0 	0 	0 	0
YB+1_S6   	1 	0 	0 	0
YB+1_S7   	0 	0 	23 	0
YB+1_S8   	5 	0 	613 	0
YB+1_S9   	0 	0 	0 	33
YB+1_S10   	0 	0 	15 	17 	8451
YB+1_S11   	0 	1 	0 	0
YB+1_S12   	0 	0 	0 	0
YB+1_S1   	0 	0 	0 	0
YB+1_S2   	0 	0 	0 	0
YB+1_S3   	0 	0 	0 	0
YB+1_S4   	0 	523 	0 	0 	0
YB+1_S5   	0 	0 	0 	0
YB+1_S6   	0 	1 	0 	0
YB+1_S7   	0 	0 	14 	0
YB+1_S8   	0 	0 	0 	0
YB+1_S9   	0 	0 	0 	43
YB+1_S10   	0 	0 	25 	0 	0
YB+1_S11   	0 	0 	0 	0
YB+1_S12   	0 	0 	0 	0
CH= 3 MOD= 80 BIAS= 38
YB+1_S1   	0 	0 	0 	8
YB+1_S2   	0 	0 	0 	1065
YB+1_S3   	0 	0 	0 	0
YB+1_S4   	0 	2 	0 	0 	0
YB+1_S5   	0 	0 	0 	0
YB+1_S6   	611 	0 	0 	0
YB+1_S7   	0 	0 	269 	0
YB+1_S8   	5 	0 	15185 	0
YB+1_S9   	0 	2 	0 	177
YB+1_S10   	0 	0 	28 	767 	9715
YB+1_S11   	0 	3 	0 	182
YB+1_S12   	0 	0 	10 	0
YB+1_S1   	0 	0 	0 	0
YB+1_S2   	5 	0 	0 	0
YB+1_S3   	0 	0 	0 	0
YB+1_S4   	0 	50106 	0 	0 	0
YB+1_S5   	0 	0 	0 	0
YB+1_S6   	0 	0 	0 	0
YB+1_S7   	22 	0 	142 	0
YB+1_S8   	0 	98 	0 	0
YB+1_S9   	0 	0 	0 	1
YB+1_S10   	0 	0 	106 	0 	9713
YB+1_S11   	0 	0 	0 	0
YB+1_S12   	1 	0 	0 	0
CH= 3 MOD= 80 BIAS= 42
YB+1_S1   	0 	0 	0 	1472
YB+1_S2   	0 	0 	0 	1193
YB+1_S3   	48 	0 	0 	0
YB+1_S4   	0 	33 	0 	0 	25
YB+1_S5   	0 	0 	0 	0
YB+1_S6   	-3139 	0 	0 	0
YB+1_S7   	34 	0 	13733 	1
YB+1_S8   	345 	0 	-58927 	0
YB+1_S9   	0 	33 	0 	1436
YB+1_S10   	1 	0 	25 	12353 	10453
YB+1_S11   	0 	14341 	0 	4275
YB+1_S12   	0 	1064 	88 	0
YB+1_S1   	0 	0 	0 	0
YB+1_S2   	2782 	4 	0 	0
YB+1_S3   	22 	10 	0 	0
YB+1_S4   	1 	-21546 	0 	0 	0
YB+1_S5   	3 	0 	0 	0
YB+1_S6   	0 	3 	0 	0
YB+1_S7   	2196 	0 	865 	0
YB+1_S8   	0 	7579 	0 	0
YB+1_S9   	0 	0 	0 	0
YB+1_S10   	2 	0 	2041 	0 	0
YB+1_S11   	12 	0 	0 	33
YB+1_S12   	0 	0 	0 	0
CH= 3 MOD= 80 BIAS= 46
YB+1_S1   	0 	0 	0 	-7443
YB+1_S2   	-33174 	0 	0 	7229
YB+1_S3   	234 	0 	0 	0
YB+1_S4   	0 	619 	0 	0 	380
YB+1_S5   	0 	0 	0 	0
YB+1_S6   	-14925 	0 	0 	0
YB+1_S7   	0 	0 	-414 	0
YB+1_S8   	2841 	5 	23460 	0
YB+1_S9   	0 	81 	0 	8469
YB+1_S10   	19795 	0 	48 	-4271 	20880
YB+1_S11   	0 	3533 	1 	33370
YB+1_S12   	0 	286 	0 	0
YB+1_S1   	0 	4 	0 	0
YB+1_S2   	-215 	3 	0 	0
YB+1_S3   	3287 	455 	0 	0
YB+1_S4   	11 	-35864 	0 	5 	0
YB+1_S5   	18 	0 	0 	0
YB+1_S6   	0 	5 	1 	0
YB+1_S7   	32805 	3 	3278 	0
YB+1_S8   	0 	25415 	0 	0
YB+1_S9   	0 	0 	0 	123
YB+1_S10   	14 	0 	-38258 	0 	-35512
YB+1_S11   	229 	0 	0 	44857
YB+1_S12   	8 	0 	0 	0
CH= 3 MOD= 90 BIAS= 16
YB+1_S1   	0 	0 	0 	0
YB+1_S2   	0 	0 	0 	0
YB+1_S3   	0 	0 	0 	0
YB+1_S4   	0 	0 	0 	0 	0
YB+1_S5   	0 	0 	0 	0
YB+1_S6   	0 	0 	0 	0
YB+1_S7   	0 	0 	0 	0
YB+1_S8   	0 	0 	0 	0
YB+1_S9   	0 	0 	0 	29
YB+1_S10   	0 	0 	2 	0 	10121
YB+1_S11   	0 	0 	0 	0
YB+1_S12   	0 	0 	0 	0
YB+1_S1   	0 	0 	0 	31
YB+1_S2   	0 	1 	0 	0
YB+1_S3   	0 	0 	0 	0
YB+1_S4   	0 	0 	0 	0 	0
YB+1_S5   	0 	10 	0 	0
YB+1_S6   	0 	1 	0 	0
YB+1_S7   	0 	0 	0 	0
YB+1_S8   	0 	0 	0 	0
YB+1_S9   	0 	0 	0 	0
YB+1_S10   	0 	0 	0 	0 	0
YB+1_S11   	0 	1 	0 	0
YB+1_S12   	0 	0 	0 	0
CH= 3 MOD= 90 BIAS= 18
YB+1_S1   	0 	0 	0 	0
YB+1_S2   	0 	0 	0 	0
YB+1_S3   	0 	0 	0 	0
YB+1_S4   	0 	0 	0 	0 	0
YB+1_S5   	0 	0 	0 	0
YB+1_S6   	0 	0 	0 	0
YB+1_S7   	0 	0 	0 	0
YB+1_S8   	0 	0 	0 	0
YB+1_S9   	0 	0 	0 	29
YB+1_S10   	0 	0 	0 	0 	7640
YB+1_S11   	0 	0 	0 	0
YB+1_S12   	0 	0 	0 	0
YB+1_S1   	0 	0 	0 	0
YB+1_S2   	0 	0 	0 	0
YB+1_S3   	0 	0 	0 	0
YB+1_S4   	0 	0 	0 	0 	0
YB+1_S5   	0 	0 	0 	0
YB+1_S6   	0 	0 	0 	0
YB+1_S7   	0 	0 	0 	0
YB+1_S8   	0 	0 	0 	0
YB+1_S9   	0 	0 	0 	0
YB+1_S10   	0 	0 	0 	0 	0
YB+1_S11   	0 	0 	0 	0
YB+1_S12   	0 	0 	0 	0
CH= 3 MOD= 90 BIAS= 22
YB+1_S1   	0 	0 	0 	0
YB+1_S2   	0 	0 	0 	0
YB+1_S3   	0 	0 	0 	0
YB+1_S4   	0 	0 	0 	0 	0
YB+1_S5   	0 	0 	0 	0
YB+1_S6   	0 	0 	0 	0
YB+1_S7   	0 	0 	0 	0
YB+1_S8   	0 	0 	0 	0
YB+1_S9   	0 	0 	0 	15
YB+1_S10   	0 	0 	2 	0 	8562
YB+1_S11   	0 	0 	0 	0
YB+1_S12   	0 	0 	0 	0
YB+1_S1   	0 	0 	0 	0
YB+1_S2   	0 	0 	0 	0
YB+1_S3   	0 	0 	0 	0
YB+1_S4   	0 	0 	0 	0 	0
YB+1_S5   	0 	0 	0 	0
YB+1_S6   	0 	1 	0 	0
YB+1_S7   	0 	0 	0 	0
YB+1_S8   	0 	0 	0 	0
YB+1_S9   	0 	0 	0 	0
YB+1_S10   	0 	0 	0 	0 	0
YB+1_S11   	0 	0 	0 	0
YB+1_S12   	0 	0 	0 	0
CH= 3 MOD= 90 BIAS= 26
YB+1_S1   	0 	0 	0 	0
YB+1_S2   	0 	0 	0 	0
YB+1_S3   	0 	0 	0 	0
YB+1_S4   	0 	1 	0 	0 	0
YB+1_S5   	0 	0 	0 	0
YB+1_S6   	1 	0 	0 	0
YB+1_S7   	0 	0 	0 	0
YB+1_S8   	1 	0 	0 	0
YB+1_S9   	0 	0 	0 	33
YB+1_S10   	0 	0 	10 	0 	-55982
YB+1_S11   	0 	0 	0 	0
YB+1_S12   	0 	0 	0 	0
YB+1_S1   	0 	0 	0 	0
YB+1_S2   	0 	2 	0 	0
YB+1_S3   	0 	0 	0 	0
YB+1_S4   	0 	5 	0 	0 	0
YB+1_S5   	0 	0 	0 	0
YB+1_S6   	0 	0 	0 	0
YB+1_S7   	0 	0 	3 	0
YB+1_S8   	0 	0 	0 	0
YB+1_S9   	0 	0 	0 	0
YB+1_S10   	0 	0 	1 	0 	3
YB+1_S11   	0 	0 	0 	0
YB+1_S12   	0 	0 	0 	0
CH= 3 MOD= 90 BIAS= 30
YB+1_S1   	0 	0 	0 	1
YB+1_S2   	0 	0 	0 	0
YB+1_S3   	243 	0 	0 	0
YB+1_S4   	0 	1 	0 	0 	0
YB+1_S5   	0 	0 	0 	0
YB+1_S6   	0 	0 	0 	0
YB+1_S7   	0 	0 	51 	0
YB+1_S8   	23 	0 	0 	0
YB+1_S9   	0 	0 	0 	31
YB+1_S10   	0 	0 	24 	11103 	9259
YB+1_S11   	0 	1 	0 	3
YB+1_S12   	0 	12 	0 	0
YB+1_S1   	0 	0 	0 	0
YB+1_S2   	0 	1 	0 	0
YB+1_S3   	127 	0 	0 	0
YB+1_S4   	0 	328 	0 	0 	0
YB+1_S5   	0 	0 	0 	0
YB+1_S6   	0 	2 	0 	0
YB+1_S7   	2 	0 	50 	0
YB+1_S8   	0 	20 	0 	0
YB+1_S9   	0 	0 	0 	260
YB+1_S10   	0 	0 	25 	0 	1
YB+1_S11   	2 	0 	0 	0
YB+1_S12   	3 	0 	0 	0
CH= 3 MOD= 90 BIAS= 34
YB+1_S1   	0 	0 	0 	0
YB+1_S2   	0 	0 	0 	747
YB+1_S3   	1329 	0 	0 	0
YB+1_S4   	0 	0 	1 	0 	0
YB+1_S5   	0 	0 	0 	0
YB+1_S6   	8 	0 	0 	0
YB+1_S7   	0 	0 	1135 	0
YB+1_S8   	45 	1 	37416 	0
YB+1_S9   	0 	2 	0 	287
YB+1_S10   	0 	0 	30 	3113 	9424
YB+1_S11   	0 	6 	0 	1
YB+1_S12   	0 	0 	0 	0
YB+1_S1   	0 	0 	0 	0
YB+1_S2   	0 	0 	0 	0
YB+1_S3   	3 	0 	0 	0
YB+1_S4   	0 	12103 	0 	0 	0
YB+1_S5   	1 	0 	0 	0
YB+1_S6   	0 	7 	0 	0
YB+1_S7   	2 	0 	590 	0
YB+1_S8   	0 	34 	0 	0
YB+1_S9   	0 	0 	0 	-64647
YB+1_S10   	0 	0 	314 	0 	2
YB+1_S11   	6 	0 	0 	0
YB+1_S12   	0 	0 	0 	0
CH= 3 MOD= 90 BIAS= 38
YB+1_S1   	0 	0 	0 	1379
YB+1_S2   	0 	0 	0 	-12210
YB+1_S3   	69 	0 	0 	0
YB+1_S4   	0 	307 	0 	0 	5
YB+1_S5   	0 	0 	0 	0
YB+1_S6   	12221 	0 	0 	0
YB+1_S7   	2 	0 	-39769 	0
YB+1_S8   	410 	0 	6391 	0
YB+1_S9   	0 	275 	0 	12399
YB+1_S10   	112 	0 	20 	45165 	-56292
YB+1_S11   	0 	5 	0 	1360
YB+1_S12   	0 	0 	2861 	1
YB+1_S1   	0 	0 	0 	0
YB+1_S2   	676 	2 	0 	0
YB+1_S3   	178 	0 	0 	0
YB+1_S4   	2 	8687 	0 	0 	0
YB+1_S5   	0 	0 	0 	0
YB+1_S6   	0 	3 	0 	0
YB+1_S7   	5423 	0 	10702 	0
YB+1_S8   	0 	4488 	0 	0
YB+1_S9   	0 	0 	0 	273
YB+1_S10   	2 	38 	1285 	0 	-6684
YB+1_S11   	7 	0 	0 	62
YB+1_S12   	6 	0 	0 	0
CH= 3 MOD= 90 BIAS= 42
YB+1_S1   	0 	0 	0 	31454
YB+1_S2   	0 	1 	0 	34377
YB+1_S3   	2138 	8 	0 	0
YB+1_S4   	0 	4057 	1 	0 	2048
YB+1_S5   	0 	0 	0 	0
YB+1_S6   	24124 	0 	0 	0
YB+1_S7   	658 	0 	-3846 	2
YB+1_S8   	22708 	0 	12808 	0
YB+1_S9   	0 	1619 	0 	-34922
YB+1_S10   	165 	0 	53 	8979 	-54456
YB+1_S11   	0 	-19903 	0 	6409
YB+1_S12   	2 	-1409 	7956 	0
YB+1_S1   	0 	1 	0 	0
YB+1_S2   	20261 	897 	0 	0
YB+1_S3   	1845 	605 	0 	0
YB+1_S4   	20 	-969 	0 	1 	0
YB+1_S5   	216 	0 	0 	0
YB+1_S6   	0 	147 	0 	0
YB+1_S7   	-11397 	2 	24410 	0
YB+1_S8   	0 	13943 	1 	0
YB+1_S9   	0 	2 	0 	39
YB+1_S10   	180 	10 	12011 	0 	3
YB+1_S11   	370 	0 	0 	1183
YB+1_S12   	18 	0 	0 	0
CH= 3 MOD= 90 BIAS= 46
YB+1_S1   	0 	5 	0 	36496
YB+1_S2   	-3634 	12 	0 	4266
YB+1_S3   	-51683 	0 	0 	0
YB+1_S4   	0 	-2205 	0 	0 	26129
YB+1_S5   	0 	0 	0 	0
YB+1_S6   	-36687 	0 	0 	0
YB+1_S7   	9 	0 	21145 	3
YB+1_S8   	-49029 	73 	20582 	0
YB+1_S9   	0 	6062 	0 	11547
YB+1_S10   	-341 	0 	1230 	15514 	-18011
YB+1_S11   	0 	26331 	2 	9215
YB+1_S12   	2 	22637 	16 	1
YB+1_S1   	0 	525 	19 	0
YB+1_S2   	13839 	0 	0 	0
YB+1_S3   	23937 	11307 	0 	0
YB+1_S4   	198 	-38069 	0 	94 	0
YB+1_S5   	2709 	0 	0 	0
YB+1_S6   	0 	107 	1 	0
YB+1_S7   	-4307 	195 	44008 	0
YB+1_S8   	2 	12536 	2 	0
YB+1_S9   	0 	0 	3 	9376
YB+1_S10   	1040 	184 	42101 	0 	-38488
YB+1_S11   	2008 	0 	0 	46510
YB+1_S12   	13 	40 	0 	0
CH= 3 MOD= 100 BIAS= 16
YB+1_S1   	0 	0 	0 	0
YB+1_S2   	0 	0 	0 	0
YB+1_S3   	0 	0 	0 	0
YB+1_S4   	0 	0 	0 	0 	0
YB+1_S5   	0 	0 	0 	0
YB+1_S6   	0 	0 	0 	0
YB+1_S7   	0 	0 	0 	0
YB+1_S8   	0 	0 	0 	0
YB+1_S9   	0 	0 	0 	30
YB+1_S10   	0 	0 	10 	0 	-54920
YB+1_S11   	0 	0 	0 	0
YB+1_S12   	0 	0 	0 	0
YB+1_S1   	0 	0 	0 	14
YB+1_S2   	0 	1 	0 	0
YB+1_S3   	0 	0 	0 	0
YB+1_S4   	0 	0 	0 	0 	0
YB+1_S5   	0 	0 	0 	0
YB+1_S6   	0 	0 	0 	0
YB+1_S7   	0 	0 	0 	0
YB+1_S8   	0 	0 	0 	0
YB+1_S9   	0 	0 	0 	0
YB+1_S10   	0 	0 	30 	0 	0
YB+1_S11   	0 	0 	0 	0
YB+1_S12   	0 	0 	0 	0
CH= 3 MOD= 100 BIAS= 18
YB+1_S1   	0 	0 	0 	0
YB+1_S2   	0 	0 	0 	0
YB+1_S3   	0 	0 	0 	0
YB+1_S4   	0 	0 	0 	0 	0
YB+1_S5   	0 	0 	0 	0
YB+1_S6   	0 	0 	0 	0
YB+1_S7   	0 	0 	0 	0
YB+1_S8   	0 	0 	0 	0
YB+1_S9   	0 	0 	0 	27
YB+1_S10   	0 	0 	0 	0 	7667
YB+1_S11   	0 	0 	0 	0
YB+1_S12   	0 	0 	0 	0
YB+1_S1   	0 	0 	0 	0
YB+1_S2   	0 	0 	0 	0
YB+1_S3   	0 	0 	0 	0
YB+1_S4   	0 	0 	0 	0 	0
YB+1_S5   	0 	0 	0 	0
YB+1_S6   	0 	0 	0 	0
YB+1_S7   	0 	0 	0 	0
YB+1_S8   	0 	0 	0 	0
YB+1_S9   	0 	0 	0 	0
YB+1_S10   	0 	0 	0 	0 	0
YB+1_S11   	0 	0 	0 	0
YB+1_S12   	0 	0 	0 	0
CH= 3 MOD= 100 BIAS= 22
YB+1_S1   	0 	0 	0 	0
YB+1_S2   	0 	0 	0 	0
YB+1_S3   	0 	0 	0 	0
YB+1_S4   	0 	0 	0 	0 	0
YB+1_S5   	0 	0 	0 	0
YB+1_S6   	0 	0 	0 	0
YB+1_S7   	0 	0 	0 	0
YB+1_S8   	0 	0 	0 	0
YB+1_S9   	0 	0 	0 	27
YB+1_S10   	0 	0 	2 	0 	7180
YB+1_S11   	0 	0 	0 	0
YB+1_S12   	0 	0 	0 	0
YB+1_S1   	0 	0 	0 	0
YB+1_S2   	0 	0 	0 	0
YB+1_S3   	0 	0 	0 	0
YB+1_S4   	0 	0 	0 	0 	0
YB+1_S5   	0 	0 	0 	0
YB+1_S6   	0 	0 	0 	0
YB+1_S7   	0 	0 	0 	0
YB+1_S8   	0 	0 	0 	0
YB+1_S9   	0 	0 	0 	0
YB+1_S10   	0 	0 	0 	0 	0
YB+1_S11   	0 	0 	0 	0
YB+1_S12   	0 	0 	0 	0
CH= 3 MOD= 100 BIAS= 26
YB+1_S1   	0 	0 	0 	0
YB+1_S2   	0 	0 	0 	0
YB+1_S3   	0 	0 	0 	0
YB+1_S4   	0 	0 	0 	0 	0
YB+1_S5   	0 	0 	0 	0
YB+1_S6   	4 	0 	0 	0
YB+1_S7   	0 	0 	37 	0
YB+1_S8   	17 	0 	3 	0
YB+1_S9   	0 	0 	0 	26
YB+1_S10   	0 	0 	15 	0 	7830
YB+1_S11   	0 	0 	0 	0
YB+1_S12   	0 	0 	0 	0
YB+1_S1   	0 	0 	0 	0
YB+1_S2   	0 	1 	0 	0
YB+1_S3   	0 	0 	0 	0
YB+1_S4   	0 	388 	0 	0 	0
YB+1_S5   	0 	0 	0 	0
YB+1_S6   	0 	0 	0 	0
YB+1_S7   	0 	0 	321 	0
YB+1_S8   	0 	1 	0 	0
YB+1_S9   	0 	0 	0 	0
YB+1_S10   	0 	0 	0 	0 	19
YB+1_S11   	4 	0 	0 	0
YB+1_S12   	0 	0 	0 	0
CH= 3 MOD= 100 BIAS= 30
YB+1_S1   	0 	0 	0 	50
YB+1_S2   	0 	0 	0 	3
YB+1_S3   	2086 	0 	0 	0
YB+1_S4   	0 	1 	0 	0 	0
YB+1_S5   	0 	0 	0 	0
YB+1_S6   	6 	0 	0 	0
YB+1_S7   	1 	0 	3905 	0
YB+1_S8   	1311 	0 	24 	0
YB+1_S9   	0 	28 	0 	125
YB+1_S10   	0 	1 	12 	33757 	8608
YB+1_S11   	0 	12 	0 	87
YB+1_S12   	0 	99 	0 	0
YB+1_S1   	0 	0 	0 	0
YB+1_S2   	0 	2 	0 	0
YB+1_S3   	3650 	5 	0 	0
YB+1_S4   	0 	9942 	0 	0 	0
YB+1_S5   	0 	0 	0 	0
YB+1_S6   	0 	20 	0 	0
YB+1_S7   	239 	0 	1292 	0
YB+1_S8   	0 	409 	0 	0
YB+1_S9   	0 	0 	0 	2232
YB+1_S10   	0 	11 	156 	0 	14
YB+1_S11   	5 	0 	0 	6
YB+1_S12   	36 	0 	0 	0
CH= 3 MOD= 100 BIAS= 34
YB+1_S1   	0 	4 	0 	156
YB+1_S2   	0 	0 	0 	25137
YB+1_S3   	11749 	0 	0 	0
YB+1_S4   	0 	22 	4 	0 	0
YB+1_S5   	0 	0 	0 	0
YB+1_S6   	411 	0 	0 	0
YB+1_S7   	6 	0 	18941 	0
YB+1_S8   	677 	0 	-45808 	0
YB+1_S9   	0 	46 	0 	10737
YB+1_S10   	1 	0 	30 	33940 	9079
YB+1_S11   	0 	81 	0 	669
YB+1_S12   	0 	27 	5 	0
YB+1_S1   	0 	0 	0 	0
YB+1_S2   	0 	0 	0 	0
YB+1_S3   	255 	17 	2 	0
YB+1_S4   	0 	3396 	0 	0 	0
YB+1_S5   	3 	0 	0 	0
YB+1_S6   	0 	140 	0 	0
YB+1_S7   	270 	0 	1728 	0
YB+1_S8   	0 	1006 	0 	0
YB+1_S9   	0 	0 	0 	8718
YB+1_S10   	3 	0 	1681 	0 	65
YB+1_S11   	140 	0 	0 	0
YB+1_S12   	15 	0 	0 	0
CH= 3 MOD= 100 BIAS= 38
YB+1_S1   	0 	0 	0 	41677
YB+1_S2   	0 	64 	0 	36562
YB+1_S3   	2089 	7 	0 	0
YB+1_S4   	0 	8727 	0 	0 	133
YB+1_S5   	0 	0 	0 	0
YB+1_S6   	5625 	0 	0 	0
YB+1_S7   	146 	0 	-2949 	0
YB+1_S8   	27866 	0 	43946 	0
YB+1_S9   	0 	6532 	0 	23800
YB+1_S10   	963 	0 	48 	1674 	9808
YB+1_S11   	0 	360 	0 	-41781
YB+1_S12   	23 	24 	24783 	2
YB+1_S1   	0 	11 	0 	0
YB+1_S2   	10311 	43 	0 	0
YB+1_S3   	7351 	50 	1 	0
YB+1_S4   	58 	13418 	0 	2 	0
YB+1_S5   	352 	0 	0 	0
YB+1_S6   	0 	65 	0 	0
YB+1_S7   	38668 	0 	5959 	0
YB+1_S8   	0 	-17455 	0 	0
YB+1_S9   	0 	0 	0 	11250
YB+1_S10   	326 	1333 	7884 	0 	-21919
YB+1_S11   	124 	0 	0 	574
YB+1_S12   	249 	0 	0 	0
CH= 3 MOD= 100 BIAS= 42
YB+1_S1   	0 	15 	0 	-304
YB+1_S2   	0 	72 	0 	3953
YB+1_S3   	-33032 	347 	0 	0
YB+1_S4   	0 	-26628 	2 	0 	13515
YB+1_S5   	0 	0 	0 	0
YB+1_S6   	-32587 	2 	0 	0
YB+1_S7   	7852 	0 	-37147 	4
YB+1_S8   	-15356 	0 	-15474 	0
YB+1_S9   	0 	17255 	0 	-11437
YB+1_S10   	2923 	0 	987 	25877 	10210
YB+1_S11   	0 	49945 	0 	13893
YB+1_S12   	464 	-14615 	-15291 	3
YB+1_S1   	0 	260 	0 	0
YB+1_S2   	-7817 	-45692 	0 	0
YB+1_S3   	-9469 	11084 	1 	0
YB+1_S4   	250 	46276 	0 	16 	0
YB+1_S5   	9525 	0 	0 	0
YB+1_S6   	1 	3290 	0 	0
YB+1_S7   	27598 	77 	20890 	0
YB+1_S8   	0 	29330 	45 	0
YB+1_S9   	0 	15 	14 	7531
YB+1_S10   	7433 	998 	-13420 	0 	45
YB+1_S11   	8966 	0 	0 	-56076
YB+1_S12   	424 	34 	0 	0
CH= 3 MOD= 100 BIAS= 46
YB+1_S1   	0 	528 	0 	-23482
YB+1_S2   	7507 	1601 	2 	11271
YB+1_S3   	-28319 	187 	0 	0
YB+1_S4   	35 	-28192 	1 	1 	19808
YB+1_S5   	0 	1 	0 	0
YB+1_S6   	19270 	31 	0 	0
YB+1_S7   	348 	0 	-18960 	102
YB+1_S8   	19049 	776 	54994 	9
YB+1_S9   	0 	-28612 	0 	29454
YB+1_S10   	12953 	0 	19821 	42735 	-15649
YB+1_S11   	0 	1533 	9 	-20646
YB+1_S12   	921 	26708 	1011 	10
YB+1_S1   	0 	16837 	581 	0
YB+1_S2   	-18762 	110 	0 	0
YB+1_S3   	-22491 	-29579 	0 	0
YB+1_S4   	2342 	-31736 	0 	3034 	0
YB+1_S5   	24531 	0 	31 	0
YB+1_S6   	67 	2885 	43 	0
YB+1_S7   	-20112 	3103 	11945 	0
YB+1_S8   	7 	-21750 	41 	0
YB+1_S9   	0 	14 	98 	-4054
YB+1_S10   	40229 	7387 	-33446 	0 	-48716
YB+1_S11   	27749 	0 	0 	-47890
YB+1_S12   	386 	1585 	0 	0
CH= 3 MOD= 110 BIAS= 16
YB+1_S1   	0 	0 	0 	0
YB+1_S2   	0 	0 	0 	0
YB+1_S3   	0 	0 	0 	0
YB+1_S4   	0 	0 	0 	0 	0
YB+1_S5   	0 	0 	0 	0
YB+1_S6   	0 	0 	0 	0
YB+1_S7   	0 	0 	0 	0
YB+1_S8   	0 	0 	0 	0
YB+1_S9   	0 	0 	0 	36
YB+1_S10   	0 	0 	0 	0 	-55132
YB+1_S11   	0 	0 	0 	0
YB+1_S12   	0 	0 	0 	0
YB+1_S1   	0 	0 	0 	10
YB+1_S2   	0 	1 	0 	0
YB+1_S3   	0 	0 	0 	0
YB+1_S4   	0 	0 	0 	0 	0
YB+1_S5   	0 	0 	0 	0
YB+1_S6   	0 	0 	0 	0
YB+1_S7   	0 	0 	0 	0
YB+1_S8   	0 	0 	0 	0
YB+1_S9   	0 	0 	0 	0
YB+1_S10   	0 	0 	0 	0 	0
YB+1_S11   	0 	0 	0 	0
YB+1_S12   	0 	0 	0 	0
CH= 3 MOD= 110 BIAS= 18
YB+1_S1   	0 	0 	0 	0
YB+1_S2   	0 	0 	0 	0
YB+1_S3   	0 	0 	0 	0
YB+1_S4   	0 	0 	0 	0 	0
YB+1_S5   	0 	0 	0 	0
YB+1_S6   	0 	0 	0 	0
YB+1_S7   	0 	0 	0 	0
YB+1_S8   	0 	0 	0 	0
YB+1_S9   	0 	0 	0 	27
YB+1_S10   	0 	0 	0 	0 	7837
YB+1_S11   	0 	0 	0 	0
YB+1_S12   	0 	0 	0 	0
YB+1_S1   	0 	0 	0 	0
YB+1_S2   	0 	0 	0 	0
YB+1_S3   	0 	0 	0 	0
YB+1_S4   	0 	0 	0 	0 	0
YB+1_S5   	0 	0 	0 	0
YB+1_S6   	0 	0 	0 	0
YB+1_S7   	0 	0 	0 	0
YB+1_S8   	0 	0 	0 	0
YB+1_S9   	0 	0 	0 	0
YB+1_S10   	0 	0 	0 	0 	0
YB+1_S11   	0 	0 	0 	0
YB+1_S12   	0 	0 	0 	0
CH= 3 MOD= 110 BIAS= 22
YB+1_S1   	0 	0 	0 	0
YB+1_S2   	0 	0 	0 	0
YB+1_S3   	0 	0 	0 	0
YB+1_S4   	0 	0 	0 	0 	0
YB+1_S5   	0 	0 	0 	0
YB+1_S6   	0 	0 	0 	0
YB+1_S7   	0 	0 	0 	0
YB+1_S8   	0 	0 	0 	0
YB+1_S9   	0 	0 	0 	33
YB+1_S10   	0 	0 	2 	0 	7813
YB+1_S11   	0 	0 	0 	0
YB+1_S12   	0 	0 	0 	0
YB+1_S1   	0 	0 	0 	0
YB+1_S2   	0 	2 	0 	0
YB+1_S3   	0 	0 	0 	0
YB+1_S4   	0 	0 	0 	0 	0
YB+1_S5   	0 	0 	0 	0
YB+1_S6   	0 	0 	0 	0
YB+1_S7   	1 	0 	0 	0
YB+1_S8   	0 	0 	0 	0
YB+1_S9   	0 	0 	0 	0
YB+1_S10   	0 	0 	0 	0 	0
YB+1_S11   	0 	0 	0 	0
YB+1_S12   	0 	0 	0 	0
CH= 3 MOD= 110 BIAS= 26
YB+1_S1   	0 	0 	0 	57
YB+1_S2   	0 	0 	0 	70
YB+1_S3   	3 	0 	0 	0
YB+1_S4   	0 	0 	0 	0 	0
YB+1_S5   	0 	0 	0 	0
YB+1_S6   	0 	0 	0 	0
YB+1_S7   	0 	0 	1049 	0
YB+1_S8   	27 	0 	272 	0
YB+1_S9   	0 	2 	0 	25
YB+1_S10   	0 	0 	13 	0 	9869
YB+1_S11   	0 	0 	0 	1
YB+1_S12   	0 	0 	0 	0
YB+1_S1   	0 	0 	0 	0
YB+1_S2   	0 	0 	0 	0
YB+1_S3   	0 	2 	0 	0
YB+1_S4   	0 	-53083 	0 	0 	0
YB+1_S5   	0 	0 	0 	0
YB+1_S6   	0 	0 	0 	0
YB+1_S7   	15 	0 	24055 	0
YB+1_S8   	0 	272 	0 	0
YB+1_S9   	0 	0 	0 	0
YB+1_S10   	0 	8 	1 	0 	174
YB+1_S11   	42 	0 	0 	0
YB+1_S12   	0 	0 	0 	0
CH= 3 MOD= 110 BIAS= 30
YB+1_S1   	0 	0 	0 	4474
YB+1_S2   	0 	2 	0 	203
YB+1_S3   	14275 	0 	0 	0
YB+1_S4   	0 	46 	0 	0 	18
YB+1_S5   	0 	0 	0 	0
YB+1_S6   	423 	0 	0 	0
YB+1_S7   	293 	0 	6502 	0
YB+1_S8   	4144 	0 	4214 	0
YB+1_S9   	0 	1643 	0 	-14700
YB+1_S10   	0 	0 	23 	15768 	9545
YB+1_S11   	0 	79 	0 	759
YB+1_S12   	0 	575 	80 	3
YB+1_S1   	0 	2 	0 	0
YB+1_S2   	9 	1 	0 	0
YB+1_S3   	-25869 	263 	54 	0
YB+1_S4   	0 	-22419 	0 	0 	0
YB+1_S5   	0 	0 	0 	0
YB+1_S6   	0 	364 	0 	0
YB+1_S7   	-53761 	1 	13097 	0
YB+1_S8   	0 	-51742 	0 	0
YB+1_S9   	0 	0 	0 	18602
YB+1_S10   	108 	506 	1888 	0 	366
YB+1_S11   	283 	0 	0 	200
YB+1_S12   	454 	0 	0 	0
CH= 3 MOD= 110 BIAS= 34
YB+1_S1   	0 	269 	0 	19593
YB+1_S2   	0 	2 	2 	-276
YB+1_S3   	9506 	2 	0 	0
YB+1_S4   	1 	4471 	0 	0 	68
YB+1_S5   	0 	0 	0 	0
YB+1_S6   	13941 	1 	0 	0
YB+1_S7   	1842 	0 	3368 	0
YB+1_S8   	7284 	0 	-22681 	2
YB+1_S9   	0 	2636 	0 	-10527
YB+1_S10   	19 	2 	255 	32744 	10151
YB+1_S11   	0 	1509 	0 	-8420
YB+1_S12   	29 	2096 	1297 	4
YB+1_S1   	0 	55 	0 	0
YB+1_S2   	222 	164 	0 	0
YB+1_S3   	18648 	1276 	491 	0
YB+1_S4   	4 	4090 	0 	0 	0
YB+1_S5   	552 	0 	6 	0
YB+1_S6   	0 	3380 	0 	0
YB+1_S7   	31332 	1 	16946 	0
YB+1_S8   	0 	23985 	2 	0
YB+1_S9   	0 	0 	0 	14006
YB+1_S10   	317 	47 	13173 	0 	2553
YB+1_S11   	16435 	0 	0 	37
YB+1_S12   	363 	2 	0 	0
CH= 3 MOD= 110 BIAS= 38
YB+1_S1   	0 	63 	0 	34353
YB+1_S2   	0 	4938 	8 	-25497
YB+1_S3   	-18892 	234 	0 	0
YB+1_S4   	8 	-16221 	5 	0 	6851
YB+1_S5   	1 	1 	0 	0
YB+1_S6   	-7658 	1 	0 	0
YB+1_S7   	12169 	0 	-18914 	0
YB+1_S8   	-41073 	1 	24216 	0
YB+1_S9   	0 	-25180 	0 	21104
YB+1_S10   	6767 	0 	946 	17397 	11991
YB+1_S11   	0 	-25464 	0 	-17555
YB+1_S12   	3242 	1749 	-32909 	18
YB+1_S1   	0 	2418 	42 	0
YB+1_S2   	-53019 	4168 	0 	0
YB+1_S3   	-6818 	14366 	64 	0
YB+1_S4   	1225 	-21978 	0 	46 	0
YB+1_S5   	39797 	0 	5 	0
YB+1_S6   	409 	4405 	0 	0
YB+1_S7   	958 	105 	30336 	0
YB+1_S8   	0 	13798 	53 	0
YB+1_S9   	0 	0 	3 	10691
YB+1_S10   	-48392 	20879 	-12280 	6 	13134
YB+1_S11   	5651 	0 	0 	16157
YB+1_S12   	15252 	39 	0 	0
CH= 3 MOD= 110 BIAS= 42
YB+1_S1   	0 	1654 	0 	-43787
YB+1_S2   	10 	-64319 	161 	-19304
YB+1_S3   	-10295 	12763 	0 	0
YB+1_S4   	160 	-42585 	3 	1 	-22841
YB+1_S5   	8 	7 	0 	0
YB+1_S6   	-4319 	141 	0 	1
YB+1_S7   	34182 	0 	40770 	18
YB+1_S8   	-44072 	14 	-32725 	9
YB+1_S9   	0 	15796 	0 	-49870
YB+1_S10   	38607 	3 	-38383 	-20238 	23134
YB+1_S11   	0 	28634 	2 	-15885
YB+1_S12   	-22044 	-20001 	24884 	240
YB+1_S1   	0 	-40697 	260 	0
YB+1_S2   	-38749 	-22586 	0 	2
YB+1_S3   	46806 	38291 	595 	0
YB+1_S4   	3632 	-45466 	0 	499 	121
YB+1_S5   	-28977 	0 	8 	0
YB+1_S6   	214 	275 	1 	0
YB+1_S7   	-21658 	4785 	14924 	0
YB+1_S8   	8 	-33369 	2814 	0
YB+1_S9   	0 	397 	219 	-48385
YB+1_S10   	-16392 	-38857 	1186 	127 	5305
YB+1_S11   	-24407 	0 	0 	26515
YB+1_S12   	9193 	2930 	1 	0
CH= 3 MOD= 110 BIAS= 46
YB+1_S1   	0 	27201 	0 	-2877
YB+1_S2   	-36101 	18963 	217 	4718
YB+1_S3   	29630 	16400 	0 	0
YB+1_S4   	10582 	-12689 	2 	90 	41030
YB+1_S5   	62 	2133 	0 	0
YB+1_S6   	52667 	3065 	1 	129
YB+1_S7   	14297 	0 	-28616 	3017
YB+1_S8   	2303 	5104 	-28166 	108
YB+1_S9   	0 	-16614 	0 	-37846
YB+1_S10   	20082 	62 	-33423 	-16040 	25844
YB+1_S11   	0 	5892 	6 	51498
YB+1_S12   	389 	27699 	7319 	4159
YB+1_S1   	0 	12160 	32578 	0
YB+1_S2   	-25332 	15531 	0 	3
YB+1_S3   	-31243 	28152 	61 	0
YB+1_S4   	-26521 	19672 	0 	-17226 	239
YB+1_S5   	-59315 	0 	1698 	0
YB+1_S6   	7382 	-31715 	-59702 	0
YB+1_S7   	25045 	-44687 	25738 	0
YB+1_S8   	90 	53937 	3114 	0
YB+1_S9   	0 	839 	1464 	12289
YB+1_S10   	-37410 	-17346 	4220 	0 	-16707
YB+1_S11   	-42439 	0 	0 	-6430
YB+1_S12   	17064 	38656 	0 	0
CH= 3 MOD= 120 BIAS= 16
YB+1_S1   	0 	0 	0 	0
YB+1_S2   	0 	0 	0 	0
YB+1_S3   	0 	0 	0 	0
YB+1_S4   	0 	0 	0 	0 	0
YB+1_S5   	0 	0 	0 	0
YB+1_S6   	0 	0 	0 	0
YB+1_S7   	0 	0 	0 	0
YB+1_S8   	0 	0 	0 	0
YB+1_S9   	0 	0 	0 	40
YB+1_S10   	0 	0 	0 	0 	9666
YB+1_S11   	0 	0 	0 	0
YB+1_S12   	0 	0 	0 	0
YB+1_S1   	0 	0 	0 	8
YB+1_S2   	0 	0 	0 	0
YB+1_S3   	0 	0 	0 	0
YB+1_S4   	0 	0 	0 	0 	0
YB+1_S5   	0 	0 	0 	0
YB+1_S6   	0 	0 	0 	0
YB+1_S7   	0 	0 	0 	0
YB+1_S8   	0 	0 	0 	0
YB+1_S9   	0 	0 	0 	0
YB+1_S10   	0 	0 	0 	0 	0
YB+1_S11   	0 	0 	0 	0
YB+1_S12   	0 	0 	0 	0
CH= 3 MOD= 120 BIAS= 18
YB+1_S1   	0 	0 	0 	0
YB+1_S2   	0 	0 	0 	0
YB+1_S3   	0 	0 	0 	0
YB+1_S4   	0 	0 	0 	0 	0
YB+1_S5   	0 	0 	0 	0
YB+1_S6   	0 	0 	0 	0
YB+1_S7   	0 	0 	0 	0
YB+1_S8   	0 	0 	0 	0
YB+1_S9   	0 	0 	0 	21
YB+1_S10   	0 	0 	1 	0 	7343
YB+1_S11   	0 	0 	0 	0
YB+1_S12   	0 	0 	0 	0
YB+1_S1   	0 	0 	0 	0
YB+1_S2   	0 	0 	0 	0
YB+1_S3   	0 	0 	0 	0
YB+1_S4   	0 	0 	0 	0 	0
YB+1_S5   	0 	0 	0 	0
YB+1_S6   	0 	0 	0 	0
YB+1_S7   	0 	0 	0 	0
YB+1_S8   	0 	0 	0 	0
YB+1_S9   	0 	0 	0 	0
YB+1_S10   	0 	0 	0 	0 	0
YB+1_S11   	0 	0 	0 	0
YB+1_S12   	0 	0 	0 	0
CH= 3 MOD= 120 BIAS= 22
YB+1_S1   	0 	0 	0 	0
YB+1_S2   	0 	0 	0 	0
YB+1_S3   	0 	0 	0 	0
YB+1_S4   	0 	0 	0 	0 	0
YB+1_S5   	0 	0 	0 	0
YB+1_S6   	0 	0 	0 	0
YB+1_S7   	0 	0 	0 	0
YB+1_S8   	2 	0 	0 	0
YB+1_S9   	0 	0 	0 	29
YB+1_S10   	0 	0 	4 	0 	7393
YB+1_S11   	0 	0 	0 	0
YB+1_S12   	0 	0 	61 	0
YB+1_S1   	0 	0 	0 	0
YB+1_S2   	0 	1 	0 	0
YB+1_S3   	0 	0 	0 	0
YB+1_S4   	0 	0 	0 	0 	0
YB+1_S5   	0 	0 	0 	0
YB+1_S6   	0 	0 	0 	0
YB+1_S7   	2 	0 	0 	0
YB+1_S8   	0 	2 	0 	0
YB+1_S9   	0 	0 	0 	0
YB+1_S10   	0 	0 	0 	0 	0
YB+1_S11   	0 	0 	0 	0
YB+1_S12   	0 	0 	0 	0
CH= 3 MOD= 120 BIAS= 26
YB+1_S1   	0 	0 	0 	1002
YB+1_S2   	0 	0 	0 	1593
YB+1_S3   	43 	0 	0 	0
YB+1_S4   	52 	2 	0 	0 	0
YB+1_S5   	0 	0 	0 	0
YB+1_S6   	1 	0 	0 	0
YB+1_S7   	1 	0 	159 	0
YB+1_S8   	16 	0 	5899 	0
YB+1_S9   	0 	26 	0 	66
YB+1_S10   	12 	0 	13 	0 	7854
YB+1_S11   	0 	3 	0 	55
YB+1_S12   	0 	0 	1 	0
YB+1_S1   	0 	0 	0 	0
YB+1_S2   	0 	0 	0 	0
YB+1_S3   	0 	6 	0 	0
YB+1_S4   	0 	-21990 	0 	0 	0
YB+1_S5   	0 	0 	0 	0
YB+1_S6   	0 	1 	0 	0
YB+1_S7   	620 	0 	-1474 	0
YB+1_S8   	0 	7390 	0 	0
YB+1_S9   	0 	0 	0 	0
YB+1_S10   	97 	52 	23 	0 	843
YB+1_S11   	1035 	0 	0 	0
YB+1_S12   	0 	0 	0 	0
CH= 3 MOD= 120 BIAS= 30
YB+1_S1   	0 	0 	0 	-12974
YB+1_S2   	0 	8 	0 	3984
YB+1_S3   	5102 	1 	0 	0
YB+1_S4   	2 	2103 	1 	0 	1352
YB+1_S5   	0 	0 	0 	0
YB+1_S6   	14295 	0 	0 	0
YB+1_S7   	-56208 	0 	-43560 	6
YB+1_S8   	-36676 	1 	-22215 	1
YB+1_S9   	0 	-40300 	0 	-44753
YB+1_S10   	3 	0 	30 	-14765 	-57716
YB+1_S11   	0 	940 	0 	19879
YB+1_S12   	18 	3525 	3664 	9
YB+1_S1   	0 	125 	0 	0
YB+1_S2   	159 	20 	0 	0
YB+1_S3   	-7345 	3768 	1875 	0
YB+1_S4   	0 	2795 	0 	0 	1
YB+1_S5   	9 	0 	0 	0
YB+1_S6   	10 	2940 	0 	0
YB+1_S7   	18760 	13 	978 	0
YB+1_S8   	0 	28531 	2 	0
YB+1_S9   	0 	0 	0 	-45502
YB+1_S10   	2805 	9843 	10286 	0 	5848
YB+1_S11   	1171 	0 	0 	1525
YB+1_S12   	9078 	0 	0 	0
CH= 3 MOD= 120 BIAS= 34
YB+1_S1   	0 	3358 	0 	-29884
YB+1_S2   	0 	103 	6 	-8435
YB+1_S3   	44896 	14 	0 	0
YB+1_S4   	10 	14688 	5 	0 	2652
YB+1_S5   	4 	0 	0 	0
YB+1_S6   	29486 	7 	0 	0
YB+1_S7   	-20809 	0 	40686 	0
YB+1_S8   	29739 	4 	-19882 	28
YB+1_S9   	0 	-12007 	0 	6724
YB+1_S10   	1484 	2 	2157 	45728 	14739
YB+1_S11   	0 	12052 	0 	-22438
YB+1_S12   	1691 	47934 	-20029 	21
YB+1_S1   	0 	3095 	35 	0
YB+1_S2   	4129 	3791 	0 	0
YB+1_S3   	8022 	16975 	10318 	0
YB+1_S4   	78 	35455 	0 	1 	2
YB+1_S5   	-41188 	0 	291 	0
YB+1_S6   	153 	33423 	0 	0
YB+1_S7   	16602 	71 	-53714 	0
YB+1_S8   	0 	15842 	47 	0
YB+1_S9   	0 	0 	0 	-17328
YB+1_S10   	7770 	2041 	-12538 	84 	26314
YB+1_S11   	-41358 	0 	0 	1089
YB+1_S12   	10390 	43 	9 	0
CH= 3 MOD= 120 BIAS= 38
YB+1_S1   	0 	2695 	0 	15526
YB+1_S2   	3 	-23810 	542 	-34577
YB+1_S3   	10064 	2104 	0 	0
YB+1_S4   	779 	27244 	5 	0 	9113
YB+1_S5   	185 	39 	0 	0
YB+1_S6   	31461 	76 	7 	0
YB+1_S7   	5503 	0 	63273 	10
YB+1_S8   	1179 	17 	14380 	19
YB+1_S9   	0 	-20004 	0 	5154
YB+1_S10   	-3352 	9 	21235 	-4435 	-33818
YB+1_S11   	0 	-8883 	0 	-2739
YB+1_S12   	2676 	9451 	43357 	2090
YB+1_S1   	0 	-7293 	3673 	0
YB+1_S2   	3344 	-26373 	0 	63
YB+1_S3   	-14359 	-14633 	3146 	0
YB+1_S4   	10939 	11046 	0 	1965 	70
YB+1_S5   	40546 	0 	664 	0
YB+1_S6   	14513 	11188 	1 	0
YB+1_S7   	43183 	-60347 	-28146 	0
YB+1_S8   	3 	19633 	2368 	0
YB+1_S9   	0 	1 	101 	-539
YB+1_S10   	-12346 	-21832 	-51426 	1596 	3120
YB+1_S11   	31282 	0 	0 	2497
YB+1_S12   	-12367 	871 	2 	0
CH= 3 MOD= 120 BIAS= 42
YB+1_S1   	0 	-14305 	0 	46485
YB+1_S2   	99 	18199 	7390 	-50997
YB+1_S3   	3585 	27035 	0 	0
YB+1_S4   	12736 	-32923 	9 	12 	-19143
YB+1_S5   	1475 	1765 	0 	0
YB+1_S6   	-21822 	2627 	14 	78
YB+1_S7   	25889 	0 	25469 	628
YB+1_S8   	11277 	391 	45480 	165
YB+1_S9   	0 	-49387 	0 	48897
YB+1_S10   	-26832 	417 	-2917 	-25412 	-22050
YB+1_S11   	0 	9001 	5 	-36807
YB+1_S12   	19320 	4186 	-3205 	17285
YB+1_S1   	0 	2509 	20102 	0
YB+1_S2   	-250 	5330 	0 	218
YB+1_S3   	-48784 	39403 	22431 	0
YB+1_S4   	37176 	-7045 	0 	10478 	11271
YB+1_S5   	5416 	0 	261 	0
YB+1_S6   	5445 	-59667 	415 	0
YB+1_S7   	5676 	8704 	53718 	0
YB+1_S8   	727 	-47948 	-22063 	0
YB+1_S9   	0 	2720 	2555 	18661
YB+1_S10   	-17432 	46624 	38702 	3690 	5930
YB+1_S11   	-40192 	0 	0 	512
YB+1_S12   	-13693 	-29082 	7 	0
CH= 3 MOD= 120 BIAS= 46
YB+1_S1   	0 	24273 	0 	-34457
YB+1_S2   	-26810 	39549 	13834 	17589
YB+1_S3   	-135 	35580 	0 	0
YB+1_S4   	-19422 	33520 	6 	3724 	5237
YB+1_S5   	-56667 	23570 	0 	0
YB+1_S6   	-15526 	53110 	499 	3020
YB+1_S7   	-2946 	0 	-9930 	-35909
YB+1_S8   	-25271 	20930 	-25057 	496
YB+1_S9   	0 	43167 	0 	-1084
YB+1_S10   	11023 	-61972 	15850 	-28351 	-15445
YB+1_S11   	0 	-38435 	21 	54423
YB+1_S12   	866 	-18122 	-46834 	16020
YB+1_S1   	1 	49984 	-30505 	5
YB+1_S2   	4256 	-34643 	0 	382
YB+1_S3   	-28585 	-31678 	2278 	0
YB+1_S4   	-2333 	-228 	0 	30912 	-40077
YB+1_S5   	10223 	0 	27078 	0
YB+1_S6   	-24182 	-16149 	555 	0
YB+1_S7   	47566 	41949 	51782 	0
YB+1_S8   	1997 	-14531 	-18232 	0
YB+1_S9   	0 	-55984 	14288 	25844
YB+1_S10   	-5656 	-31984 	-22413 	5643 	24022
YB+1_S11   	-8120 	0 	0 	7193
YB+1_S12   	-35611 	18197 	72 	0
