CH= 2 MOD= 40 BIAS= 18
YB+1_S1   	0 	0 	0 	3
YB+1_S2   	0 	0 	0 	0
YB+1_S3   	0 	0 	0 	0
YB+1_S4   	0 	2 	0 	0 	0
YB+1_S5   	0 	0 	0 	4
YB+1_S6   	0 	0 	0 	0
YB+1_S7   	0 	0 	0 	0
YB+1_S8   	0 	0 	0 	0
YB+1_S9   	6 	0 	0 	6
YB+1_S10   	0 	0 	33 	0 	96
YB+1_S11   	0 	0 	0 	0
YB+1_S12   	0 	0 	0 	0
YB+1_S1   	0 	0 	0 	217
YB+1_S2   	0 	0 	0 	40814
YB+1_S3   	0 	0 	0 	50345
YB+1_S4   	0 	0 	0 	0 	0
YB+1_S5   	0 	48885 	0 	6482
YB+1_S6   	0 	0 	0 	-50101
YB+1_S7   	0 	0 	0 	-5313
YB+1_S8   	0 	0 	0 	1
YB+1_S9   	0 	0 	0 	0
YB+1_S10   	0 	0 	0 	0 	0
YB+1_S11   	0 	1695 	0 	0
YB+1_S12   	0 	0 	0 	0
CH= 2 MOD= 40 BIAS= 22
YB+1_S1   	0 	0 	0 	2
YB+1_S2   	0 	0 	0 	0
YB+1_S3   	0 	0 	0 	0
YB+1_S4   	0 	1 	0 	0 	0
YB+1_S5   	0 	0 	0 	0
YB+1_S6   	0 	0 	0 	0
YB+1_S7   	0 	0 	0 	0
YB+1_S8   	0 	0 	0 	0
YB+1_S9   	0 	0 	0 	7
YB+1_S10   	0 	0 	0 	0 	109
YB+1_S11   	0 	0 	0 	0
YB+1_S12   	0 	0 	0 	0
YB+1_S1   	0 	0 	0 	0
YB+1_S2   	0 	0 	0 	0
YB+1_S3   	0 	0 	0 	0
YB+1_S4   	0 	0 	0 	0 	0
YB+1_S5   	0 	0 	0 	315
YB+1_S6   	0 	0 	0 	0
YB+1_S7   	0 	0 	0 	-14994
YB+1_S8   	0 	0 	0 	0
YB+1_S9   	0 	0 	0 	0
YB+1_S10   	0 	0 	22 	0 	0
YB+1_S11   	0 	0 	0 	0
YB+1_S12   	0 	0 	0 	0
CH= 2 MOD= 40 BIAS= 26
YB+1_S1   	0 	0 	0 	0
YB+1_S2   	0 	0 	0 	0
YB+1_S3   	0 	0 	0 	0
YB+1_S4   	0 	3 	0 	0 	0
YB+1_S5   	0 	0 	0 	0
YB+1_S6   	0 	0 	0 	0
YB+1_S7   	0 	0 	0 	0
YB+1_S8   	62 	0 	0 	0
YB+1_S9   	0 	0 	0 	6
YB+1_S10   	0 	0 	4 	0 	133
YB+1_S11   	0 	0 	0 	0
YB+1_S12   	0 	0 	0 	0
YB+1_S1   	0 	0 	0 	0
YB+1_S2   	0 	0 	0 	0
YB+1_S3   	0 	0 	0 	0
YB+1_S4   	0 	0 	0 	0 	0
YB+1_S5   	0 	0 	0 	0
YB+1_S6   	0 	0 	0 	0
YB+1_S7   	0 	0 	0 	20
YB+1_S8   	0 	0 	0 	0
YB+1_S9   	0 	0 	0 	1
YB+1_S10   	0 	0 	37 	0 	0
YB+1_S11   	0 	0 	0 	0
YB+1_S12   	0 	0 	0 	0
CH= 2 MOD= 40 BIAS= 30
YB+1_S1   	0 	0 	0 	1
YB+1_S2   	0 	0 	0 	0
YB+1_S3   	0 	0 	0 	0
YB+1_S4   	0 	0 	0 	0 	0
YB+1_S5   	0 	0 	0 	0
YB+1_S6   	0 	0 	0 	0
YB+1_S7   	0 	0 	0 	0
YB+1_S8   	0 	0 	0 	0
YB+1_S9   	0 	0 	0 	5
YB+1_S10   	0 	0 	0 	0 	102
YB+1_S11   	0 	0 	0 	0
YB+1_S12   	0 	0 	0 	0
YB+1_S1   	0 	0 	0 	0
YB+1_S2   	0 	0 	0 	0
YB+1_S3   	0 	0 	0 	0
YB+1_S4   	0 	0 	0 	0 	0
YB+1_S5   	0 	0 	0 	0
YB+1_S6   	0 	0 	0 	0
YB+1_S7   	0 	0 	0 	0
YB+1_S8   	0 	0 	0 	0
YB+1_S9   	0 	0 	0 	0
YB+1_S10   	0 	0 	30 	0 	0
YB+1_S11   	0 	0 	0 	0
YB+1_S12   	0 	0 	0 	0
CH= 2 MOD= 40 BIAS= 34
YB+1_S1   	0 	0 	0 	0
YB+1_S2   	0 	0 	0 	0
YB+1_S3   	0 	0 	0 	0
YB+1_S4   	0 	0 	0 	0 	0
YB+1_S5   	0 	0 	0 	0
YB+1_S6   	0 	0 	2 	0
YB+1_S7   	0 	0 	0 	0
YB+1_S8   	445 	0 	0 	0
YB+1_S9   	0 	0 	0 	7
YB+1_S10   	0 	0 	0 	0 	93
YB+1_S11   	0 	0 	0 	0
YB+1_S12   	0 	0 	0 	0
YB+1_S1   	0 	0 	0 	0
YB+1_S2   	0 	0 	0 	0
YB+1_S3   	0 	0 	0 	0
YB+1_S4   	0 	0 	0 	0 	0
YB+1_S5   	0 	0 	0 	0
YB+1_S6   	0 	1 	0 	0
YB+1_S7   	0 	0 	0 	0
YB+1_S8   	0 	0 	0 	0
YB+1_S9   	0 	0 	0 	0
YB+1_S10   	0 	0 	37 	0 	0
YB+1_S11   	1 	0 	0 	0
YB+1_S12   	0 	0 	0 	0
CH= 2 MOD= 40 BIAS= 38
YB+1_S1   	0 	0 	0 	0
YB+1_S2   	0 	0 	0 	0
YB+1_S3   	0 	0 	0 	0
YB+1_S4   	0 	2 	0 	0 	0
YB+1_S5   	0 	0 	0 	0
YB+1_S6   	0 	0 	1 	0
YB+1_S7   	0 	0 	0 	0
YB+1_S8   	3144 	0 	0 	0
YB+1_S9   	0 	0 	0 	11
YB+1_S10   	0 	0 	2 	0 	86
YB+1_S11   	0 	0 	0 	131
YB+1_S12   	0 	0 	0 	0
YB+1_S1   	0 	0 	0 	0
YB+1_S2   	0 	0 	3 	0
YB+1_S3   	0 	0 	0 	0
YB+1_S4   	0 	0 	0 	0 	0
YB+1_S5   	0 	0 	0 	0
YB+1_S6   	0 	2 	0 	0
YB+1_S7   	0 	0 	0 	0
YB+1_S8   	0 	0 	0 	0
YB+1_S9   	0 	0 	0 	0
YB+1_S10   	0 	0 	39 	0 	0
YB+1_S11   	50 	0 	0 	0
YB+1_S12   	0 	0 	0 	0
CH= 2 MOD= 40 BIAS= 42
YB+1_S1   	0 	0 	0 	0
YB+1_S2   	0 	0 	0 	0
YB+1_S3   	0 	0 	0 	0
YB+1_S4   	0 	5 	0 	0 	0
YB+1_S5   	0 	0 	0 	0
YB+1_S6   	0 	0 	1 	0
YB+1_S7   	0 	0 	0 	0
YB+1_S8   	6811 	0 	0 	0
YB+1_S9   	0 	0 	0 	9
YB+1_S10   	0 	0 	0 	0 	90
YB+1_S11   	0 	0 	87 	-57849
YB+1_S12   	0 	0 	0 	0
YB+1_S1   	0 	0 	0 	0
YB+1_S2   	0 	0 	469 	0
YB+1_S3   	0 	0 	0 	0
YB+1_S4   	87 	0 	0 	0 	0
YB+1_S5   	0 	0 	0 	0
YB+1_S6   	0 	1 	0 	0
YB+1_S7   	0 	0 	0 	0
YB+1_S8   	0 	1 	0 	0
YB+1_S9   	0 	0 	0 	0
YB+1_S10   	0 	0 	33 	0 	0
YB+1_S11   	2590 	0 	0 	0
YB+1_S12   	0 	0 	0 	0
CH= 2 MOD= 40 BIAS= 46
YB+1_S1   	0 	0 	0 	1
YB+1_S2   	23 	0 	0 	0
YB+1_S3   	0 	0 	0 	0
YB+1_S4   	0 	3 	0 	0 	0
YB+1_S5   	0 	0 	0 	0
YB+1_S6   	0 	0 	0 	0
YB+1_S7   	0 	0 	0 	8
YB+1_S8   	17740 	0 	0 	0
YB+1_S9   	0 	0 	0 	6
YB+1_S10   	0 	0 	0 	0 	87
YB+1_S11   	0 	0 	914 	41930
YB+1_S12   	0 	0 	0 	1
YB+1_S1   	0 	0 	0 	0
YB+1_S2   	0 	0 	445 	0
YB+1_S3   	0 	112 	0 	0
YB+1_S4   	41 	10 	0 	0 	0
YB+1_S5   	0 	0 	0 	0
YB+1_S6   	0 	0 	0 	0
YB+1_S7   	0 	0 	0 	0
YB+1_S8   	0 	1 	0 	0
YB+1_S9   	0 	0 	0 	0
YB+1_S10   	0 	0 	38 	0 	0
YB+1_S11   	20030 	0 	0 	0
YB+1_S12   	0 	0 	0 	0
CH= 2 MOD= 50 BIAS= 18
YB+1_S1   	0 	0 	0 	0
YB+1_S2   	0 	0 	0 	0
YB+1_S3   	0 	0 	0 	0
YB+1_S4   	0 	0 	0 	0 	0
YB+1_S5   	0 	0 	0 	0
YB+1_S6   	0 	0 	0 	0
YB+1_S7   	0 	0 	0 	0
YB+1_S8   	0 	0 	0 	0
YB+1_S9   	0 	0 	0 	9
YB+1_S10   	0 	0 	0 	0 	77
YB+1_S11   	0 	0 	0 	0
YB+1_S12   	0 	0 	0 	0
YB+1_S1   	0 	0 	0 	37
YB+1_S2   	0 	0 	0 	1535
YB+1_S3   	0 	0 	0 	-1920
YB+1_S4   	0 	0 	0 	0 	0
YB+1_S5   	0 	88 	0 	-10751
YB+1_S6   	0 	0 	0 	17418
YB+1_S7   	0 	0 	0 	17834
YB+1_S8   	0 	0 	0 	8
YB+1_S9   	0 	0 	0 	1
YB+1_S10   	0 	0 	2 	0 	0
YB+1_S11   	0 	5 	0 	0
YB+1_S12   	0 	0 	0 	0
CH= 2 MOD= 50 BIAS= 22
YB+1_S1   	0 	0 	0 	1
YB+1_S2   	0 	0 	0 	0
YB+1_S3   	0 	0 	0 	0
YB+1_S4   	0 	1 	0 	0 	0
YB+1_S5   	0 	0 	0 	0
YB+1_S6   	0 	0 	0 	0
YB+1_S7   	0 	0 	0 	0
YB+1_S8   	0 	0 	0 	0
YB+1_S9   	0 	0 	0 	6
YB+1_S10   	0 	0 	0 	0 	120
YB+1_S11   	0 	0 	0 	0
YB+1_S12   	0 	0 	0 	0
YB+1_S1   	0 	0 	0 	0
YB+1_S2   	0 	0 	0 	0
YB+1_S3   	0 	0 	0 	0
YB+1_S4   	0 	0 	0 	0 	0
YB+1_S5   	0 	0 	0 	126
YB+1_S6   	0 	0 	0 	1
YB+1_S7   	0 	0 	0 	1567
YB+1_S8   	0 	0 	0 	0
YB+1_S9   	0 	0 	0 	0
YB+1_S10   	0 	0 	35 	0 	0
YB+1_S11   	0 	0 	0 	0
YB+1_S12   	0 	0 	0 	0
CH= 2 MOD= 50 BIAS= 26
YB+1_S1   	0 	0 	0 	0
YB+1_S2   	0 	0 	0 	0
YB+1_S3   	0 	0 	0 	0
YB+1_S4   	0 	1 	0 	0 	0
YB+1_S5   	0 	0 	0 	0
YB+1_S6   	0 	0 	0 	0
YB+1_S7   	0 	0 	0 	0
YB+1_S8   	26 	0 	0 	0
YB+1_S9   	0 	0 	0 	4
YB+1_S10   	0 	0 	1 	0 	103
YB+1_S11   	0 	0 	0 	0
YB+1_S12   	0 	0 	0 	0
YB+1_S1   	0 	0 	0 	0
YB+1_S2   	0 	0 	0 	0
YB+1_S3   	0 	0 	0 	0
YB+1_S4   	0 	0 	0 	0 	0
YB+1_S5   	0 	0 	0 	0
YB+1_S6   	0 	0 	0 	0
YB+1_S7   	0 	0 	0 	13
YB+1_S8   	0 	0 	0 	0
YB+1_S9   	0 	0 	0 	0
YB+1_S10   	0 	0 	17 	0 	0
YB+1_S11   	0 	0 	0 	0
YB+1_S12   	0 	0 	0 	0
CH= 2 MOD= 50 BIAS= 30
YB+1_S1   	0 	0 	0 	2
YB+1_S2   	0 	0 	0 	0
YB+1_S3   	0 	0 	0 	0
YB+1_S4   	0 	1 	0 	0 	0
YB+1_S5   	0 	0 	0 	0
YB+1_S6   	0 	0 	0 	0
YB+1_S7   	0 	0 	0 	0
YB+1_S8   	0 	0 	0 	0
YB+1_S9   	0 	0 	0 	3
YB+1_S10   	0 	0 	0 	0 	84
YB+1_S11   	0 	0 	0 	1
YB+1_S12   	0 	0 	0 	0
YB+1_S1   	0 	0 	0 	0
YB+1_S2   	0 	0 	0 	0
YB+1_S3   	0 	0 	0 	0
YB+1_S4   	0 	0 	0 	0 	0
YB+1_S5   	0 	0 	0 	0
YB+1_S6   	0 	2 	0 	0
YB+1_S7   	0 	0 	0 	0
YB+1_S8   	0 	0 	0 	0
YB+1_S9   	0 	0 	0 	0
YB+1_S10   	0 	0 	35 	0 	0
YB+1_S11   	0 	0 	0 	0
YB+1_S12   	0 	0 	0 	0
CH= 2 MOD= 50 BIAS= 34
YB+1_S1   	0 	0 	0 	1
YB+1_S2   	0 	0 	0 	0
YB+1_S3   	0 	0 	0 	0
YB+1_S4   	0 	1 	0 	0 	0
YB+1_S5   	0 	0 	0 	0
YB+1_S6   	0 	0 	1 	0
YB+1_S7   	0 	0 	0 	0
YB+1_S8   	506 	0 	0 	0
YB+1_S9   	0 	0 	0 	5
YB+1_S10   	0 	0 	0 	0 	87
YB+1_S11   	0 	0 	0 	2
YB+1_S12   	0 	0 	0 	0
YB+1_S1   	0 	0 	0 	0
YB+1_S2   	0 	0 	0 	0
YB+1_S3   	0 	0 	0 	0
YB+1_S4   	0 	0 	0 	0 	0
YB+1_S5   	0 	0 	0 	0
YB+1_S6   	0 	1 	0 	0
YB+1_S7   	0 	0 	0 	0
YB+1_S8   	0 	0 	0 	0
YB+1_S9   	0 	0 	0 	0
YB+1_S10   	0 	0 	43 	0 	0
YB+1_S11   	0 	0 	0 	0
YB+1_S12   	0 	0 	0 	0
CH= 2 MOD= 50 BIAS= 38
YB+1_S1   	0 	0 	0 	2
YB+1_S2   	0 	0 	0 	0
YB+1_S3   	0 	0 	0 	0
YB+1_S4   	0 	1 	0 	0 	0
YB+1_S5   	0 	0 	0 	0
YB+1_S6   	0 	0 	0 	0
YB+1_S7   	0 	0 	0 	0
YB+1_S8   	3196 	0 	0 	0
YB+1_S9   	0 	0 	0 	10
YB+1_S10   	0 	0 	0 	0 	75
YB+1_S11   	0 	0 	0 	177
YB+1_S12   	0 	0 	0 	0
YB+1_S1   	0 	0 	0 	0
YB+1_S2   	0 	0 	1 	0
YB+1_S3   	0 	0 	0 	0
YB+1_S4   	1 	0 	0 	0 	0
YB+1_S5   	0 	0 	0 	0
YB+1_S6   	0 	0 	0 	0
YB+1_S7   	0 	0 	0 	0
YB+1_S8   	0 	0 	0 	0
YB+1_S9   	0 	0 	0 	0
YB+1_S10   	0 	0 	34 	0 	0
YB+1_S11   	96 	0 	0 	0
YB+1_S12   	0 	0 	0 	0
CH= 2 MOD= 50 BIAS= 42
YB+1_S1   	0 	0 	0 	3
YB+1_S2   	0 	0 	0 	0
YB+1_S3   	0 	0 	0 	0
YB+1_S4   	0 	1 	0 	0 	0
YB+1_S5   	0 	0 	0 	0
YB+1_S6   	0 	0 	0 	0
YB+1_S7   	0 	0 	0 	0
YB+1_S8   	10065 	0 	0 	0
YB+1_S9   	0 	0 	0 	15
YB+1_S10   	0 	0 	0 	0 	75
YB+1_S11   	0 	0 	31 	9973
YB+1_S12   	0 	0 	0 	0
YB+1_S1   	0 	0 	0 	0
YB+1_S2   	0 	0 	723 	0
YB+1_S3   	0 	0 	0 	0
YB+1_S4   	39 	0 	0 	0 	0
YB+1_S5   	0 	0 	0 	0
YB+1_S6   	0 	0 	0 	0
YB+1_S7   	0 	0 	0 	0
YB+1_S8   	0 	1 	0 	0
YB+1_S9   	0 	0 	0 	0
YB+1_S10   	0 	0 	33 	0 	0
YB+1_S11   	2093 	0 	0 	0
YB+1_S12   	0 	0 	0 	0
CH= 2 MOD= 50 BIAS= 46
YB+1_S1   	0 	0 	0 	4
YB+1_S2   	6 	0 	0 	0
YB+1_S3   	0 	0 	0 	0
YB+1_S4   	0 	0 	0 	0 	0
YB+1_S5   	1 	0 	0 	0
YB+1_S6   	0 	0 	0 	0
YB+1_S7   	0 	0 	0 	1
YB+1_S8   	-37949 	0 	0 	0
YB+1_S9   	0 	0 	0 	9
YB+1_S10   	0 	0 	0 	0 	83
YB+1_S11   	0 	0 	368 	-10143
YB+1_S12   	0 	0 	0 	0
YB+1_S1   	0 	0 	0 	0
YB+1_S2   	0 	0 	1311 	0
YB+1_S3   	0 	7 	0 	0
YB+1_S4   	81 	8 	0 	0 	0
YB+1_S5   	0 	0 	0 	0
YB+1_S6   	0 	0 	0 	0
YB+1_S7   	0 	0 	0 	0
YB+1_S8   	0 	1 	0 	0
YB+1_S9   	0 	0 	0 	0
YB+1_S10   	0 	0 	38 	0 	0
YB+1_S11   	16473 	0 	0 	0
YB+1_S12   	0 	0 	0 	0
CH= 2 MOD= 60 BIAS= 18
YB+1_S1   	0 	0 	0 	1
YB+1_S2   	0 	0 	0 	0
YB+1_S3   	0 	0 	0 	0
YB+1_S4   	0 	2 	0 	0 	0
YB+1_S5   	0 	0 	0 	0
YB+1_S6   	0 	0 	0 	0
YB+1_S7   	0 	0 	0 	0
YB+1_S8   	0 	0 	0 	0
YB+1_S9   	0 	0 	0 	8
YB+1_S10   	0 	0 	0 	0 	86
YB+1_S11   	0 	0 	0 	0
YB+1_S12   	0 	0 	0 	0
YB+1_S1   	0 	0 	0 	12
YB+1_S2   	0 	0 	0 	37
YB+1_S3   	0 	0 	0 	7759
YB+1_S4   	0 	0 	0 	0 	0
YB+1_S5   	0 	1 	0 	14317
YB+1_S6   	0 	0 	0 	-295
YB+1_S7   	0 	0 	0 	23717
YB+1_S8   	0 	0 	0 	1
YB+1_S9   	0 	0 	0 	0
YB+1_S10   	0 	0 	0 	0 	0
YB+1_S11   	0 	0 	0 	0
YB+1_S12   	0 	0 	0 	0
CH= 2 MOD= 60 BIAS= 22
YB+1_S1   	0 	0 	0 	0
YB+1_S2   	0 	0 	0 	0
YB+1_S3   	0 	0 	0 	0
YB+1_S4   	0 	1 	0 	0 	0
YB+1_S5   	0 	0 	0 	0
YB+1_S6   	0 	0 	0 	0
YB+1_S7   	0 	0 	0 	0
YB+1_S8   	0 	0 	0 	0
YB+1_S9   	0 	0 	0 	11
YB+1_S10   	0 	0 	0 	0 	93
YB+1_S11   	0 	0 	0 	1
YB+1_S12   	0 	0 	0 	1
YB+1_S1   	0 	0 	0 	0
YB+1_S2   	0 	1 	0 	0
YB+1_S3   	0 	0 	0 	0
YB+1_S4   	0 	0 	0 	0 	0
YB+1_S5   	0 	0 	0 	126
YB+1_S6   	0 	0 	0 	6
YB+1_S7   	0 	0 	0 	-30149
YB+1_S8   	0 	0 	0 	0
YB+1_S9   	0 	0 	0 	0
YB+1_S10   	0 	0 	14 	0 	0
YB+1_S11   	0 	0 	0 	0
YB+1_S12   	0 	0 	0 	0
CH= 2 MOD= 60 BIAS= 26
YB+1_S1   	0 	0 	0 	3
YB+1_S2   	0 	0 	0 	0
YB+1_S3   	0 	0 	0 	0
YB+1_S4   	0 	3 	0 	0 	0
YB+1_S5   	0 	0 	0 	0
YB+1_S6   	0 	0 	0 	0
YB+1_S7   	0 	0 	0 	0
YB+1_S8   	160 	0 	1 	0
YB+1_S9   	0 	0 	0 	8
YB+1_S10   	0 	0 	2 	0 	96
YB+1_S11   	0 	0 	0 	2
YB+1_S12   	0 	0 	0 	0
YB+1_S1   	0 	0 	0 	0
YB+1_S2   	0 	0 	0 	0
YB+1_S3   	0 	0 	1 	0
YB+1_S4   	0 	0 	0 	0 	0
YB+1_S5   	0 	0 	0 	0
YB+1_S6   	0 	0 	0 	0
YB+1_S7   	0 	0 	0 	2
YB+1_S8   	0 	0 	0 	0
YB+1_S9   	0 	0 	0 	0
YB+1_S10   	0 	0 	20 	0 	0
YB+1_S11   	0 	0 	0 	0
YB+1_S12   	0 	0 	0 	0
CH= 2 MOD= 60 BIAS= 30
YB+1_S1   	0 	0 	0 	1
YB+1_S2   	0 	0 	0 	0
YB+1_S3   	0 	0 	0 	0
YB+1_S4   	0 	3 	0 	0 	0
YB+1_S5   	0 	0 	0 	0
YB+1_S6   	0 	0 	0 	0
YB+1_S7   	0 	0 	0 	0
YB+1_S8   	29 	0 	0 	0
YB+1_S9   	0 	0 	0 	9
YB+1_S10   	0 	0 	1 	0 	78
YB+1_S11   	0 	0 	0 	1
YB+1_S12   	0 	0 	0 	0
YB+1_S1   	0 	0 	0 	0
YB+1_S2   	0 	0 	0 	0
YB+1_S3   	0 	0 	0 	0
YB+1_S4   	0 	0 	0 	0 	0
YB+1_S5   	0 	0 	0 	0
YB+1_S6   	0 	0 	0 	0
YB+1_S7   	0 	0 	0 	0
YB+1_S8   	0 	0 	0 	0
YB+1_S9   	0 	0 	0 	0
YB+1_S10   	0 	0 	28 	0 	0
YB+1_S11   	0 	0 	0 	0
YB+1_S12   	0 	0 	0 	0
CH= 2 MOD= 60 BIAS= 34
YB+1_S1   	0 	0 	0 	2
YB+1_S2   	0 	0 	0 	0
YB+1_S3   	0 	0 	0 	0
YB+1_S4   	0 	2 	0 	0 	0
YB+1_S5   	0 	0 	0 	0
YB+1_S6   	0 	0 	5 	0
YB+1_S7   	0 	0 	0 	0
YB+1_S8   	1233 	0 	0 	0
YB+1_S9   	0 	0 	0 	11
YB+1_S10   	0 	0 	0 	0 	71
YB+1_S11   	0 	0 	0 	12
YB+1_S12   	0 	0 	0 	0
YB+1_S1   	0 	0 	0 	0
YB+1_S2   	0 	0 	0 	0
YB+1_S3   	0 	0 	0 	0
YB+1_S4   	0 	0 	0 	0 	0
YB+1_S5   	0 	0 	0 	0
YB+1_S6   	0 	0 	0 	0
YB+1_S7   	0 	0 	0 	0
YB+1_S8   	0 	0 	0 	0
YB+1_S9   	0 	0 	0 	0
YB+1_S10   	0 	0 	41 	0 	0
YB+1_S11   	0 	0 	0 	0
YB+1_S12   	0 	0 	0 	0
CH= 2 MOD= 60 BIAS= 38
YB+1_S1   	0 	0 	0 	3
YB+1_S2   	0 	0 	0 	0
YB+1_S3   	0 	0 	0 	0
YB+1_S4   	0 	1 	0 	0 	0
YB+1_S5   	0 	0 	0 	0
YB+1_S6   	0 	0 	0 	0
YB+1_S7   	0 	0 	0 	0
YB+1_S8   	-54851 	0 	0 	0
YB+1_S9   	0 	0 	0 	9
YB+1_S10   	0 	0 	21 	0 	70
YB+1_S11   	0 	0 	0 	2284
YB+1_S12   	0 	0 	0 	0
YB+1_S1   	0 	0 	0 	0
YB+1_S2   	0 	0 	17 	0
YB+1_S3   	0 	0 	0 	0
YB+1_S4   	17 	0 	0 	0 	0
YB+1_S5   	0 	0 	0 	0
YB+1_S6   	0 	0 	0 	0
YB+1_S7   	0 	0 	0 	0
YB+1_S8   	0 	0 	0 	0
YB+1_S9   	0 	0 	0 	0
YB+1_S10   	0 	0 	37 	0 	0
YB+1_S11   	0 	0 	0 	0
YB+1_S12   	0 	0 	0 	0
CH= 2 MOD= 60 BIAS= 42
YB+1_S1   	0 	0 	0 	1
YB+1_S2   	0 	0 	0 	0
YB+1_S3   	0 	0 	0 	0
YB+1_S4   	0 	1 	0 	0 	0
YB+1_S5   	0 	0 	0 	0
YB+1_S6   	0 	0 	0 	0
YB+1_S7   	0 	0 	0 	1
YB+1_S8   	-22508 	0 	0 	0
YB+1_S9   	0 	0 	0 	11
YB+1_S10   	0 	0 	0 	0 	95
YB+1_S11   	0 	0 	25 	35617
YB+1_S12   	0 	0 	0 	0
YB+1_S1   	0 	0 	0 	0
YB+1_S2   	0 	0 	3609 	0
YB+1_S3   	0 	0 	0 	0
YB+1_S4   	196 	0 	0 	0 	0
YB+1_S5   	0 	0 	0 	0
YB+1_S6   	0 	0 	0 	0
YB+1_S7   	0 	0 	0 	0
YB+1_S8   	0 	9 	0 	0
YB+1_S9   	0 	0 	0 	0
YB+1_S10   	0 	0 	32 	0 	0
YB+1_S11   	45 	0 	0 	0
YB+1_S12   	0 	0 	0 	0
CH= 2 MOD= 60 BIAS= 46
YB+1_S1   	0 	0 	0 	1
YB+1_S2   	11 	1 	0 	0
YB+1_S3   	0 	0 	0 	0
YB+1_S4   	0 	0 	0 	0 	0
YB+1_S5   	94 	0 	0 	0
YB+1_S6   	0 	0 	0 	0
YB+1_S7   	0 	0 	0 	0
YB+1_S8   	-24944 	0 	2 	0
YB+1_S9   	0 	0 	0 	13
YB+1_S10   	0 	0 	0 	0 	92
YB+1_S11   	0 	0 	540 	3595
YB+1_S12   	0 	0 	0 	0
YB+1_S1   	0 	0 	0 	0
YB+1_S2   	0 	0 	9771 	0
YB+1_S3   	0 	3 	114 	0
YB+1_S4   	778 	12 	0 	3 	0
YB+1_S5   	0 	0 	0 	0
YB+1_S6   	0 	0 	0 	0
YB+1_S7   	0 	0 	0 	0
YB+1_S8   	0 	1 	0 	0
YB+1_S9   	0 	0 	0 	0
YB+1_S10   	0 	0 	46 	0 	0
YB+1_S11   	6262 	0 	0 	0
YB+1_S12   	0 	0 	0 	0
CH= 2 MOD= 70 BIAS= 18
YB+1_S1   	0 	0 	0 	0
YB+1_S2   	0 	0 	0 	0
YB+1_S3   	0 	0 	0 	0
YB+1_S4   	0 	0 	0 	0 	0
YB+1_S5   	0 	0 	0 	0
YB+1_S6   	0 	0 	1 	0
YB+1_S7   	0 	0 	0 	0
YB+1_S8   	0 	0 	0 	0
YB+1_S9   	0 	0 	0 	13
YB+1_S10   	0 	0 	1 	0 	77
YB+1_S11   	0 	0 	0 	0
YB+1_S12   	0 	0 	0 	0
YB+1_S1   	0 	0 	0 	11
YB+1_S2   	0 	1 	0 	3
YB+1_S3   	0 	0 	0 	1255
YB+1_S4   	0 	0 	0 	0 	0
YB+1_S5   	0 	0 	0 	12158
YB+1_S6   	0 	0 	0 	-25786
YB+1_S7   	0 	0 	0 	3011
YB+1_S8   	0 	0 	0 	1
YB+1_S9   	0 	0 	0 	0
YB+1_S10   	0 	0 	1 	0 	0
YB+1_S11   	0 	0 	0 	0
YB+1_S12   	0 	0 	0 	0
CH= 2 MOD= 70 BIAS= 22
YB+1_S1   	0 	0 	0 	4
YB+1_S2   	0 	0 	0 	0
YB+1_S3   	0 	0 	0 	0
YB+1_S4   	0 	0 	0 	0 	0
YB+1_S5   	0 	0 	0 	0
YB+1_S6   	0 	0 	1 	0
YB+1_S7   	0 	0 	0 	0
YB+1_S8   	0 	0 	0 	0
YB+1_S9   	0 	0 	0 	3
YB+1_S10   	0 	0 	0 	0 	69
YB+1_S11   	0 	0 	0 	5
YB+1_S12   	0 	0 	0 	0
YB+1_S1   	0 	0 	0 	0
YB+1_S2   	0 	0 	0 	0
YB+1_S3   	0 	0 	0 	0
YB+1_S4   	0 	0 	0 	0 	0
YB+1_S5   	0 	0 	0 	44
YB+1_S6   	0 	0 	0 	8
YB+1_S7   	0 	0 	0 	-1413
YB+1_S8   	0 	0 	0 	0
YB+1_S9   	0 	0 	0 	0
YB+1_S10   	0 	0 	20 	0 	0
YB+1_S11   	0 	0 	0 	0
YB+1_S12   	0 	0 	0 	0
CH= 2 MOD= 70 BIAS= 26
YB+1_S1   	0 	0 	0 	2
YB+1_S2   	0 	0 	0 	0
YB+1_S3   	0 	0 	0 	0
YB+1_S4   	0 	3 	0 	0 	0
YB+1_S5   	0 	0 	0 	0
YB+1_S6   	0 	0 	1 	0
YB+1_S7   	0 	0 	0 	0
YB+1_S8   	1334 	0 	0 	0
YB+1_S9   	1 	0 	0 	6
YB+1_S10   	0 	0 	0 	0 	71
YB+1_S11   	0 	0 	0 	5
YB+1_S12   	0 	0 	0 	0
YB+1_S1   	0 	0 	0 	0
YB+1_S2   	0 	0 	0 	0
YB+1_S3   	0 	0 	272 	0
YB+1_S4   	0 	0 	0 	0 	0
YB+1_S5   	0 	0 	0 	0
YB+1_S6   	0 	0 	0 	0
YB+1_S7   	0 	0 	0 	0
YB+1_S8   	0 	0 	0 	0
YB+1_S9   	0 	0 	0 	0
YB+1_S10   	0 	0 	33 	0 	0
YB+1_S11   	0 	0 	0 	0
YB+1_S12   	0 	0 	0 	0
CH= 2 MOD= 70 BIAS= 30
YB+1_S1   	0 	0 	0 	2
YB+1_S2   	0 	0 	0 	0
YB+1_S3   	1 	0 	0 	0
YB+1_S4   	0 	4 	0 	0 	0
YB+1_S5   	0 	0 	0 	0
YB+1_S6   	0 	0 	0 	0
YB+1_S7   	0 	0 	0 	0
YB+1_S8   	859 	0 	1 	0
YB+1_S9   	0 	0 	0 	5
YB+1_S10   	0 	0 	0 	0 	68
YB+1_S11   	0 	0 	0 	67
YB+1_S12   	0 	0 	0 	0
YB+1_S1   	0 	0 	0 	0
YB+1_S2   	0 	1 	0 	0
YB+1_S3   	0 	0 	0 	0
YB+1_S4   	0 	0 	0 	0 	0
YB+1_S5   	0 	0 	0 	0
YB+1_S6   	0 	0 	0 	0
YB+1_S7   	0 	0 	0 	0
YB+1_S8   	0 	0 	0 	0
YB+1_S9   	0 	0 	0 	1
YB+1_S10   	0 	0 	41 	0 	0
YB+1_S11   	0 	0 	0 	0
YB+1_S12   	0 	0 	0 	0
CH= 2 MOD= 70 BIAS= 34
YB+1_S1   	0 	0 	0 	4
YB+1_S2   	0 	0 	0 	0
YB+1_S3   	0 	0 	4 	0
YB+1_S4   	0 	1 	0 	0 	0
YB+1_S5   	0 	0 	0 	0
YB+1_S6   	0 	0 	12 	0
YB+1_S7   	0 	0 	0 	0
YB+1_S8   	7242 	0 	0 	0
YB+1_S9   	0 	0 	0 	10
YB+1_S10   	0 	0 	0 	0 	84
YB+1_S11   	0 	0 	0 	361
YB+1_S12   	0 	0 	0 	1
YB+1_S1   	0 	0 	0 	0
YB+1_S2   	0 	0 	1 	0
YB+1_S3   	0 	0 	0 	0
YB+1_S4   	0 	0 	0 	0 	0
YB+1_S5   	0 	0 	0 	0
YB+1_S6   	0 	0 	0 	0
YB+1_S7   	0 	0 	0 	0
YB+1_S8   	0 	0 	0 	0
YB+1_S9   	0 	0 	0 	0
YB+1_S10   	0 	0 	38 	0 	0
YB+1_S11   	0 	0 	0 	0
YB+1_S12   	0 	0 	0 	0
CH= 2 MOD= 70 BIAS= 38
YB+1_S1   	0 	0 	0 	1
YB+1_S2   	0 	0 	0 	0
YB+1_S3   	0 	0 	0 	0
YB+1_S4   	0 	1 	0 	0 	0
YB+1_S5   	0 	0 	0 	0
YB+1_S6   	0 	0 	0 	0
YB+1_S7   	0 	0 	0 	0
YB+1_S8   	59641 	0 	0 	0
YB+1_S9   	0 	0 	0 	3
YB+1_S10   	0 	0 	0 	0 	77
YB+1_S11   	0 	1 	0 	-40300
YB+1_S12   	0 	0 	0 	0
YB+1_S1   	0 	0 	0 	0
YB+1_S2   	0 	1 	563 	0
YB+1_S3   	0 	0 	0 	0
YB+1_S4   	166 	0 	0 	0 	0
YB+1_S5   	0 	0 	0 	0
YB+1_S6   	0 	0 	0 	0
YB+1_S7   	0 	0 	0 	0
YB+1_S8   	0 	1 	0 	0
YB+1_S9   	0 	0 	0 	0
YB+1_S10   	0 	0 	45 	0 	0
YB+1_S11   	57 	0 	0 	0
YB+1_S12   	0 	0 	0 	0
CH= 2 MOD= 70 BIAS= 42
YB+1_S1   	0 	0 	0 	2
YB+1_S2   	0 	0 	0 	0
YB+1_S3   	0 	0 	0 	0
YB+1_S4   	0 	0 	0 	0 	0
YB+1_S5   	0 	0 	0 	0
YB+1_S6   	0 	0 	0 	0
YB+1_S7   	0 	0 	0 	0
YB+1_S8   	-6459 	1 	0 	0
YB+1_S9   	0 	0 	0 	8
YB+1_S10   	0 	0 	0 	0 	58
YB+1_S11   	0 	0 	117 	-38007
YB+1_S12   	0 	0 	0 	0
YB+1_S1   	0 	0 	0 	0
YB+1_S2   	0 	0 	-34536 	0
YB+1_S3   	0 	0 	2 	0
YB+1_S4   	959 	0 	0 	0 	0
YB+1_S5   	0 	0 	0 	0
YB+1_S6   	0 	0 	0 	0
YB+1_S7   	0 	0 	0 	0
YB+1_S8   	0 	140 	0 	0
YB+1_S9   	0 	0 	0 	0
YB+1_S10   	0 	0 	44 	0 	0
YB+1_S11   	408 	0 	0 	0
YB+1_S12   	0 	0 	0 	0
CH= 2 MOD= 70 BIAS= 46
YB+1_S1   	0 	0 	0 	0
YB+1_S2   	36 	31 	0 	0
YB+1_S3   	0 	0 	0 	0
YB+1_S4   	0 	3 	0 	0 	0
YB+1_S5   	2600 	0 	0 	0
YB+1_S6   	0 	0 	1 	0
YB+1_S7   	0 	0 	0 	2
YB+1_S8   	-10956 	0 	5 	0
YB+1_S9   	3 	0 	0 	9
YB+1_S10   	1 	0 	0 	0 	85
YB+1_S11   	0 	0 	1764 	54467
YB+1_S12   	0 	0 	0 	0
YB+1_S1   	0 	0 	0 	0
YB+1_S2   	2 	2 	-20714 	0
YB+1_S3   	0 	8 	7554 	0
YB+1_S4   	18615 	140 	0 	29 	0
YB+1_S5   	0 	0 	0 	0
YB+1_S6   	0 	0 	0 	0
YB+1_S7   	0 	0 	0 	0
YB+1_S8   	0 	21 	0 	0
YB+1_S9   	0 	0 	0 	0
YB+1_S10   	0 	0 	54 	0 	0
YB+1_S11   	12442 	0 	0 	0
YB+1_S12   	0 	0 	0 	0
CH= 2 MOD= 80 BIAS= 18
YB+1_S1   	0 	0 	0 	1
YB+1_S2   	0 	0 	0 	0
YB+1_S3   	0 	0 	0 	0
YB+1_S4   	0 	1 	0 	0 	0
YB+1_S5   	0 	0 	0 	0
YB+1_S6   	0 	0 	0 	0
YB+1_S7   	0 	0 	0 	0
YB+1_S8   	0 	0 	0 	0
YB+1_S9   	0 	0 	0 	13
YB+1_S10   	0 	0 	10 	0 	64
YB+1_S11   	0 	0 	0 	0
YB+1_S12   	0 	0 	0 	0
YB+1_S1   	0 	0 	0 	2
YB+1_S2   	0 	0 	0 	1
YB+1_S3   	0 	0 	0 	379
YB+1_S4   	0 	0 	0 	0 	0
YB+1_S5   	0 	0 	0 	5249
YB+1_S6   	0 	0 	0 	5754
YB+1_S7   	0 	0 	0 	-21045
YB+1_S8   	0 	0 	0 	3
YB+1_S9   	0 	0 	0 	0
YB+1_S10   	0 	0 	2 	0 	0
YB+1_S11   	0 	0 	0 	0
YB+1_S12   	0 	0 	0 	0
CH= 2 MOD= 80 BIAS= 22
YB+1_S1   	0 	0 	0 	1
YB+1_S2   	0 	0 	0 	0
YB+1_S3   	0 	0 	0 	0
YB+1_S4   	0 	2 	0 	0 	0
YB+1_S5   	0 	0 	0 	0
YB+1_S6   	0 	0 	0 	0
YB+1_S7   	0 	0 	0 	0
YB+1_S8   	0 	0 	0 	0
YB+1_S9   	0 	0 	0 	8
YB+1_S10   	0 	0 	0 	0 	59
YB+1_S11   	0 	0 	0 	47
YB+1_S12   	0 	0 	0 	0
YB+1_S1   	0 	0 	0 	0
YB+1_S2   	0 	0 	0 	0
YB+1_S3   	0 	0 	0 	0
YB+1_S4   	0 	0 	0 	0 	0
YB+1_S5   	0 	0 	0 	79
YB+1_S6   	0 	0 	0 	12
YB+1_S7   	0 	0 	0 	-19793
YB+1_S8   	0 	0 	0 	0
YB+1_S9   	0 	0 	0 	0
YB+1_S10   	0 	0 	18 	0 	0
YB+1_S11   	0 	0 	0 	0
YB+1_S12   	0 	0 	0 	0
CH= 2 MOD= 80 BIAS= 26
YB+1_S1   	0 	0 	0 	3
YB+1_S2   	0 	0 	0 	0
YB+1_S3   	0 	0 	0 	0
YB+1_S4   	0 	0 	0 	0 	0
YB+1_S5   	0 	0 	0 	0
YB+1_S6   	0 	0 	0 	0
YB+1_S7   	0 	0 	0 	0
YB+1_S8   	7628 	0 	0 	0
YB+1_S9   	0 	0 	0 	11
YB+1_S10   	0 	0 	0 	0 	84
YB+1_S11   	0 	0 	0 	213
YB+1_S12   	0 	0 	0 	0
YB+1_S1   	0 	0 	0 	0
YB+1_S2   	0 	0 	0 	0
YB+1_S3   	0 	0 	8394 	0
YB+1_S4   	0 	0 	0 	0 	0
YB+1_S5   	0 	0 	0 	0
YB+1_S6   	0 	0 	0 	0
YB+1_S7   	0 	0 	0 	0
YB+1_S8   	0 	0 	0 	0
YB+1_S9   	0 	0 	0 	0
YB+1_S10   	0 	0 	24 	0 	0
YB+1_S11   	0 	0 	0 	0
YB+1_S12   	0 	0 	0 	0
CH= 2 MOD= 80 BIAS= 30
YB+1_S1   	0 	0 	0 	2
YB+1_S2   	0 	0 	0 	0
YB+1_S3   	0 	0 	6 	0
YB+1_S4   	0 	2 	0 	0 	0
YB+1_S5   	0 	0 	0 	0
YB+1_S6   	0 	0 	1 	0
YB+1_S7   	0 	2 	0 	0
YB+1_S8   	-52448 	0 	0 	0
YB+1_S9   	0 	0 	0 	9
YB+1_S10   	0 	0 	7 	0 	71
YB+1_S11   	0 	0 	0 	1483
YB+1_S12   	0 	0 	0 	0
YB+1_S1   	0 	0 	0 	0
YB+1_S2   	0 	0 	0 	0
YB+1_S3   	0 	0 	0 	0
YB+1_S4   	0 	0 	0 	0 	0
YB+1_S5   	0 	0 	0 	0
YB+1_S6   	0 	0 	0 	0
YB+1_S7   	0 	0 	0 	0
YB+1_S8   	0 	0 	0 	0
YB+1_S9   	0 	0 	0 	0
YB+1_S10   	0 	0 	49 	0 	0
YB+1_S11   	0 	0 	0 	0
YB+1_S12   	0 	0 	0 	0
CH= 2 MOD= 80 BIAS= 34
YB+1_S1   	0 	0 	0 	2
YB+1_S2   	0 	0 	0 	0
YB+1_S3   	0 	0 	103 	0
YB+1_S4   	0 	1 	0 	0 	0
YB+1_S5   	3 	0 	0 	0
YB+1_S6   	0 	0 	21 	0
YB+1_S7   	0 	0 	0 	0
YB+1_S8   	-14237 	0 	0 	0
YB+1_S9   	0 	0 	0 	8
YB+1_S10   	0 	0 	0 	0 	76
YB+1_S11   	0 	0 	0 	9343
YB+1_S12   	0 	0 	0 	0
YB+1_S1   	0 	0 	0 	0
YB+1_S2   	1 	0 	41 	0
YB+1_S3   	0 	0 	3 	0
YB+1_S4   	2 	0 	0 	0 	0
YB+1_S5   	0 	0 	0 	0
YB+1_S6   	0 	0 	0 	0
YB+1_S7   	0 	0 	0 	0
YB+1_S8   	0 	0 	0 	0
YB+1_S9   	0 	0 	0 	0
YB+1_S10   	0 	0 	23 	0 	0
YB+1_S11   	0 	0 	0 	0
YB+1_S12   	0 	0 	0 	0
CH= 2 MOD= 80 BIAS= 38
YB+1_S1   	0 	0 	0 	1
YB+1_S2   	0 	0 	0 	0
YB+1_S3   	0 	0 	9 	0
YB+1_S4   	0 	0 	0 	0 	0
YB+1_S5   	0 	0 	0 	0
YB+1_S6   	0 	0 	0 	0
YB+1_S7   	0 	0 	0 	0
YB+1_S8   	-42763 	0 	0 	0
YB+1_S9   	2 	0 	0 	9
YB+1_S10   	0 	0 	0 	0 	65
YB+1_S11   	0 	0 	6 	-811
YB+1_S12   	0 	0 	0 	0
YB+1_S1   	0 	0 	0 	0
YB+1_S2   	0 	0 	7263 	0
YB+1_S3   	0 	0 	93 	0
YB+1_S4   	989 	0 	0 	0 	0
YB+1_S5   	0 	0 	0 	0
YB+1_S6   	0 	0 	0 	0
YB+1_S7   	0 	0 	0 	0
YB+1_S8   	0 	4 	0 	0
YB+1_S9   	0 	0 	0 	0
YB+1_S10   	0 	0 	47 	0 	0
YB+1_S11   	2437 	0 	0 	0
YB+1_S12   	0 	0 	0 	0
CH= 2 MOD= 80 BIAS= 42
YB+1_S1   	0 	0 	0 	0
YB+1_S2   	0 	3 	0 	0
YB+1_S3   	0 	0 	49 	0
YB+1_S4   	0 	0 	0 	0 	0
YB+1_S5   	1 	1 	0 	0
YB+1_S6   	0 	0 	1 	0
YB+1_S7   	0 	0 	484 	0
YB+1_S8   	-9844 	19 	47 	0
YB+1_S9   	6 	0 	0 	11
YB+1_S10   	4 	0 	0 	0 	71
YB+1_S11   	0 	0 	1199 	-19606
YB+1_S12   	0 	0 	0 	0
YB+1_S1   	0 	0 	0 	0
YB+1_S2   	14 	0 	-9867 	0
YB+1_S3   	0 	0 	383 	0
YB+1_S4   	5095 	1 	0 	1 	0
YB+1_S5   	0 	0 	0 	0
YB+1_S6   	0 	0 	0 	0
YB+1_S7   	0 	0 	0 	0
YB+1_S8   	0 	2037 	0 	0
YB+1_S9   	0 	0 	0 	0
YB+1_S10   	0 	0 	40 	0 	0
YB+1_S11   	-46842 	0 	0 	0
YB+1_S12   	0 	0 	0 	0
CH= 2 MOD= 80 BIAS= 46
YB+1_S1   	0 	0 	0 	14
YB+1_S2   	241 	4066 	0 	0
YB+1_S3   	23 	0 	49 	0
YB+1_S4   	0 	4 	0 	0 	0
YB+1_S5   	-28109 	1 	0 	0
YB+1_S6   	0 	0 	14 	0
YB+1_S7   	0 	26 	0 	5
YB+1_S8   	61361 	10 	62 	1
YB+1_S9   	187 	0 	0 	19
YB+1_S10   	41 	0 	0 	0 	76
YB+1_S11   	0 	0 	8667 	-55633
YB+1_S12   	0 	0 	0 	0
YB+1_S1   	0 	0 	0 	0
YB+1_S2   	4 	0 	-1760 	0
YB+1_S3   	0 	49 	-20182 	0
YB+1_S4   	22225 	1043 	13 	374 	0
YB+1_S5   	0 	0 	0 	0
YB+1_S6   	0 	24 	0 	0
YB+1_S7   	0 	0 	50 	0
YB+1_S8   	0 	123 	0 	0
YB+1_S9   	0 	1 	0 	0
YB+1_S10   	0 	0 	44 	0 	0
YB+1_S11   	-41315 	0 	0 	0
YB+1_S12   	0 	0 	0 	0
CH= 2 MOD= 90 BIAS= 18
YB+1_S1   	0 	0 	0 	4
YB+1_S2   	0 	0 	0 	0
YB+1_S3   	0 	0 	0 	0
YB+1_S4   	0 	0 	0 	0 	0
YB+1_S5   	0 	0 	0 	0
YB+1_S6   	0 	0 	0 	0
YB+1_S7   	0 	0 	0 	0
YB+1_S8   	0 	0 	0 	0
YB+1_S9   	0 	0 	0 	9
YB+1_S10   	0 	0 	0 	0 	62
YB+1_S11   	0 	0 	0 	0
YB+1_S12   	0 	0 	0 	0
YB+1_S1   	0 	0 	0 	0
YB+1_S2   	0 	0 	0 	0
YB+1_S3   	0 	0 	0 	87
YB+1_S4   	0 	0 	0 	0 	0
YB+1_S5   	0 	0 	0 	-29610
YB+1_S6   	0 	0 	0 	1056
YB+1_S7   	0 	0 	0 	-8455
YB+1_S8   	0 	0 	0 	4
YB+1_S9   	0 	0 	0 	0
YB+1_S10   	0 	0 	0 	0 	0
YB+1_S11   	0 	0 	0 	0
YB+1_S12   	0 	0 	0 	0
CH= 2 MOD= 90 BIAS= 22
YB+1_S1   	0 	0 	0 	1
YB+1_S2   	0 	0 	0 	0
YB+1_S3   	0 	0 	0 	0
YB+1_S4   	0 	0 	0 	0 	0
YB+1_S5   	0 	0 	0 	0
YB+1_S6   	0 	0 	0 	0
YB+1_S7   	0 	0 	0 	0
YB+1_S8   	4 	0 	0 	0
YB+1_S9   	0 	0 	0 	10
YB+1_S10   	0 	0 	0 	0 	94
YB+1_S11   	0 	0 	0 	34
YB+1_S12   	0 	0 	0 	0
YB+1_S1   	0 	0 	0 	0
YB+1_S2   	0 	0 	0 	0
YB+1_S3   	0 	0 	0 	0
YB+1_S4   	0 	0 	0 	0 	0
YB+1_S5   	0 	0 	0 	60
YB+1_S6   	0 	1 	0 	6
YB+1_S7   	0 	0 	0 	12364
YB+1_S8   	0 	0 	0 	0
YB+1_S9   	0 	0 	0 	0
YB+1_S10   	0 	0 	8 	0 	0
YB+1_S11   	0 	0 	0 	0
YB+1_S12   	0 	0 	0 	0
CH= 2 MOD= 90 BIAS= 26
YB+1_S1   	0 	0 	0 	2
YB+1_S2   	0 	0 	0 	0
YB+1_S3   	0 	0 	1 	0
YB+1_S4   	0 	1 	0 	0 	0
YB+1_S5   	0 	0 	0 	0
YB+1_S6   	0 	0 	1 	0
YB+1_S7   	0 	0 	0 	0
YB+1_S8   	49657 	0 	0 	0
YB+1_S9   	0 	0 	0 	9
YB+1_S10   	0 	0 	0 	0 	93
YB+1_S11   	0 	0 	0 	7943
YB+1_S12   	0 	0 	0 	0
YB+1_S1   	0 	0 	0 	0
YB+1_S2   	0 	0 	0 	0
YB+1_S3   	0 	0 	7063 	0
YB+1_S4   	2 	0 	1 	0 	0
YB+1_S5   	0 	0 	0 	0
YB+1_S6   	0 	0 	0 	0
YB+1_S7   	0 	0 	0 	1
YB+1_S8   	0 	0 	0 	0
YB+1_S9   	0 	0 	0 	1
YB+1_S10   	0 	0 	30 	0 	0
YB+1_S11   	0 	0 	0 	0
YB+1_S12   	0 	0 	0 	0
CH= 2 MOD= 90 BIAS= 30
YB+1_S1   	0 	0 	0 	1
YB+1_S2   	0 	0 	0 	0
YB+1_S3   	3 	0 	199 	0
YB+1_S4   	0 	2 	0 	0 	0
YB+1_S5   	0 	0 	0 	0
YB+1_S6   	0 	0 	3 	0
YB+1_S7   	0 	110 	0 	0
YB+1_S8   	-15190 	0 	0 	0
YB+1_S9   	5 	0 	0 	8
YB+1_S10   	1 	0 	0 	0 	56
YB+1_S11   	0 	0 	0 	-28982
YB+1_S12   	0 	0 	0 	0
YB+1_S1   	0 	0 	0 	0
YB+1_S2   	1 	0 	2 	0
YB+1_S3   	0 	0 	27 	0
YB+1_S4   	1 	0 	0 	0 	0
YB+1_S5   	0 	0 	0 	0
YB+1_S6   	0 	0 	0 	0
YB+1_S7   	0 	0 	0 	0
YB+1_S8   	0 	0 	0 	0
YB+1_S9   	0 	0 	0 	0
YB+1_S10   	0 	0 	42 	0 	0
YB+1_S11   	0 	0 	0 	0
YB+1_S12   	0 	0 	0 	0
CH= 2 MOD= 90 BIAS= 34
YB+1_S1   	0 	0 	0 	1
YB+1_S2   	4 	1 	0 	0
YB+1_S3   	3 	0 	1757 	0
YB+1_S4   	0 	4 	0 	0 	0
YB+1_S5   	238 	0 	0 	0
YB+1_S6   	0 	0 	36 	0
YB+1_S7   	0 	0 	0 	0
YB+1_S8   	-17522 	0 	0 	0
YB+1_S9   	5 	0 	0 	9
YB+1_S10   	0 	0 	24 	0 	57
YB+1_S11   	0 	0 	0 	7254
YB+1_S12   	0 	0 	0 	0
YB+1_S1   	0 	0 	0 	0
YB+1_S2   	3 	0 	7539 	0
YB+1_S3   	0 	0 	1421 	0
YB+1_S4   	12 	0 	0 	0 	0
YB+1_S5   	0 	0 	0 	0
YB+1_S6   	0 	0 	0 	0
YB+1_S7   	0 	0 	0 	0
YB+1_S8   	0 	5 	0 	0
YB+1_S9   	0 	5 	0 	0
YB+1_S10   	0 	0 	40 	0 	0
YB+1_S11   	9 	0 	0 	0
YB+1_S12   	0 	0 	0 	0
CH= 2 MOD= 90 BIAS= 38
YB+1_S1   	3 	0 	0 	1
YB+1_S2   	0 	84 	0 	0
YB+1_S3   	5 	0 	713 	0
YB+1_S4   	0 	0 	1 	0 	0
YB+1_S5   	129 	0 	0 	0
YB+1_S6   	0 	0 	3 	0
YB+1_S7   	0 	328 	0 	0
YB+1_S8   	-4300 	0 	0 	0
YB+1_S9   	35 	0 	0 	15
YB+1_S10   	13 	0 	0 	0 	65
YB+1_S11   	0 	0 	61 	21643
YB+1_S12   	0 	0 	0 	0
YB+1_S1   	0 	0 	0 	0
YB+1_S2   	10 	0 	46397 	0
YB+1_S3   	2 	0 	-49260 	0
YB+1_S4   	9355 	0 	0 	0 	0
YB+1_S5   	0 	0 	0 	0
YB+1_S6   	0 	0 	0 	0
YB+1_S7   	0 	0 	37 	0
YB+1_S8   	0 	47 	0 	0
YB+1_S9   	0 	13 	0 	0
YB+1_S10   	0 	0 	36 	0 	0
YB+1_S11   	55 	0 	0 	0
YB+1_S12   	1 	0 	0 	0
CH= 2 MOD= 90 BIAS= 42
YB+1_S1   	0 	0 	0 	7
YB+1_S2   	9 	1254 	1 	1
YB+1_S3   	0 	0 	-49446 	0
YB+1_S4   	0 	0 	3 	0 	0
YB+1_S5   	2030 	7 	0 	0
YB+1_S6   	0 	0 	1 	0
YB+1_S7   	0 	136 	-49121 	0
YB+1_S8   	-41419 	22 	2500 	0
YB+1_S9   	1598 	0 	0 	8
YB+1_S10   	897 	0 	0 	0 	66
YB+1_S11   	0 	0 	6791 	35761
YB+1_S12   	0 	0 	0 	0
YB+1_S1   	0 	0 	0 	0
YB+1_S2   	138 	0 	-8587 	0
YB+1_S3   	3 	0 	-16177 	0
YB+1_S4   	36819 	96 	1 	26 	0
YB+1_S5   	0 	0 	0 	0
YB+1_S6   	0 	0 	0 	0
YB+1_S7   	0 	0 	189 	0
YB+1_S8   	0 	-25486 	4 	0
YB+1_S9   	0 	2 	3 	0
YB+1_S10   	0 	1 	51 	0 	0
YB+1_S11   	14407 	0 	0 	0
YB+1_S12   	6 	0 	0 	0
CH= 2 MOD= 90 BIAS= 46
YB+1_S1   	0 	0 	0 	613
YB+1_S2   	3813 	33248 	0 	17
YB+1_S3   	529 	0 	17839 	0
YB+1_S4   	0 	1 	0 	0 	0
YB+1_S5   	-54745 	21 	1 	0
YB+1_S6   	59 	0 	40 	0
YB+1_S7   	1 	4531 	17 	68
YB+1_S8   	-7071 	331 	2058 	9
YB+1_S9   	16021 	0 	0 	38
YB+1_S10   	1787 	1 	0 	0 	77
YB+1_S11   	0 	0 	-8647 	12103
YB+1_S12   	0 	0 	0 	0
YB+1_S1   	0 	115 	0 	0
YB+1_S2   	88 	0 	-15279 	0
YB+1_S3   	176 	603 	2728 	0
YB+1_S4   	36253 	14257 	1889 	8290 	0
YB+1_S5   	6 	0 	0 	0
YB+1_S6   	20 	8911 	36 	0
YB+1_S7   	0 	0 	7780 	0
YB+1_S8   	2 	1496 	15 	0
YB+1_S9   	0 	61 	3 	0
YB+1_S10   	0 	0 	43 	0 	0
YB+1_S11   	27179 	0 	0 	0
YB+1_S12   	22 	0 	0 	0
CH= 2 MOD= 100 BIAS= 18
YB+1_S1   	0 	0 	0 	3
YB+1_S2   	0 	0 	0 	0
YB+1_S3   	0 	0 	0 	0
YB+1_S4   	0 	0 	0 	0 	0
YB+1_S5   	0 	0 	0 	0
YB+1_S6   	0 	0 	0 	0
YB+1_S7   	0 	0 	0 	0
YB+1_S8   	0 	0 	0 	0
YB+1_S9   	0 	0 	0 	7
YB+1_S10   	0 	0 	2 	0 	54
YB+1_S11   	0 	0 	0 	0
YB+1_S12   	0 	0 	0 	1
YB+1_S1   	0 	0 	0 	0
YB+1_S2   	0 	0 	0 	0
YB+1_S3   	0 	0 	0 	28
YB+1_S4   	0 	0 	0 	0 	0
YB+1_S5   	0 	0 	0 	22258
YB+1_S6   	0 	1 	0 	649
YB+1_S7   	0 	0 	0 	21212
YB+1_S8   	0 	0 	0 	4
YB+1_S9   	0 	0 	0 	0
YB+1_S10   	0 	0 	0 	0 	0
YB+1_S11   	0 	0 	0 	0
YB+1_S12   	0 	0 	0 	0
CH= 2 MOD= 100 BIAS= 22
YB+1_S1   	0 	0 	0 	4
YB+1_S2   	0 	0 	0 	0
YB+1_S3   	0 	0 	0 	0
YB+1_S4   	0 	1 	0 	0 	0
YB+1_S5   	0 	0 	0 	0
YB+1_S6   	0 	0 	0 	0
YB+1_S7   	0 	0 	0 	0
YB+1_S8   	499 	0 	0 	0
YB+1_S9   	0 	0 	0 	6
YB+1_S10   	0 	0 	0 	0 	59
YB+1_S11   	0 	0 	0 	3
YB+1_S12   	0 	0 	0 	0
YB+1_S1   	0 	0 	0 	0
YB+1_S2   	0 	0 	0 	0
YB+1_S3   	0 	0 	0 	0
YB+1_S4   	0 	0 	0 	0 	0
YB+1_S5   	0 	0 	0 	51
YB+1_S6   	0 	1 	0 	23
YB+1_S7   	0 	0 	0 	10652
YB+1_S8   	0 	1 	0 	0
YB+1_S9   	0 	0 	0 	0
YB+1_S10   	0 	0 	9 	0 	0
YB+1_S11   	0 	0 	0 	0
YB+1_S12   	0 	0 	0 	0
CH= 2 MOD= 100 BIAS= 26
YB+1_S1   	0 	0 	0 	1
YB+1_S2   	0 	0 	0 	0
YB+1_S3   	0 	0 	266 	0
YB+1_S4   	0 	0 	0 	0 	0
YB+1_S5   	0 	0 	0 	0
YB+1_S6   	0 	0 	2 	1
YB+1_S7   	0 	3 	0 	0
YB+1_S8   	16470 	0 	0 	0
YB+1_S9   	0 	0 	0 	13
YB+1_S10   	5 	0 	0 	0 	58
YB+1_S11   	0 	0 	0 	58057
YB+1_S12   	0 	0 	0 	0
YB+1_S1   	0 	0 	0 	0
YB+1_S2   	0 	0 	0 	0
YB+1_S3   	0 	0 	-10165 	0
YB+1_S4   	14 	0 	6 	0 	0
YB+1_S5   	0 	0 	0 	0
YB+1_S6   	0 	1 	0 	0
YB+1_S7   	0 	0 	0 	2
YB+1_S8   	0 	0 	0 	0
YB+1_S9   	0 	0 	0 	0
YB+1_S10   	0 	0 	22 	0 	0
YB+1_S11   	0 	0 	0 	0
YB+1_S12   	0 	0 	0 	0
CH= 2 MOD= 100 BIAS= 30
YB+1_S1   	0 	0 	0 	2
YB+1_S2   	1 	1 	0 	0
YB+1_S3   	23 	0 	2712 	0
YB+1_S4   	0 	1 	0 	0 	0
YB+1_S5   	2 	0 	0 	0
YB+1_S6   	0 	0 	3 	0
YB+1_S7   	0 	1018 	0 	0
YB+1_S8   	30778 	0 	0 	0
YB+1_S9   	1129 	0 	0 	9
YB+1_S10   	56 	17 	0 	0 	58
YB+1_S11   	0 	0 	0 	435
YB+1_S12   	0 	0 	0 	0
YB+1_S1   	0 	0 	0 	0
YB+1_S2   	15 	0 	78 	0
YB+1_S3   	0 	0 	4159 	0
YB+1_S4   	17 	1 	0 	0 	0
YB+1_S5   	0 	0 	0 	0
YB+1_S6   	0 	0 	0 	0
YB+1_S7   	0 	0 	5 	0
YB+1_S8   	0 	3 	0 	0
YB+1_S9   	0 	55 	0 	0
YB+1_S10   	0 	0 	31 	0 	0
YB+1_S11   	1 	0 	0 	0
YB+1_S12   	0 	0 	0 	0
CH= 2 MOD= 100 BIAS= 34
YB+1_S1   	0 	0 	0 	3
YB+1_S2   	22 	390 	0 	0
YB+1_S3   	132 	0 	19796 	0
YB+1_S4   	0 	2 	0 	0 	0
YB+1_S5   	4259 	0 	0 	0
YB+1_S6   	1 	0 	54 	0
YB+1_S7   	0 	31 	0 	0
YB+1_S8   	37716 	0 	0 	1
YB+1_S9   	659 	0 	0 	11
YB+1_S10   	5 	0 	0 	0 	66
YB+1_S11   	0 	0 	6 	10494
YB+1_S12   	0 	0 	0 	0
YB+1_S1   	0 	0 	0 	0
YB+1_S2   	39 	0 	29626 	0
YB+1_S3   	0 	0 	-34044 	0
YB+1_S4   	197 	0 	0 	0 	0
YB+1_S5   	0 	0 	0 	0
YB+1_S6   	2 	0 	0 	0
YB+1_S7   	0 	0 	13 	0
YB+1_S8   	0 	584 	0 	0
YB+1_S9   	0 	362 	0 	0
YB+1_S10   	0 	5 	28 	0 	0
YB+1_S11   	79 	0 	0 	0
YB+1_S12   	39 	0 	0 	0
CH= 2 MOD= 100 BIAS= 38
YB+1_S1   	243 	0 	0 	17
YB+1_S2   	27 	8873 	3 	4
YB+1_S3   	100 	0 	19586 	0
YB+1_S4   	0 	1 	103 	0 	0
YB+1_S5   	7384 	1 	15 	0
YB+1_S6   	0 	0 	2 	2
YB+1_S7   	11 	35280 	1 	0
YB+1_S8   	25173 	25 	0 	0
YB+1_S9   	1957 	0 	0 	19
YB+1_S10   	998 	7 	0 	0 	57
YB+1_S11   	0 	0 	1111 	15781
YB+1_S12   	0 	0 	0 	0
YB+1_S1   	0 	0 	0 	0
YB+1_S2   	128 	0 	-30314 	0
YB+1_S3   	190 	0 	-4589 	0
YB+1_S4   	42431 	199 	2 	1 	0
YB+1_S5   	0 	0 	0 	0
YB+1_S6   	0 	2 	0 	0
YB+1_S7   	0 	0 	4381 	0
YB+1_S8   	0 	1292 	0 	0
YB+1_S9   	0 	1090 	2 	0
YB+1_S10   	0 	6 	42 	0 	0
YB+1_S11   	37354 	0 	0 	0
YB+1_S12   	17 	0 	0 	0
CH= 2 MOD= 100 BIAS= 42
YB+1_S1   	0 	0 	0 	99
YB+1_S2   	797 	-16854 	19 	56
YB+1_S3   	20 	2 	-10293 	0
YB+1_S4   	19 	0 	121 	0 	0
YB+1_S5   	30947 	86 	0 	0
YB+1_S6   	283 	0 	2 	1
YB+1_S7   	0 	-20513 	27338 	0
YB+1_S8   	42217 	390 	-24815 	20
YB+1_S9   	-3690 	0 	0 	40
YB+1_S10   	28112 	1 	34 	0 	50
YB+1_S11   	0 	0 	-13597 	12443
YB+1_S12   	0 	0 	0 	0
YB+1_S1   	0 	0 	0 	0
YB+1_S2   	574 	0 	2436 	0
YB+1_S3   	407 	0 	7734 	0
YB+1_S4   	2425 	3519 	150 	454 	0
YB+1_S5   	6 	0 	0 	0
YB+1_S6   	0 	0 	119 	0
YB+1_S7   	0 	0 	-49579 	0
YB+1_S8   	0 	-27363 	162 	0
YB+1_S9   	0 	544 	85 	0
YB+1_S10   	0 	54 	38 	0 	0
YB+1_S11   	-26153 	0 	0 	0
YB+1_S12   	380 	0 	0 	0
CH= 2 MOD= 100 BIAS= 46
YB+1_S1   	0 	0 	0 	11145
YB+1_S2   	35193 	14954 	190 	2013
YB+1_S3   	7965 	3 	-34985 	1
YB+1_S4   	9 	2 	46 	1 	0
YB+1_S5   	23381 	380 	52 	0
YB+1_S6   	5394 	0 	222 	13
YB+1_S7   	48 	25915 	2657 	1721
YB+1_S8   	-7499 	6480 	-34285 	175
YB+1_S9   	-41418 	0 	0 	2300
YB+1_S10   	-26195 	147 	152 	0 	53
YB+1_S11   	3 	0 	-54364 	-3834
YB+1_S12   	0 	14 	0 	0
YB+1_S1   	0 	1252 	0 	0
YB+1_S2   	1355 	0 	-53502 	0
YB+1_S3   	7454 	1058 	-18494 	0
YB+1_S4   	13435 	36064 	-21429 	-4751 	0
YB+1_S5   	118 	0 	0 	0
YB+1_S6   	98 	29977 	4723 	0
YB+1_S7   	0 	0 	35224 	0
YB+1_S8   	8 	-46747 	416 	0
YB+1_S9   	1 	6300 	80 	0
YB+1_S10   	0 	187 	52 	0 	0
YB+1_S11   	46711 	0 	0 	0
YB+1_S12   	1179 	0 	0 	0
CH= 2 MOD= 110 BIAS= 18
YB+1_S1   	0 	0 	0 	2
YB+1_S2   	0 	0 	0 	0
YB+1_S3   	0 	0 	0 	0
YB+1_S4   	0 	1 	0 	0 	0
YB+1_S5   	0 	0 	0 	0
YB+1_S6   	0 	0 	0 	0
YB+1_S7   	0 	0 	0 	0
YB+1_S8   	0 	0 	0 	0
YB+1_S9   	0 	0 	0 	6
YB+1_S10   	0 	0 	0 	0 	54
YB+1_S11   	0 	0 	0 	0
YB+1_S12   	0 	0 	0 	0
YB+1_S1   	0 	0 	0 	0
YB+1_S2   	0 	0 	0 	0
YB+1_S3   	0 	0 	0 	13
YB+1_S4   	0 	0 	0 	0 	0
YB+1_S5   	0 	0 	0 	13584
YB+1_S6   	0 	0 	0 	451
YB+1_S7   	0 	0 	0 	5191
YB+1_S8   	0 	0 	0 	3
YB+1_S9   	0 	0 	0 	0
YB+1_S10   	0 	0 	1 	0 	0
YB+1_S11   	0 	0 	0 	0
YB+1_S12   	0 	0 	0 	0
CH= 2 MOD= 110 BIAS= 22
YB+1_S1   	0 	0 	0 	4
YB+1_S2   	0 	0 	0 	0
YB+1_S3   	0 	0 	0 	0
YB+1_S4   	0 	0 	0 	0 	0
YB+1_S5   	0 	0 	0 	0
YB+1_S6   	0 	0 	0 	0
YB+1_S7   	0 	0 	0 	0
YB+1_S8   	4800 	0 	0 	0
YB+1_S9   	0 	0 	0 	8
YB+1_S10   	0 	0 	0 	0 	42
YB+1_S11   	0 	0 	0 	0
YB+1_S12   	0 	0 	0 	0
YB+1_S1   	0 	0 	0 	0
YB+1_S2   	0 	0 	0 	0
YB+1_S3   	0 	0 	0 	0
YB+1_S4   	0 	0 	0 	0 	0
YB+1_S5   	0 	0 	0 	76
YB+1_S6   	0 	0 	0 	15
YB+1_S7   	0 	0 	0 	-20279
YB+1_S8   	0 	8 	0 	0
YB+1_S9   	0 	0 	0 	1
YB+1_S10   	0 	0 	4 	0 	0
YB+1_S11   	0 	0 	0 	0
YB+1_S12   	0 	0 	0 	0
CH= 2 MOD= 110 BIAS= 26
YB+1_S1   	0 	0 	0 	2
YB+1_S2   	0 	0 	0 	0
YB+1_S3   	17 	0 	13142 	0
YB+1_S4   	0 	1 	0 	0 	0
YB+1_S5   	0 	0 	0 	0
YB+1_S6   	0 	0 	0 	240
YB+1_S7   	0 	179 	0 	0
YB+1_S8   	29549 	0 	0 	0
YB+1_S9   	0 	0 	0 	5
YB+1_S10   	3 	0 	0 	0 	54
YB+1_S11   	0 	0 	0 	26835
YB+1_S12   	0 	0 	0 	0
YB+1_S1   	0 	0 	0 	0
YB+1_S2   	12 	0 	3 	0
YB+1_S3   	0 	0 	-1434 	0
YB+1_S4   	59 	1 	0 	0 	0
YB+1_S5   	0 	0 	0 	0
YB+1_S6   	0 	1 	0 	0
YB+1_S7   	0 	0 	0 	4
YB+1_S8   	0 	0 	0 	0
YB+1_S9   	0 	0 	0 	0
YB+1_S10   	0 	0 	24 	0 	0
YB+1_S11   	0 	0 	0 	0
YB+1_S12   	0 	0 	0 	0
CH= 2 MOD= 110 BIAS= 30
YB+1_S1   	0 	0 	0 	4
YB+1_S2   	1 	121 	87 	1
YB+1_S3   	194 	0 	34527 	0
YB+1_S4   	0 	2 	0 	0 	0
YB+1_S5   	2572 	1 	0 	0
YB+1_S6   	0 	0 	5 	1
YB+1_S7   	0 	4334 	2 	0
YB+1_S8   	-16178 	0 	0 	2
YB+1_S9   	-36443 	0 	0 	8
YB+1_S10   	1427 	2141 	1 	0 	67
YB+1_S11   	0 	0 	4 	-9471
YB+1_S12   	0 	0 	0 	0
YB+1_S1   	0 	0 	0 	0
YB+1_S2   	141 	1 	3145 	0
YB+1_S3   	2 	0 	-3291 	0
YB+1_S4   	315 	544 	7 	0 	0
YB+1_S5   	0 	0 	0 	0
YB+1_S6   	5 	0 	0 	0
YB+1_S7   	0 	0 	833 	0
YB+1_S8   	0 	83 	0 	0
YB+1_S9   	0 	11231 	58 	0
YB+1_S10   	0 	9 	24 	0 	0
YB+1_S11   	28 	0 	0 	0
YB+1_S12   	7 	0 	0 	0
CH= 2 MOD= 110 BIAS= 34
YB+1_S1   	0 	0 	0 	8
YB+1_S2   	75 	-26532 	37 	1
YB+1_S3   	8552 	0 	-37848 	0
YB+1_S4   	0 	0 	3 	0 	0
YB+1_S5   	-15984 	1 	0 	0
YB+1_S6   	67 	0 	87 	65
YB+1_S7   	73 	7565 	60 	0
YB+1_S8   	-872 	11 	3 	20
YB+1_S9   	-28639 	0 	0 	1582
YB+1_S10   	2343 	44 	16 	0 	58
YB+1_S11   	0 	0 	125 	2951
YB+1_S12   	11 	0 	0 	0
YB+1_S1   	0 	0 	0 	0
YB+1_S2   	1422 	1 	42089 	0
YB+1_S3   	38 	0 	-17514 	0
YB+1_S4   	2971 	56 	1 	0 	0
YB+1_S5   	0 	0 	0 	0
YB+1_S6   	4 	0 	2 	0
YB+1_S7   	0 	0 	2187 	0
YB+1_S8   	0 	36477 	0 	0
YB+1_S9   	0 	-52908 	0 	0
YB+1_S10   	0 	1458 	40 	0 	0
YB+1_S11   	31 	0 	0 	0
YB+1_S12   	758 	0 	0 	0
CH= 2 MOD= 110 BIAS= 38
YB+1_S1   	1337 	0 	0 	1065
YB+1_S2   	697 	-2814 	1600 	902
YB+1_S3   	2147 	2 	-24798 	1
YB+1_S4   	5 	1 	2451 	0 	0
YB+1_S5   	-23861 	80 	677 	0
YB+1_S6   	323 	20 	13 	897
YB+1_S7   	4326 	35069 	384 	0
YB+1_S8   	2149 	2233 	1 	36
YB+1_S9   	1565 	0 	0 	2086
YB+1_S10   	23475 	99 	18 	0 	76
YB+1_S11   	0 	0 	-46536 	-19358
YB+1_S12   	13 	0 	0 	0
YB+1_S1   	0 	6 	0 	0
YB+1_S2   	3180 	0 	-3917 	0
YB+1_S3   	7416 	0 	1638 	0
YB+1_S4   	22977 	-22964 	576 	57 	0
YB+1_S5   	0 	0 	0 	0
YB+1_S6   	4 	337 	254 	0
YB+1_S7   	0 	0 	-10730 	0
YB+1_S8   	0 	-21048 	3 	0
YB+1_S9   	2 	54460 	133 	0
YB+1_S10   	0 	7538 	33 	0 	0
YB+1_S11   	8725 	0 	0 	0
YB+1_S12   	3671 	0 	0 	0
CH= 2 MOD= 110 BIAS= 42
YB+1_S1   	1 	0 	0 	5769
YB+1_S2   	25921 	6734 	3230 	10044
YB+1_S3   	2109 	267 	31704 	0
YB+1_S4   	1082 	1 	5024 	3 	0
YB+1_S5   	-4820 	174 	21 	0
YB+1_S6   	25039 	15 	18 	-63944
YB+1_S7   	6 	10130 	-19016 	3
YB+1_S8   	-3732 	8095 	-1916 	1359
YB+1_S9   	-6090 	0 	0 	3016
YB+1_S10   	16520 	292 	6129 	0 	57
YB+1_S11   	27 	0 	20735 	-33677
YB+1_S12   	9 	0 	0 	0
YB+1_S1   	0 	12 	0 	0
YB+1_S2   	20518 	0 	-7907 	0
YB+1_S3   	42512 	0 	-15765 	0
YB+1_S4   	-8950 	-33485 	12815 	5536 	0
YB+1_S5   	277 	0 	0 	0
YB+1_S6   	6 	894 	12133 	0
YB+1_S7   	34 	10 	16077 	0
YB+1_S8   	0 	9540 	4726 	0
YB+1_S9   	0 	-12547 	3549 	0
YB+1_S10   	0 	-57440 	58 	0 	0
YB+1_S11   	-12723 	0 	0 	0
YB+1_S12   	27761 	0 	0 	0
CH= 2 MOD= 110 BIAS= 46
YB+1_S1   	2 	0 	0 	-44125
YB+1_S2   	12638 	-32734 	17652 	-21677
YB+1_S3   	12492 	120 	12295 	244
YB+1_S4   	3827 	2 	11645 	59 	0
YB+1_S5   	-14995 	6944 	881 	0
YB+1_S6   	25917 	67 	10514 	7137
YB+1_S7   	14020 	-18896 	-37790 	-46800
YB+1_S8   	25631 	32704 	-22717 	3536
YB+1_S9   	24084 	0 	0 	47709
YB+1_S10   	14046 	6566 	17037 	3 	61
YB+1_S11   	72 	7 	50935 	-45583
YB+1_S12   	5 	1130 	70 	2
YB+1_S1   	0 	12756 	3 	0
YB+1_S2   	-40663 	0 	-40948 	0
YB+1_S3   	-28932 	9373 	60400 	0
YB+1_S4   	-24862 	1080 	-29408 	18695 	0
YB+1_S5   	3070 	0 	0 	0
YB+1_S6   	1172 	19199 	14531 	0
YB+1_S7   	39 	36 	14323 	0
YB+1_S8   	218 	-32872 	10982 	0
YB+1_S9   	14 	16441 	4988 	0
YB+1_S10   	0 	-35488 	56 	0 	0
YB+1_S11   	-39900 	0 	0 	0
YB+1_S12   	5214 	1 	0 	0
CH= 2 MOD= 120 BIAS= 18
YB+1_S1   	0 	0 	0 	2
YB+1_S2   	0 	0 	0 	0
YB+1_S3   	0 	0 	0 	0
YB+1_S4   	0 	0 	0 	0 	0
YB+1_S5   	0 	0 	0 	0
YB+1_S6   	0 	0 	0 	0
YB+1_S7   	0 	0 	0 	0
YB+1_S8   	0 	0 	0 	0
YB+1_S9   	0 	0 	0 	7
YB+1_S10   	0 	0 	0 	0 	56
YB+1_S11   	0 	0 	0 	0
YB+1_S12   	0 	0 	0 	0
YB+1_S1   	0 	0 	0 	0
YB+1_S2   	0 	0 	0 	0
YB+1_S3   	0 	0 	0 	11
YB+1_S4   	0 	0 	0 	0 	0
YB+1_S5   	0 	0 	0 	-8644
YB+1_S6   	0 	0 	0 	196
YB+1_S7   	0 	0 	0 	13777
YB+1_S8   	0 	0 	0 	7
YB+1_S9   	0 	0 	0 	0
YB+1_S10   	0 	0 	1 	0 	0
YB+1_S11   	0 	0 	0 	0
YB+1_S12   	0 	0 	0 	0
CH= 2 MOD= 120 BIAS= 22
YB+1_S1   	0 	0 	0 	1
YB+1_S2   	0 	0 	0 	0
YB+1_S3   	0 	0 	0 	0
YB+1_S4   	0 	0 	0 	0 	0
YB+1_S5   	0 	0 	0 	0
YB+1_S6   	0 	0 	0 	0
YB+1_S7   	0 	0 	0 	0
YB+1_S8   	2000 	0 	0 	1
YB+1_S9   	0 	0 	0 	10
YB+1_S10   	0 	0 	0 	0 	76
YB+1_S11   	0 	0 	0 	1
YB+1_S12   	0 	0 	0 	1
YB+1_S1   	0 	0 	0 	0
YB+1_S2   	16 	1 	0 	0
YB+1_S3   	0 	0 	0 	0
YB+1_S4   	0 	0 	0 	0 	0
YB+1_S5   	0 	0 	0 	35
YB+1_S6   	0 	0 	0 	22
YB+1_S7   	0 	0 	0 	-13084
YB+1_S8   	0 	0 	0 	0
YB+1_S9   	0 	0 	0 	0
YB+1_S10   	0 	0 	2 	0 	0
YB+1_S11   	0 	0 	0 	0
YB+1_S12   	0 	0 	0 	0
CH= 2 MOD= 120 BIAS= 26
YB+1_S1   	0 	0 	0 	1
YB+1_S2   	0 	0 	0 	0
YB+1_S3   	411 	0 	-41259 	0
YB+1_S4   	0 	0 	1 	0 	0
YB+1_S5   	0 	0 	0 	0
YB+1_S6   	0 	0 	0 	7
YB+1_S7   	0 	4491 	2 	0
YB+1_S8   	-32333 	0 	0 	0
YB+1_S9   	0 	0 	0 	6
YB+1_S10   	5 	0 	10 	0 	69
YB+1_S11   	0 	0 	9 	41199
YB+1_S12   	0 	0 	0 	0
YB+1_S1   	0 	0 	0 	0
YB+1_S2   	153 	0 	376 	0
YB+1_S3   	0 	0 	212 	0
YB+1_S4   	613 	2 	0 	0 	0
YB+1_S5   	0 	0 	0 	0
YB+1_S6   	0 	1 	0 	0
YB+1_S7   	0 	0 	0 	7
YB+1_S8   	0 	1 	0 	0
YB+1_S9   	0 	10 	0 	0
YB+1_S10   	0 	0 	31 	0 	0
YB+1_S11   	0 	0 	0 	0
YB+1_S12   	135 	0 	0 	0
CH= 2 MOD= 120 BIAS= 30
YB+1_S1   	0 	0 	0 	24
YB+1_S2   	1 	1838 	6347 	35
YB+1_S3   	737 	0 	1710 	0
YB+1_S4   	0 	1 	2 	0 	0
YB+1_S5   	-24605 	5 	0 	0
YB+1_S6   	0 	0 	12 	9
YB+1_S7   	0 	-50627 	95 	0
YB+1_S8   	-47726 	5 	0 	35
YB+1_S9   	-25877 	0 	0 	81
YB+1_S10   	20925 	26102 	19 	0 	76
YB+1_S11   	0 	0 	95 	61545
YB+1_S12   	0 	0 	0 	0
YB+1_S1   	0 	0 	0 	0
YB+1_S2   	2536 	0 	-5000 	0
YB+1_S3   	116 	0 	18292 	0
YB+1_S4   	5313 	10488 	154 	0 	0
YB+1_S5   	0 	0 	0 	0
YB+1_S6   	43 	0 	11 	0
YB+1_S7   	0 	0 	14638 	0
YB+1_S8   	0 	863 	0 	0
YB+1_S9   	0 	-13489 	945 	0
YB+1_S10   	0 	1150 	36 	0 	0
YB+1_S11   	241 	0 	0 	0
YB+1_S12   	457 	0 	0 	0
CH= 2 MOD= 120 BIAS= 34
YB+1_S1   	1 	0 	0 	126
YB+1_S2   	303 	35812 	1272 	65
YB+1_S3   	-658 	2 	8386 	1
YB+1_S4   	0 	0 	13 	0 	0
YB+1_S5   	710 	12 	2 	0
YB+1_S6   	4827 	0 	128 	1821
YB+1_S7   	1777 	-15625 	4039 	0
YB+1_S8   	-5794 	448 	29 	751
YB+1_S9   	-1340 	0 	0 	18219
YB+1_S10   	20934 	2972 	268 	0 	58
YB+1_S11   	3 	0 	1534 	-27162
YB+1_S12   	151 	0 	0 	0
YB+1_S1   	0 	0 	0 	0
YB+1_S2   	28701 	0 	12537 	0
YB+1_S3   	1392 	0 	2048 	0
YB+1_S4   	26267 	4248 	173 	0 	0
YB+1_S5   	1 	0 	0 	0
YB+1_S6   	13 	10 	435 	0
YB+1_S7   	3 	0 	-17139 	0
YB+1_S8   	0 	-2764 	1 	0
YB+1_S9   	0 	-30767 	47 	0
YB+1_S10   	0 	-29784 	37 	0 	0
YB+1_S11   	2390 	0 	0 	0
YB+1_S12   	9071 	0 	0 	0
CH= 2 MOD= 120 BIAS= 38
YB+1_S1   	12752 	0 	0 	11241
YB+1_S2   	13562 	1007 	43345 	-24788
YB+1_S3   	22715 	7 	-1001 	68
YB+1_S4   	146 	0 	-49053 	8 	0
YB+1_S5   	11121 	802 	8594 	0
YB+1_S6   	-48982 	1010 	299 	-35451
YB+1_S7   	13156 	26524 	28691 	0
YB+1_S8   	-3403 	-20616 	54 	989
YB+1_S9   	-51785 	0 	0 	-349
YB+1_S10   	-16219 	3704 	2186 	1 	77
YB+1_S11   	9 	9 	4098 	21715
YB+1_S12   	342 	20 	0 	0
YB+1_S1   	0 	203 	0 	0
YB+1_S2   	-13506 	0 	-17058 	0
YB+1_S3   	-22081 	0 	-15896 	0
YB+1_S4   	3469 	11735 	-48005 	432 	0
YB+1_S5   	121 	0 	0 	0
YB+1_S6   	52 	6877 	14733 	0
YB+1_S7   	54 	3 	23436 	0
YB+1_S8   	2 	8768 	177 	0
YB+1_S9   	159 	33343 	5628 	0
YB+1_S10   	0 	-43056 	50 	0 	0
YB+1_S11   	-47937 	0 	0 	0
YB+1_S12   	58293 	0 	0 	0
CH= 2 MOD= 120 BIAS= 42
YB+1_S1   	91 	0 	0 	-7660
YB+1_S2   	-5926 	-15856 	1264 	53815
YB+1_S3   	32939 	6580 	25406 	76
YB+1_S4   	15595 	0 	-894 	135 	0
YB+1_S5   	-17497 	3742 	1120 	0
YB+1_S6   	-32857 	1403 	706 	3009
YB+1_S7   	990 	-48439 	-16224 	43
YB+1_S8   	44290 	11816 	13077 	18070
YB+1_S9   	-7870 	0 	0 	36458
YB+1_S10   	-8435 	8237 	-13870 	16 	69
YB+1_S11   	600 	12 	49561 	-13734
YB+1_S12   	202 	50 	0 	1
YB+1_S1   	0 	791 	20 	0
YB+1_S2   	-7562 	0 	19473 	0
YB+1_S3   	-10919 	3 	11114 	0
YB+1_S4   	-18680 	20991 	38214 	43989 	0
YB+1_S5   	4300 	0 	2 	0
YB+1_S6   	95 	14470 	20907 	0
YB+1_S7   	1142 	278 	31843 	0
YB+1_S8   	22 	24282 	-10596 	0
YB+1_S9   	0 	12094 	-10953 	0
YB+1_S10   	0 	-15444 	461 	0 	0
YB+1_S11   	20149 	0 	0 	0
YB+1_S12   	2293 	0 	0 	0
CH= 2 MOD= 120 BIAS= 46
YB+1_S1   	7 	0 	1 	21961
YB+1_S2   	17551 	25872 	-19366 	-48078
YB+1_S3   	-886 	3703 	-54232 	6176
YB+1_S4   	-2676 	0 	-5393 	2409 	0
YB+1_S5   	22432 	12217 	-59259 	0
YB+1_S6   	34055 	4974 	-38437 	-29573
YB+1_S7   	-28747 	19618 	35668 	-31001
YB+1_S8   	14625 	17482 	-17110 	-26196
YB+1_S9   	-22021 	0 	0 	9331
YB+1_S10   	-38921 	-36425 	2439 	753 	67
YB+1_S11   	1467 	150 	-34395 	-3729
YB+1_S12   	25 	29044 	2368 	147
YB+1_S1   	0 	-40125 	296 	0
YB+1_S2   	2657 	2 	34274 	0
YB+1_S3   	37754 	-11351 	23674 	0
YB+1_S4   	-34324 	-13796 	17563 	-43366 	0
YB+1_S5   	-36234 	0 	17 	0
YB+1_S6   	7531 	7931 	11435 	0
YB+1_S7   	1241 	1880 	8703 	0
YB+1_S8   	2091 	55394 	-51543 	0
YB+1_S9   	123 	-17506 	-38696 	0
YB+1_S10   	0 	-2846 	55 	0 	0
YB+1_S11   	-22804 	0 	0 	0
YB+1_S12   	-40523 	5 	0 	0
