CH= 2 MOD= 40 BIAS= 18
YB+2_S1   	0 	0 	0 	0
YB+2_S2   	0 	0 	0 	0
YB+2_S3   	3 	0 	0 	0
YB+2_S4   	0 	0 	0 	0 	0
YB+2_S5   	0 	0 	0 	0
YB+2_S6   	0 	0 	0 	0
YB+2_S7   	0 	0 	0 	0
YB+2_S8   	0 	0 	0 	0
YB+2_S9   	0 	4 	4 	0
YB+2_S10   	0 	0 	0 	0 	0
YB+2_S11   	0 	0 	0 	0
YB+2_S12   	0 	0 	0 	0
YB+2_S1   	0 	0 	0 	0
YB+2_S2   	0 	0 	0 	0
YB+2_S3   	0 	0 	0 	-11374
YB+2_S4   	0 	0 	0 	0 	0
YB+2_S5   	0 	0 	0 	0
YB+2_S6   	0 	0 	0 	3
YB+2_S7   	0 	0 	393 	0
YB+2_S8   	0 	0 	0 	1
YB+2_S9   	0 	0 	0 	0
YB+2_S10   	0 	0 	0 	0 	0
YB+2_S11   	0 	0 	0 	0
YB+2_S12   	0 	0 	0 	0
CH= 2 MOD= 40 BIAS= 22
YB+2_S1   	0 	0 	0 	0
YB+2_S2   	0 	0 	0 	0
YB+2_S3   	0 	0 	0 	0
YB+2_S4   	0 	0 	0 	0 	0
YB+2_S5   	0 	0 	0 	0
YB+2_S6   	0 	0 	0 	0
YB+2_S7   	0 	0 	0 	0
YB+2_S8   	0 	0 	0 	0
YB+2_S9   	0 	0 	2 	0
YB+2_S10   	0 	0 	0 	0 	0
YB+2_S11   	0 	0 	0 	0
YB+2_S12   	0 	0 	0 	0
YB+2_S1   	0 	0 	0 	0
YB+2_S2   	0 	0 	0 	0
YB+2_S3   	0 	0 	0 	0
YB+2_S4   	0 	0 	0 	0 	0
YB+2_S5   	0 	0 	0 	0
YB+2_S6   	0 	0 	0 	0
YB+2_S7   	0 	0 	171 	0
YB+2_S8   	0 	0 	0 	0
YB+2_S9   	0 	0 	0 	0
YB+2_S10   	0 	0 	0 	0 	0
YB+2_S11   	0 	0 	0 	11
YB+2_S12   	0 	0 	0 	0
CH= 2 MOD= 40 BIAS= 26
YB+2_S1   	0 	0 	0 	0
YB+2_S2   	0 	0 	0 	0
YB+2_S3   	0 	0 	0 	0
YB+2_S4   	0 	0 	0 	0 	0
YB+2_S5   	0 	0 	0 	0
YB+2_S6   	0 	0 	0 	0
YB+2_S7   	0 	0 	0 	0
YB+2_S8   	0 	0 	0 	0
YB+2_S9   	0 	0 	5 	0
YB+2_S10   	0 	0 	0 	0 	0
YB+2_S11   	0 	0 	0 	0
YB+2_S12   	0 	0 	0 	0
YB+2_S1   	0 	0 	0 	0
YB+2_S2   	0 	0 	0 	0
YB+2_S3   	0 	0 	0 	0
YB+2_S4   	0 	0 	0 	0 	0
YB+2_S5   	0 	0 	0 	0
YB+2_S6   	0 	0 	0 	0
YB+2_S7   	0 	0 	129 	0
YB+2_S8   	0 	0 	0 	0
YB+2_S9   	0 	0 	0 	0
YB+2_S10   	0 	0 	0 	0 	0
YB+2_S11   	0 	0 	0 	0
YB+2_S12   	0 	0 	0 	0
CH= 2 MOD= 40 BIAS= 30
YB+2_S1   	0 	0 	0 	0
YB+2_S2   	0 	0 	0 	0
YB+2_S3   	0 	0 	0 	0
YB+2_S4   	0 	0 	0 	0 	0
YB+2_S5   	0 	0 	0 	0
YB+2_S6   	307 	0 	0 	0
YB+2_S7   	0 	0 	0 	0
YB+2_S8   	0 	0 	0 	0
YB+2_S9   	0 	0 	5 	0
YB+2_S10   	0 	0 	0 	0 	0
YB+2_S11   	0 	0 	0 	64
YB+2_S12   	0 	0 	0 	0
YB+2_S1   	0 	738 	0 	0
YB+2_S2   	0 	0 	0 	0
YB+2_S3   	0 	0 	0 	0
YB+2_S4   	0 	0 	0 	0 	0
YB+2_S5   	0 	0 	0 	0
YB+2_S6   	0 	0 	0 	0
YB+2_S7   	0 	0 	1060 	0
YB+2_S8   	0 	0 	0 	0
YB+2_S9   	0 	0 	0 	0
YB+2_S10   	0 	0 	0 	0 	0
YB+2_S11   	0 	0 	0 	0
YB+2_S12   	0 	0 	0 	0
CH= 2 MOD= 40 BIAS= 34
YB+2_S1   	0 	0 	0 	0
YB+2_S2   	0 	0 	0 	0
YB+2_S3   	1 	0 	0 	0
YB+2_S4   	0 	0 	0 	0 	0
YB+2_S5   	0 	0 	0 	0
YB+2_S6   	77 	0 	0 	0
YB+2_S7   	0 	0 	0 	0
YB+2_S8   	0 	0 	0 	0
YB+2_S9   	0 	0 	9 	0
YB+2_S10   	0 	0 	0 	0 	0
YB+2_S11   	0 	0 	0 	0
YB+2_S12   	0 	0 	0 	0
YB+2_S1   	0 	0 	0 	0
YB+2_S2   	0 	0 	0 	0
YB+2_S3   	0 	0 	0 	0
YB+2_S4   	1 	0 	0 	0 	0
YB+2_S5   	0 	0 	0 	0
YB+2_S6   	0 	0 	0 	0
YB+2_S7   	0 	0 	2742 	0
YB+2_S8   	0 	0 	0 	0
YB+2_S9   	0 	0 	0 	0
YB+2_S10   	0 	0 	0 	0 	0
YB+2_S11   	0 	2 	0 	0
YB+2_S12   	0 	0 	0 	0
CH= 2 MOD= 40 BIAS= 38
YB+2_S1   	0 	0 	0 	0
YB+2_S2   	0 	0 	0 	0
YB+2_S3   	0 	0 	0 	0
YB+2_S4   	0 	0 	0 	0 	0
YB+2_S5   	0 	0 	0 	20
YB+2_S6   	1425 	0 	1 	0
YB+2_S7   	0 	0 	0 	0
YB+2_S8   	0 	0 	0 	0
YB+2_S9   	0 	0 	5 	0
YB+2_S10   	0 	0 	0 	0 	0
YB+2_S11   	0 	0 	0 	15777
YB+2_S12   	0 	0 	0 	0
YB+2_S1   	0 	0 	0 	0
YB+2_S2   	0 	0 	0 	0
YB+2_S3   	0 	0 	0 	0
YB+2_S4   	206 	0 	0 	0 	0
YB+2_S5   	0 	0 	0 	0
YB+2_S6   	0 	0 	0 	0
YB+2_S7   	0 	0 	1424 	0
YB+2_S8   	0 	0 	0 	0
YB+2_S9   	0 	0 	0 	0
YB+2_S10   	0 	0 	0 	0 	0
YB+2_S11   	0 	0 	0 	0
YB+2_S12   	0 	0 	0 	0
CH= 2 MOD= 40 BIAS= 42
YB+2_S1   	0 	0 	0 	0
YB+2_S2   	0 	0 	0 	0
YB+2_S3   	0 	0 	0 	0
YB+2_S4   	9 	1 	0 	1 	0
YB+2_S5   	62 	0 	4 	439
YB+2_S6   	-6635 	0 	596 	0
YB+2_S7   	0 	0 	0 	0
YB+2_S8   	0 	0 	0 	0
YB+2_S9   	0 	0 	2 	0
YB+2_S10   	0 	0 	0 	0 	0
YB+2_S11   	0 	0 	0 	-15824
YB+2_S12   	0 	0 	0 	0
YB+2_S1   	0 	267 	0 	0
YB+2_S2   	0 	0 	0 	0
YB+2_S3   	0 	0 	0 	0
YB+2_S4   	-42200 	0 	0 	0 	0
YB+2_S5   	0 	0 	0 	0
YB+2_S6   	0 	0 	0 	0
YB+2_S7   	0 	0 	17661 	0
YB+2_S8   	0 	0 	0 	0
YB+2_S9   	0 	0 	0 	0
YB+2_S10   	0 	0 	0 	0 	0
YB+2_S11   	0 	8 	0 	0
YB+2_S12   	0 	0 	0 	0
CH= 2 MOD= 40 BIAS= 46
YB+2_S1   	0 	0 	0 	0
YB+2_S2   	0 	0 	0 	0
YB+2_S3   	0 	0 	0 	0
YB+2_S4   	3960 	2 	0 	263 	0
YB+2_S5   	1 	0 	2475 	-30606
YB+2_S6   	-50845 	0 	9807 	0
YB+2_S7   	0 	0 	0 	0
YB+2_S8   	0 	0 	0 	0
YB+2_S9   	0 	0 	8 	0
YB+2_S10   	0 	0 	0 	0 	0
YB+2_S11   	1 	0 	0 	5957
YB+2_S12   	52 	0 	0 	32
YB+2_S1   	1 	687 	0 	0
YB+2_S2   	0 	0 	0 	0
YB+2_S3   	1 	96 	0 	0
YB+2_S4   	-24037 	0 	0 	0 	0
YB+2_S5   	0 	0 	0 	0
YB+2_S6   	0 	0 	0 	0
YB+2_S7   	0 	1883 	-60643 	0
YB+2_S8   	0 	0 	0 	0
YB+2_S9   	0 	0 	0 	0
YB+2_S10   	0 	0 	0 	0 	0
YB+2_S11   	0 	590 	0 	0
YB+2_S12   	0 	0 	0 	0
CH= 2 MOD= 50 BIAS= 18
YB+2_S1   	0 	0 	0 	0
YB+2_S2   	0 	0 	0 	0
YB+2_S3   	0 	0 	0 	0
YB+2_S4   	0 	0 	0 	0 	0
YB+2_S5   	0 	0 	0 	0
YB+2_S6   	0 	0 	0 	0
YB+2_S7   	0 	0 	0 	0
YB+2_S8   	0 	0 	0 	0
YB+2_S9   	0 	0 	8 	0
YB+2_S10   	0 	0 	0 	0 	0
YB+2_S11   	0 	0 	0 	0
YB+2_S12   	0 	0 	0 	0
YB+2_S1   	0 	0 	0 	0
YB+2_S2   	0 	0 	0 	0
YB+2_S3   	0 	0 	0 	-301
YB+2_S4   	0 	0 	0 	0 	0
YB+2_S5   	0 	0 	0 	0
YB+2_S6   	0 	0 	0 	0
YB+2_S7   	0 	0 	2664 	0
YB+2_S8   	0 	0 	0 	1
YB+2_S9   	0 	0 	0 	0
YB+2_S10   	0 	0 	0 	0 	0
YB+2_S11   	0 	0 	0 	0
YB+2_S12   	0 	0 	0 	0
CH= 2 MOD= 50 BIAS= 22
YB+2_S1   	0 	0 	0 	0
YB+2_S2   	0 	0 	0 	0
YB+2_S3   	0 	0 	0 	0
YB+2_S4   	0 	0 	0 	0 	0
YB+2_S5   	0 	0 	0 	0
YB+2_S6   	0 	0 	0 	0
YB+2_S7   	0 	0 	0 	0
YB+2_S8   	0 	0 	0 	0
YB+2_S9   	0 	0 	4 	0
YB+2_S10   	0 	0 	0 	0 	0
YB+2_S11   	0 	0 	0 	0
YB+2_S12   	0 	0 	0 	0
YB+2_S1   	0 	0 	0 	0
YB+2_S2   	0 	0 	0 	0
YB+2_S3   	0 	0 	0 	0
YB+2_S4   	0 	0 	0 	0 	0
YB+2_S5   	0 	0 	0 	0
YB+2_S6   	0 	0 	0 	0
YB+2_S7   	0 	0 	181 	0
YB+2_S8   	0 	0 	0 	0
YB+2_S9   	0 	0 	0 	0
YB+2_S10   	0 	0 	0 	0 	0
YB+2_S11   	0 	0 	0 	0
YB+2_S12   	0 	0 	0 	0
CH= 2 MOD= 50 BIAS= 26
YB+2_S1   	0 	0 	0 	0
YB+2_S2   	0 	0 	0 	0
YB+2_S3   	0 	0 	0 	0
YB+2_S4   	0 	0 	0 	0 	0
YB+2_S5   	0 	0 	0 	0
YB+2_S6   	0 	0 	0 	0
YB+2_S7   	0 	0 	0 	0
YB+2_S8   	0 	0 	0 	0
YB+2_S9   	0 	0 	1 	0
YB+2_S10   	0 	0 	0 	0 	0
YB+2_S11   	0 	0 	0 	0
YB+2_S12   	0 	0 	0 	0
YB+2_S1   	0 	0 	0 	0
YB+2_S2   	0 	0 	0 	0
YB+2_S3   	0 	0 	0 	0
YB+2_S4   	0 	0 	0 	0 	0
YB+2_S5   	0 	0 	0 	0
YB+2_S6   	0 	0 	0 	0
YB+2_S7   	0 	0 	592 	0
YB+2_S8   	0 	0 	0 	0
YB+2_S9   	0 	0 	0 	0
YB+2_S10   	0 	0 	0 	0 	0
YB+2_S11   	0 	0 	0 	0
YB+2_S12   	0 	0 	0 	0
CH= 2 MOD= 50 BIAS= 30
YB+2_S1   	0 	0 	0 	0
YB+2_S2   	0 	0 	0 	0
YB+2_S3   	0 	0 	0 	0
YB+2_S4   	0 	0 	0 	0 	0
YB+2_S5   	0 	0 	0 	0
YB+2_S6   	121 	0 	0 	0
YB+2_S7   	0 	0 	0 	0
YB+2_S8   	0 	0 	0 	0
YB+2_S9   	0 	0 	6 	0
YB+2_S10   	0 	0 	0 	0 	0
YB+2_S11   	0 	0 	0 	1
YB+2_S12   	0 	0 	0 	0
YB+2_S1   	0 	180 	0 	0
YB+2_S2   	0 	0 	0 	0
YB+2_S3   	0 	0 	0 	0
YB+2_S4   	0 	0 	0 	0 	0
YB+2_S5   	0 	0 	0 	0
YB+2_S6   	0 	0 	0 	0
YB+2_S7   	0 	0 	1062 	0
YB+2_S8   	0 	0 	0 	0
YB+2_S9   	0 	0 	0 	0
YB+2_S10   	0 	0 	0 	0 	0
YB+2_S11   	0 	0 	0 	0
YB+2_S12   	0 	0 	0 	0
CH= 2 MOD= 50 BIAS= 34
YB+2_S1   	0 	0 	0 	0
YB+2_S2   	0 	0 	0 	0
YB+2_S3   	0 	0 	0 	0
YB+2_S4   	0 	0 	0 	0 	0
YB+2_S5   	0 	0 	0 	0
YB+2_S6   	883 	0 	0 	0
YB+2_S7   	0 	0 	0 	0
YB+2_S8   	0 	0 	0 	0
YB+2_S9   	0 	0 	6 	0
YB+2_S10   	0 	0 	0 	0 	0
YB+2_S11   	0 	0 	0 	0
YB+2_S12   	0 	0 	0 	0
YB+2_S1   	0 	0 	0 	0
YB+2_S2   	0 	0 	0 	0
YB+2_S3   	0 	0 	0 	0
YB+2_S4   	0 	0 	0 	0 	0
YB+2_S5   	0 	0 	0 	0
YB+2_S6   	0 	0 	0 	0
YB+2_S7   	0 	0 	350 	0
YB+2_S8   	0 	0 	0 	0
YB+2_S9   	0 	0 	0 	0
YB+2_S10   	0 	0 	0 	0 	0
YB+2_S11   	0 	0 	0 	0
YB+2_S12   	0 	0 	0 	0
CH= 2 MOD= 50 BIAS= 38
YB+2_S1   	0 	0 	0 	0
YB+2_S2   	0 	0 	0 	0
YB+2_S3   	0 	0 	0 	0
YB+2_S4   	0 	0 	0 	2 	0
YB+2_S5   	0 	0 	0 	5
YB+2_S6   	57 	0 	0 	0
YB+2_S7   	0 	0 	0 	0
YB+2_S8   	0 	0 	0 	0
YB+2_S9   	0 	0 	4 	0
YB+2_S10   	0 	0 	0 	0 	0
YB+2_S11   	0 	0 	0 	-18696
YB+2_S12   	0 	0 	0 	0
YB+2_S1   	0 	3 	0 	0
YB+2_S2   	0 	0 	0 	0
YB+2_S3   	0 	0 	0 	0
YB+2_S4   	155 	0 	0 	0 	0
YB+2_S5   	0 	0 	0 	0
YB+2_S6   	0 	0 	0 	0
YB+2_S7   	0 	0 	2521 	0
YB+2_S8   	0 	0 	0 	0
YB+2_S9   	0 	0 	0 	0
YB+2_S10   	0 	0 	0 	0 	0
YB+2_S11   	0 	0 	0 	0
YB+2_S12   	0 	0 	0 	0
CH= 2 MOD= 50 BIAS= 42
YB+2_S1   	0 	0 	0 	0
YB+2_S2   	0 	0 	2 	0
YB+2_S3   	0 	0 	0 	0
YB+2_S4   	85 	0 	0 	133 	0
YB+2_S5   	112 	0 	0 	1333
YB+2_S6   	25358 	0 	162 	0
YB+2_S7   	0 	0 	0 	0
YB+2_S8   	0 	0 	0 	0
YB+2_S9   	0 	0 	7 	0
YB+2_S10   	0 	0 	0 	0 	0
YB+2_S11   	0 	0 	0 	13679
YB+2_S12   	0 	0 	0 	2
YB+2_S1   	0 	177 	0 	0
YB+2_S2   	0 	0 	0 	0
YB+2_S3   	0 	0 	0 	0
YB+2_S4   	-36416 	0 	0 	0 	0
YB+2_S5   	0 	0 	0 	0
YB+2_S6   	0 	0 	0 	0
YB+2_S7   	0 	0 	14651 	0
YB+2_S8   	0 	0 	0 	0
YB+2_S9   	0 	0 	0 	0
YB+2_S10   	0 	0 	0 	0 	0
YB+2_S11   	0 	4 	0 	0
YB+2_S12   	0 	0 	0 	0
CH= 2 MOD= 50 BIAS= 46
YB+2_S1   	0 	0 	0 	0
YB+2_S2   	0 	0 	1 	0
YB+2_S3   	0 	0 	0 	0
YB+2_S4   	3861 	0 	0 	1012 	0
YB+2_S5   	1 	0 	-64909 	-35329
YB+2_S6   	33126 	0 	3675 	0
YB+2_S7   	0 	0 	0 	0
YB+2_S8   	0 	0 	0 	0
YB+2_S9   	0 	0 	2 	0
YB+2_S10   	0 	1 	0 	0 	0
YB+2_S11   	1 	0 	0 	48494
YB+2_S12   	70 	0 	0 	35
YB+2_S1   	0 	652 	0 	0
YB+2_S2   	0 	0 	0 	0
YB+2_S3   	0 	263 	0 	0
YB+2_S4   	-25741 	0 	0 	0 	0
YB+2_S5   	0 	0 	0 	0
YB+2_S6   	0 	0 	0 	0
YB+2_S7   	0 	797 	6078 	0
YB+2_S8   	0 	0 	0 	0
YB+2_S9   	0 	0 	0 	0
YB+2_S10   	0 	0 	0 	0 	0
YB+2_S11   	0 	1350 	0 	0
YB+2_S12   	0 	0 	0 	0
CH= 2 MOD= 60 BIAS= 18
YB+2_S1   	0 	0 	0 	0
YB+2_S2   	0 	0 	0 	0
YB+2_S3   	1 	0 	0 	0
YB+2_S4   	0 	0 	0 	0 	0
YB+2_S5   	0 	0 	0 	0
YB+2_S6   	0 	0 	0 	0
YB+2_S7   	0 	0 	0 	0
YB+2_S8   	0 	0 	0 	0
YB+2_S9   	0 	0 	7 	0
YB+2_S10   	0 	0 	0 	0 	0
YB+2_S11   	0 	0 	0 	0
YB+2_S12   	0 	0 	0 	0
YB+2_S1   	0 	0 	0 	0
YB+2_S2   	0 	0 	0 	0
YB+2_S3   	0 	0 	0 	10609
YB+2_S4   	0 	0 	0 	0 	0
YB+2_S5   	0 	0 	0 	0
YB+2_S6   	0 	0 	0 	4
YB+2_S7   	0 	0 	264 	6
YB+2_S8   	0 	0 	0 	1
YB+2_S9   	0 	0 	0 	0
YB+2_S10   	0 	0 	0 	0 	0
YB+2_S11   	0 	0 	0 	0
YB+2_S12   	0 	0 	0 	0
CH= 2 MOD= 60 BIAS= 22
YB+2_S1   	0 	0 	0 	0
YB+2_S2   	0 	0 	0 	0
YB+2_S3   	0 	0 	0 	0
YB+2_S4   	0 	0 	0 	0 	0
YB+2_S5   	0 	0 	0 	0
YB+2_S6   	0 	0 	0 	0
YB+2_S7   	0 	0 	0 	0
YB+2_S8   	0 	0 	0 	0
YB+2_S9   	0 	0 	5 	0
YB+2_S10   	0 	0 	0 	0 	0
YB+2_S11   	0 	0 	0 	0
YB+2_S12   	0 	0 	0 	0
YB+2_S1   	0 	0 	0 	0
YB+2_S2   	0 	0 	0 	0
YB+2_S3   	0 	0 	0 	1
YB+2_S4   	0 	0 	0 	0 	0
YB+2_S5   	0 	0 	0 	0
YB+2_S6   	0 	0 	0 	0
YB+2_S7   	0 	0 	2523 	0
YB+2_S8   	0 	0 	0 	0
YB+2_S9   	0 	0 	0 	0
YB+2_S10   	0 	0 	0 	0 	0
YB+2_S11   	0 	0 	0 	0
YB+2_S12   	0 	0 	0 	0
CH= 2 MOD= 60 BIAS= 26
YB+2_S1   	0 	0 	0 	0
YB+2_S2   	0 	0 	0 	0
YB+2_S3   	0 	0 	0 	0
YB+2_S4   	0 	0 	0 	0 	0
YB+2_S5   	0 	0 	0 	0
YB+2_S6   	0 	0 	0 	0
YB+2_S7   	0 	0 	0 	0
YB+2_S8   	0 	0 	0 	0
YB+2_S9   	0 	0 	3 	0
YB+2_S10   	0 	0 	0 	0 	0
YB+2_S11   	0 	0 	0 	0
YB+2_S12   	0 	0 	0 	0
YB+2_S1   	0 	0 	0 	0
YB+2_S2   	0 	0 	0 	0
YB+2_S3   	0 	0 	0 	0
YB+2_S4   	0 	0 	0 	0 	0
YB+2_S5   	0 	0 	0 	0
YB+2_S6   	0 	0 	0 	0
YB+2_S7   	0 	0 	915 	0
YB+2_S8   	0 	0 	0 	0
YB+2_S9   	0 	0 	0 	0
YB+2_S10   	0 	0 	0 	0 	0
YB+2_S11   	0 	0 	0 	0
YB+2_S12   	0 	0 	0 	0
CH= 2 MOD= 60 BIAS= 30
YB+2_S1   	0 	0 	0 	0
YB+2_S2   	0 	0 	0 	0
YB+2_S3   	0 	0 	0 	0
YB+2_S4   	0 	0 	2 	0 	0
YB+2_S5   	0 	0 	0 	0
YB+2_S6   	110 	0 	0 	0
YB+2_S7   	0 	0 	0 	0
YB+2_S8   	0 	1 	0 	0
YB+2_S9   	0 	0 	4 	0
YB+2_S10   	0 	0 	0 	0 	0
YB+2_S11   	0 	0 	0 	0
YB+2_S12   	0 	0 	0 	0
YB+2_S1   	0 	13 	0 	0
YB+2_S2   	0 	0 	0 	0
YB+2_S3   	0 	0 	0 	0
YB+2_S4   	0 	0 	0 	0 	0
YB+2_S5   	0 	0 	0 	0
YB+2_S6   	0 	0 	0 	0
YB+2_S7   	0 	0 	3438 	0
YB+2_S8   	0 	0 	0 	0
YB+2_S9   	0 	0 	0 	0
YB+2_S10   	0 	0 	0 	0 	0
YB+2_S11   	0 	0 	0 	0
YB+2_S12   	0 	0 	0 	0
CH= 2 MOD= 60 BIAS= 34
YB+2_S1   	0 	0 	0 	0
YB+2_S2   	0 	0 	0 	0
YB+2_S3   	0 	0 	0 	0
YB+2_S4   	0 	0 	0 	0 	0
YB+2_S5   	0 	0 	0 	0
YB+2_S6   	3961 	0 	0 	0
YB+2_S7   	0 	0 	0 	0
YB+2_S8   	0 	0 	0 	0
YB+2_S9   	0 	0 	2 	0
YB+2_S10   	0 	0 	0 	0 	0
YB+2_S11   	0 	0 	0 	0
YB+2_S12   	0 	0 	0 	0
YB+2_S1   	0 	0 	0 	0
YB+2_S2   	0 	0 	0 	0
YB+2_S3   	0 	0 	0 	0
YB+2_S4   	7 	0 	0 	0 	0
YB+2_S5   	0 	0 	0 	0
YB+2_S6   	0 	0 	0 	0
YB+2_S7   	0 	0 	245 	0
YB+2_S8   	0 	0 	0 	0
YB+2_S9   	0 	0 	0 	0
YB+2_S10   	0 	0 	0 	0 	0
YB+2_S11   	0 	1 	0 	0
YB+2_S12   	0 	0 	0 	0
CH= 2 MOD= 60 BIAS= 38
YB+2_S1   	0 	0 	0 	0
YB+2_S2   	0 	0 	0 	0
YB+2_S3   	0 	0 	0 	0
YB+2_S4   	17 	0 	0 	42 	0
YB+2_S5   	0 	0 	0 	66
YB+2_S6   	2158 	0 	0 	0
YB+2_S7   	0 	0 	0 	0
YB+2_S8   	0 	0 	0 	0
YB+2_S9   	0 	0 	7 	0
YB+2_S10   	0 	0 	0 	0 	0
YB+2_S11   	0 	0 	0 	29236
YB+2_S12   	0 	0 	0 	1
YB+2_S1   	0 	2 	0 	0
YB+2_S2   	0 	0 	0 	0
YB+2_S3   	0 	0 	0 	0
YB+2_S4   	480 	0 	0 	0 	0
YB+2_S5   	0 	0 	0 	0
YB+2_S6   	0 	0 	0 	0
YB+2_S7   	0 	0 	1877 	0
YB+2_S8   	0 	0 	0 	0
YB+2_S9   	0 	0 	0 	0
YB+2_S10   	0 	0 	0 	0 	0
YB+2_S11   	0 	0 	0 	0
YB+2_S12   	0 	0 	0 	0
CH= 2 MOD= 60 BIAS= 42
YB+2_S1   	0 	0 	0 	0
YB+2_S2   	0 	0 	3 	0
YB+2_S3   	0 	0 	0 	0
YB+2_S4   	265 	0 	0 	791 	0
YB+2_S5   	272 	0 	0 	1707
YB+2_S6   	52522 	0 	300 	0
YB+2_S7   	0 	0 	0 	0
YB+2_S8   	0 	0 	0 	0
YB+2_S9   	0 	0 	6 	0
YB+2_S10   	0 	0 	0 	0 	0
YB+2_S11   	0 	0 	0 	-42217
YB+2_S12   	0 	0 	0 	5
YB+2_S1   	0 	571 	0 	0
YB+2_S2   	0 	0 	0 	0
YB+2_S3   	0 	0 	0 	0
YB+2_S4   	21323 	0 	0 	0 	0
YB+2_S5   	0 	0 	0 	0
YB+2_S6   	0 	0 	0 	0
YB+2_S7   	0 	0 	-19293 	0
YB+2_S8   	0 	0 	0 	0
YB+2_S9   	0 	0 	0 	0
YB+2_S10   	0 	0 	0 	0 	0
YB+2_S11   	0 	549 	0 	0
YB+2_S12   	0 	0 	0 	0
CH= 2 MOD= 60 BIAS= 46
YB+2_S1   	0 	0 	0 	0
YB+2_S2   	0 	0 	7 	0
YB+2_S3   	0 	0 	0 	0
YB+2_S4   	-59464 	0 	0 	3449 	0
YB+2_S5   	32 	0 	324 	29488
YB+2_S6   	39083 	0 	1004 	0
YB+2_S7   	0 	0 	0 	0
YB+2_S8   	0 	0 	0 	0
YB+2_S9   	0 	0 	7 	0
YB+2_S10   	0 	50 	0 	0 	0
YB+2_S11   	13 	0 	0 	3284
YB+2_S12   	303 	0 	0 	246
YB+2_S1   	3 	4613 	0 	0
YB+2_S2   	0 	0 	0 	0
YB+2_S3   	0 	2735 	0 	0
YB+2_S4   	-13785 	0 	0 	0 	0
YB+2_S5   	0 	0 	0 	0
YB+2_S6   	0 	0 	0 	0
YB+2_S7   	0 	580 	-40042 	0
YB+2_S8   	0 	0 	0 	0
YB+2_S9   	0 	0 	0 	0
YB+2_S10   	0 	0 	7 	0 	0
YB+2_S11   	21 	-8460 	0 	0
YB+2_S12   	0 	0 	0 	0
CH= 2 MOD= 70 BIAS= 18
YB+2_S1   	0 	0 	0 	0
YB+2_S2   	0 	0 	0 	0
YB+2_S3   	1 	0 	0 	0
YB+2_S4   	0 	0 	0 	0 	0
YB+2_S5   	0 	0 	0 	0
YB+2_S6   	0 	0 	0 	0
YB+2_S7   	0 	0 	0 	0
YB+2_S8   	0 	0 	0 	0
YB+2_S9   	0 	0 	9 	0
YB+2_S10   	0 	0 	0 	0 	0
YB+2_S11   	0 	0 	0 	0
YB+2_S12   	0 	0 	0 	0
YB+2_S1   	0 	0 	0 	0
YB+2_S2   	0 	0 	0 	0
YB+2_S3   	0 	0 	0 	5259
YB+2_S4   	0 	0 	0 	0 	0
YB+2_S5   	0 	0 	0 	0
YB+2_S6   	0 	0 	0 	7
YB+2_S7   	0 	0 	246 	30
YB+2_S8   	0 	0 	0 	2
YB+2_S9   	0 	0 	0 	0
YB+2_S10   	0 	0 	0 	0 	0
YB+2_S11   	0 	0 	0 	0
YB+2_S12   	0 	0 	0 	0
CH= 2 MOD= 70 BIAS= 22
YB+2_S1   	0 	0 	0 	0
YB+2_S2   	0 	0 	0 	0
YB+2_S3   	0 	0 	0 	0
YB+2_S4   	0 	0 	0 	0 	0
YB+2_S5   	0 	0 	0 	0
YB+2_S6   	0 	0 	0 	0
YB+2_S7   	0 	0 	0 	0
YB+2_S8   	0 	0 	0 	0
YB+2_S9   	0 	0 	9 	0
YB+2_S10   	0 	0 	0 	0 	0
YB+2_S11   	0 	0 	0 	0
YB+2_S12   	0 	0 	0 	0
YB+2_S1   	0 	0 	0 	0
YB+2_S2   	0 	0 	0 	0
YB+2_S3   	0 	0 	0 	0
YB+2_S4   	0 	0 	0 	0 	0
YB+2_S5   	0 	0 	0 	0
YB+2_S6   	0 	0 	0 	0
YB+2_S7   	0 	0 	2817 	0
YB+2_S8   	0 	0 	0 	0
YB+2_S9   	0 	0 	0 	0
YB+2_S10   	0 	0 	0 	0 	0
YB+2_S11   	0 	0 	0 	0
YB+2_S12   	0 	0 	0 	0
CH= 2 MOD= 70 BIAS= 26
YB+2_S1   	0 	0 	0 	0
YB+2_S2   	0 	0 	0 	0
YB+2_S3   	1 	0 	0 	0
YB+2_S4   	0 	0 	0 	0 	0
YB+2_S5   	0 	0 	0 	0
YB+2_S6   	0 	0 	0 	0
YB+2_S7   	0 	0 	0 	0
YB+2_S8   	0 	0 	0 	0
YB+2_S9   	0 	0 	6 	0
YB+2_S10   	0 	0 	0 	0 	0
YB+2_S11   	0 	0 	0 	0
YB+2_S12   	0 	0 	0 	0
YB+2_S1   	0 	0 	0 	0
YB+2_S2   	0 	0 	0 	0
YB+2_S3   	0 	0 	0 	0
YB+2_S4   	0 	0 	0 	0 	0
YB+2_S5   	0 	0 	0 	0
YB+2_S6   	0 	0 	0 	0
YB+2_S7   	0 	0 	332 	0
YB+2_S8   	0 	0 	0 	0
YB+2_S9   	0 	0 	0 	0
YB+2_S10   	0 	0 	0 	0 	0
YB+2_S11   	0 	0 	0 	0
YB+2_S12   	0 	0 	0 	0
CH= 2 MOD= 70 BIAS= 30
YB+2_S1   	0 	0 	0 	0
YB+2_S2   	0 	0 	1 	0
YB+2_S3   	0 	0 	0 	0
YB+2_S4   	0 	0 	21 	0 	0
YB+2_S5   	0 	0 	0 	9
YB+2_S6   	9014 	0 	0 	0
YB+2_S7   	0 	0 	0 	0
YB+2_S8   	0 	2 	0 	0
YB+2_S9   	0 	0 	4 	0
YB+2_S10   	0 	0 	0 	0 	0
YB+2_S11   	0 	0 	0 	0
YB+2_S12   	0 	0 	0 	4
YB+2_S1   	0 	11 	0 	0
YB+2_S2   	0 	0 	0 	0
YB+2_S3   	0 	0 	0 	0
YB+2_S4   	6 	0 	0 	0 	0
YB+2_S5   	0 	0 	0 	0
YB+2_S6   	0 	0 	0 	0
YB+2_S7   	0 	0 	13068 	0
YB+2_S8   	0 	0 	0 	0
YB+2_S9   	0 	0 	0 	0
YB+2_S10   	0 	0 	0 	0 	0
YB+2_S11   	0 	3 	0 	0
YB+2_S12   	0 	0 	0 	0
CH= 2 MOD= 70 BIAS= 34
YB+2_S1   	0 	0 	0 	0
YB+2_S2   	0 	0 	0 	0
YB+2_S3   	0 	0 	0 	0
YB+2_S4   	2 	0 	0 	1 	0
YB+2_S5   	0 	0 	0 	4
YB+2_S6   	36098 	0 	0 	0
YB+2_S7   	0 	0 	0 	0
YB+2_S8   	0 	4 	0 	0
YB+2_S9   	0 	0 	7 	0
YB+2_S10   	0 	0 	0 	0 	0
YB+2_S11   	0 	0 	0 	0
YB+2_S12   	0 	0 	0 	2
YB+2_S1   	0 	4 	0 	0
YB+2_S2   	0 	0 	0 	0
YB+2_S3   	0 	0 	0 	0
YB+2_S4   	48 	0 	0 	0 	0
YB+2_S5   	0 	0 	0 	0
YB+2_S6   	0 	0 	0 	0
YB+2_S7   	0 	0 	531 	0
YB+2_S8   	0 	0 	0 	0
YB+2_S9   	0 	0 	0 	0
YB+2_S10   	0 	0 	0 	0 	0
YB+2_S11   	0 	2 	0 	0
YB+2_S12   	0 	0 	0 	0
CH= 2 MOD= 70 BIAS= 38
YB+2_S1   	0 	0 	0 	0
YB+2_S2   	0 	0 	0 	0
YB+2_S3   	0 	0 	0 	0
YB+2_S4   	917 	0 	0 	184 	0
YB+2_S5   	0 	0 	0 	356
YB+2_S6   	8696 	0 	0 	0
YB+2_S7   	0 	0 	0 	0
YB+2_S8   	0 	0 	0 	0
YB+2_S9   	0 	0 	12 	0
YB+2_S10   	0 	0 	0 	0 	0
YB+2_S11   	0 	0 	0 	24092
YB+2_S12   	0 	0 	0 	30
YB+2_S1   	0 	49 	0 	0
YB+2_S2   	0 	0 	0 	0
YB+2_S3   	0 	0 	0 	0
YB+2_S4   	2533 	0 	0 	0 	0
YB+2_S5   	0 	0 	0 	0
YB+2_S6   	0 	0 	0 	0
YB+2_S7   	0 	0 	11770 	0
YB+2_S8   	0 	0 	0 	0
YB+2_S9   	0 	0 	0 	0
YB+2_S10   	0 	0 	0 	0 	0
YB+2_S11   	0 	18 	0 	0
YB+2_S12   	0 	0 	0 	0
CH= 2 MOD= 70 BIAS= 42
YB+2_S1   	0 	0 	0 	0
YB+2_S2   	0 	0 	12 	0
YB+2_S3   	0 	0 	0 	0
YB+2_S4   	721 	0 	0 	5649 	0
YB+2_S5   	944 	0 	1 	13298
YB+2_S6   	35763 	0 	78 	0
YB+2_S7   	0 	0 	0 	0
YB+2_S8   	0 	1 	0 	0
YB+2_S9   	0 	0 	5 	0
YB+2_S10   	0 	1 	0 	0 	0
YB+2_S11   	0 	0 	0 	-24318
YB+2_S12   	0 	0 	0 	237
YB+2_S1   	0 	5952 	0 	0
YB+2_S2   	0 	0 	0 	0
YB+2_S3   	0 	8 	0 	0
YB+2_S4   	-45578 	0 	0 	0 	0
YB+2_S5   	0 	0 	0 	0
YB+2_S6   	0 	0 	0 	0
YB+2_S7   	0 	0 	-23074 	0
YB+2_S8   	0 	0 	0 	0
YB+2_S9   	0 	0 	0 	0
YB+2_S10   	0 	0 	1 	0 	0
YB+2_S11   	0 	-52294 	0 	0
YB+2_S12   	0 	0 	0 	0
CH= 2 MOD= 70 BIAS= 46
YB+2_S1   	0 	0 	0 	0
YB+2_S2   	0 	0 	140 	0
YB+2_S3   	0 	0 	0 	0
YB+2_S4   	18968 	0 	1 	18400 	0
YB+2_S5   	1801 	0 	966 	-11289
YB+2_S6   	11583 	0 	2806 	0
YB+2_S7   	0 	0 	0 	0
YB+2_S8   	0 	1 	0 	0
YB+2_S9   	0 	0 	12 	0
YB+2_S10   	0 	643 	0 	0 	0
YB+2_S11   	681 	0 	0 	-13763
YB+2_S12   	1126 	0 	0 	3552
YB+2_S1   	27 	56179 	0 	0
YB+2_S2   	0 	0 	0 	0
YB+2_S3   	0 	2358 	0 	0
YB+2_S4   	-9582 	0 	0 	0 	0
YB+2_S5   	0 	0 	0 	0
YB+2_S6   	0 	0 	0 	0
YB+2_S7   	0 	534 	14947 	0
YB+2_S8   	0 	0 	0 	0
YB+2_S9   	0 	0 	0 	0
YB+2_S10   	0 	0 	106 	0 	0
YB+2_S11   	0 	26506 	0 	0
YB+2_S12   	0 	0 	0 	0
CH= 2 MOD= 80 BIAS= 18
YB+2_S1   	0 	0 	0 	0
YB+2_S2   	0 	0 	0 	0
YB+2_S3   	1 	0 	0 	0
YB+2_S4   	0 	0 	0 	0 	0
YB+2_S5   	0 	0 	0 	0
YB+2_S6   	0 	0 	0 	0
YB+2_S7   	0 	0 	0 	0
YB+2_S8   	0 	0 	0 	0
YB+2_S9   	0 	0 	6 	0
YB+2_S10   	0 	0 	0 	0 	0
YB+2_S11   	0 	0 	0 	0
YB+2_S12   	0 	0 	0 	0
YB+2_S1   	0 	0 	0 	0
YB+2_S2   	0 	0 	0 	0
YB+2_S3   	0 	0 	0 	12053
YB+2_S4   	0 	0 	0 	0 	0
YB+2_S5   	0 	0 	0 	0
YB+2_S6   	0 	0 	0 	7
YB+2_S7   	0 	0 	2298 	100
YB+2_S8   	0 	0 	0 	4
YB+2_S9   	0 	0 	0 	0
YB+2_S10   	0 	0 	0 	0 	0
YB+2_S11   	0 	0 	0 	0
YB+2_S12   	0 	0 	0 	0
CH= 2 MOD= 80 BIAS= 22
YB+2_S1   	0 	0 	0 	0
YB+2_S2   	0 	0 	0 	0
YB+2_S3   	1 	0 	0 	0
YB+2_S4   	0 	0 	0 	0 	0
YB+2_S5   	0 	0 	0 	0
YB+2_S6   	0 	0 	0 	0
YB+2_S7   	0 	0 	0 	0
YB+2_S8   	0 	0 	0 	0
YB+2_S9   	0 	0 	6 	0
YB+2_S10   	0 	0 	0 	0 	0
YB+2_S11   	0 	0 	0 	0
YB+2_S12   	0 	0 	0 	0
YB+2_S1   	0 	0 	0 	0
YB+2_S2   	0 	0 	0 	0
YB+2_S3   	0 	0 	0 	0
YB+2_S4   	0 	0 	0 	0 	0
YB+2_S5   	0 	0 	0 	0
YB+2_S6   	0 	0 	0 	0
YB+2_S7   	0 	0 	396 	0
YB+2_S8   	0 	0 	0 	0
YB+2_S9   	0 	0 	0 	0
YB+2_S10   	0 	0 	0 	0 	0
YB+2_S11   	0 	0 	0 	0
YB+2_S12   	0 	0 	0 	0
CH= 2 MOD= 80 BIAS= 26
YB+2_S1   	0 	0 	0 	0
YB+2_S2   	0 	0 	0 	0
YB+2_S3   	1 	0 	0 	0
YB+2_S4   	0 	0 	0 	0 	0
YB+2_S5   	0 	0 	0 	0
YB+2_S6   	3 	0 	0 	0
YB+2_S7   	0 	0 	0 	0
YB+2_S8   	0 	0 	0 	0
YB+2_S9   	0 	0 	8 	0
YB+2_S10   	0 	0 	0 	0 	0
YB+2_S11   	0 	0 	0 	0
YB+2_S12   	0 	0 	0 	0
YB+2_S1   	0 	0 	0 	0
YB+2_S2   	0 	0 	0 	0
YB+2_S3   	0 	0 	0 	0
YB+2_S4   	0 	0 	0 	0 	0
YB+2_S5   	0 	0 	0 	0
YB+2_S6   	0 	0 	0 	0
YB+2_S7   	0 	0 	4615 	0
YB+2_S8   	0 	0 	0 	0
YB+2_S9   	0 	0 	0 	0
YB+2_S10   	0 	0 	0 	0 	0
YB+2_S11   	0 	0 	0 	0
YB+2_S12   	0 	0 	0 	0
CH= 2 MOD= 80 BIAS= 30
YB+2_S1   	0 	0 	0 	0
YB+2_S2   	0 	0 	0 	0
YB+2_S3   	1 	0 	0 	0
YB+2_S4   	0 	0 	1484 	7 	0
YB+2_S5   	0 	0 	0 	283
YB+2_S6   	8684 	0 	0 	0
YB+2_S7   	0 	0 	0 	0
YB+2_S8   	0 	26 	0 	0
YB+2_S9   	0 	0 	7 	0
YB+2_S10   	0 	0 	0 	0 	0
YB+2_S11   	0 	0 	0 	0
YB+2_S12   	0 	0 	0 	160
YB+2_S1   	0 	61 	0 	0
YB+2_S2   	0 	0 	0 	0
YB+2_S3   	0 	0 	0 	0
YB+2_S4   	33 	0 	0 	0 	0
YB+2_S5   	0 	0 	0 	0
YB+2_S6   	0 	0 	0 	0
YB+2_S7   	0 	0 	-27303 	0
YB+2_S8   	0 	0 	0 	0
YB+2_S9   	0 	0 	0 	0
YB+2_S10   	0 	0 	0 	0 	0
YB+2_S11   	0 	200 	0 	0
YB+2_S12   	0 	0 	0 	0
CH= 2 MOD= 80 BIAS= 34
YB+2_S1   	0 	0 	0 	0
YB+2_S2   	0 	0 	1 	0
YB+2_S3   	0 	0 	0 	0
YB+2_S4   	39 	0 	29 	177 	0
YB+2_S5   	0 	0 	0 	162
YB+2_S6   	1586 	0 	0 	0
YB+2_S7   	0 	0 	0 	0
YB+2_S8   	0 	97 	0 	0
YB+2_S9   	0 	0 	11 	0
YB+2_S10   	0 	0 	0 	0 	0
YB+2_S11   	0 	0 	0 	0
YB+2_S12   	0 	0 	0 	459
YB+2_S1   	0 	278 	0 	0
YB+2_S2   	0 	0 	0 	0
YB+2_S3   	0 	0 	0 	0
YB+2_S4   	485 	0 	0 	1 	0
YB+2_S5   	0 	0 	0 	0
YB+2_S6   	0 	0 	0 	0
YB+2_S7   	0 	0 	-62228 	0
YB+2_S8   	0 	0 	0 	0
YB+2_S9   	0 	0 	0 	0
YB+2_S10   	0 	0 	0 	0 	0
YB+2_S11   	0 	38 	0 	0
YB+2_S12   	0 	0 	0 	0
CH= 2 MOD= 80 BIAS= 38
YB+2_S1   	0 	0 	0 	0
YB+2_S2   	0 	0 	2 	0
YB+2_S3   	0 	0 	0 	0
YB+2_S4   	-61180 	0 	0 	2785 	0
YB+2_S5   	1 	0 	0 	4003
YB+2_S6   	21840 	0 	0 	0
YB+2_S7   	0 	0 	0 	0
YB+2_S8   	26 	3 	0 	0
YB+2_S9   	0 	0 	7 	0
YB+2_S10   	0 	0 	0 	0 	0
YB+2_S11   	0 	0 	0 	26217
YB+2_S12   	0 	0 	0 	2140
YB+2_S1   	0 	1422 	9 	0
YB+2_S2   	0 	0 	0 	0
YB+2_S3   	0 	0 	0 	0
YB+2_S4   	-52947 	0 	0 	0 	0
YB+2_S5   	0 	0 	0 	0
YB+2_S6   	0 	0 	0 	0
YB+2_S7   	0 	0 	-31209 	0
YB+2_S8   	0 	0 	0 	0
YB+2_S9   	0 	0 	0 	0
YB+2_S10   	0 	0 	1 	0 	0
YB+2_S11   	0 	717 	0 	0
YB+2_S12   	0 	0 	0 	0
CH= 2 MOD= 80 BIAS= 42
YB+2_S1   	0 	0 	0 	0
YB+2_S2   	0 	0 	29 	0
YB+2_S3   	0 	0 	0 	0
YB+2_S4   	9613 	0 	0 	3524 	0
YB+2_S5   	4577 	0 	14 	29758
YB+2_S6   	-30814 	0 	126 	0
YB+2_S7   	0 	0 	0 	0
YB+2_S8   	40 	9 	0 	0
YB+2_S9   	0 	0 	10 	0
YB+2_S10   	0 	19 	0 	0 	0
YB+2_S11   	56 	0 	0 	6993
YB+2_S12   	32 	0 	0 	9660
YB+2_S1   	5 	-7552 	0 	0
YB+2_S2   	0 	0 	0 	0
YB+2_S3   	0 	90 	0 	0
YB+2_S4   	31538 	0 	0 	0 	0
YB+2_S5   	0 	0 	0 	0
YB+2_S6   	0 	0 	0 	0
YB+2_S7   	0 	2 	-5182 	0
YB+2_S8   	0 	0 	0 	0
YB+2_S9   	0 	0 	0 	0
YB+2_S10   	0 	0 	16 	0 	0
YB+2_S11   	0 	-15554 	0 	0
YB+2_S12   	0 	0 	0 	0
CH= 2 MOD= 80 BIAS= 46
YB+2_S1   	0 	0 	0 	0
YB+2_S2   	0 	0 	233 	0
YB+2_S3   	0 	0 	0 	0
YB+2_S4   	-12488 	0 	22 	-60145 	0
YB+2_S5   	-26587 	2 	2725 	-16031
YB+2_S6   	37102 	0 	2473 	0
YB+2_S7   	0 	1 	0 	0
YB+2_S8   	26 	105 	0 	0
YB+2_S9   	0 	0 	5 	2
YB+2_S10   	0 	7197 	5 	0 	0
YB+2_S11   	6456 	0 	0 	27610
YB+2_S12   	3780 	0 	3 	58815
YB+2_S1   	301 	15832 	0 	0
YB+2_S2   	0 	0 	0 	0
YB+2_S3   	0 	-34135 	14 	0
YB+2_S4   	6799 	0 	0 	0 	0
YB+2_S5   	0 	0 	0 	0
YB+2_S6   	0 	0 	2 	0
YB+2_S7   	0 	1989 	3257 	0
YB+2_S8   	0 	0 	0 	0
YB+2_S9   	0 	0 	0 	1
YB+2_S10   	1 	0 	1477 	0 	0
YB+2_S11   	72 	-31543 	0 	0
YB+2_S12   	0 	0 	0 	0
CH= 2 MOD= 90 BIAS= 18
YB+2_S1   	0 	0 	0 	0
YB+2_S2   	0 	0 	0 	0
YB+2_S3   	0 	0 	0 	0
YB+2_S4   	0 	0 	0 	0 	0
YB+2_S5   	0 	0 	0 	0
YB+2_S6   	0 	0 	0 	0
YB+2_S7   	0 	0 	0 	0
YB+2_S8   	0 	0 	0 	0
YB+2_S9   	0 	0 	15 	0
YB+2_S10   	0 	0 	0 	0 	0
YB+2_S11   	0 	0 	0 	0
YB+2_S12   	0 	0 	0 	0
YB+2_S1   	0 	0 	0 	0
YB+2_S2   	0 	0 	0 	0
YB+2_S3   	0 	0 	0 	22683
YB+2_S4   	0 	0 	1 	0 	0
YB+2_S5   	0 	0 	0 	0
YB+2_S6   	0 	0 	0 	10
YB+2_S7   	0 	0 	235 	201
YB+2_S8   	0 	0 	0 	2
YB+2_S9   	0 	0 	0 	0
YB+2_S10   	0 	0 	0 	0 	0
YB+2_S11   	0 	0 	0 	0
YB+2_S12   	0 	0 	0 	0
CH= 2 MOD= 90 BIAS= 22
YB+2_S1   	0 	0 	0 	0
YB+2_S2   	0 	0 	0 	0
YB+2_S3   	0 	0 	0 	0
YB+2_S4   	0 	0 	0 	0 	0
YB+2_S5   	0 	0 	0 	0
YB+2_S6   	0 	0 	0 	0
YB+2_S7   	0 	0 	0 	0
YB+2_S8   	0 	0 	0 	0
YB+2_S9   	0 	0 	8 	0
YB+2_S10   	0 	0 	0 	0 	0
YB+2_S11   	0 	0 	0 	0
YB+2_S12   	0 	0 	0 	1
YB+2_S1   	0 	0 	0 	0
YB+2_S2   	0 	0 	0 	0
YB+2_S3   	0 	0 	0 	0
YB+2_S4   	0 	0 	0 	0 	0
YB+2_S5   	0 	0 	0 	0
YB+2_S6   	0 	0 	0 	0
YB+2_S7   	0 	0 	120 	0
YB+2_S8   	0 	0 	0 	0
YB+2_S9   	0 	0 	0 	0
YB+2_S10   	0 	0 	0 	0 	0
YB+2_S11   	0 	0 	0 	0
YB+2_S12   	0 	0 	0 	0
CH= 2 MOD= 90 BIAS= 26
YB+2_S1   	0 	0 	0 	0
YB+2_S2   	0 	0 	0 	0
YB+2_S3   	0 	0 	0 	0
YB+2_S4   	0 	0 	0 	0 	0
YB+2_S5   	0 	0 	0 	9
YB+2_S6   	6 	0 	0 	0
YB+2_S7   	0 	0 	0 	0
YB+2_S8   	0 	0 	0 	0
YB+2_S9   	0 	0 	10 	0
YB+2_S10   	0 	0 	0 	0 	0
YB+2_S11   	0 	0 	0 	0
YB+2_S12   	0 	0 	0 	14
YB+2_S1   	0 	0 	0 	0
YB+2_S2   	0 	0 	0 	0
YB+2_S3   	0 	0 	0 	0
YB+2_S4   	1 	0 	0 	0 	0
YB+2_S5   	0 	0 	0 	0
YB+2_S6   	0 	0 	0 	0
YB+2_S7   	0 	0 	10497 	0
YB+2_S8   	0 	0 	0 	0
YB+2_S9   	0 	0 	0 	0
YB+2_S10   	0 	0 	0 	0 	0
YB+2_S11   	0 	13 	0 	0
YB+2_S12   	0 	0 	0 	0
CH= 2 MOD= 90 BIAS= 30
YB+2_S1   	0 	0 	0 	0
YB+2_S2   	0 	0 	0 	0
YB+2_S3   	0 	0 	0 	0
YB+2_S4   	64 	0 	42834 	-64277 	0
YB+2_S5   	0 	0 	0 	3644
YB+2_S6   	-56583 	0 	0 	0
YB+2_S7   	0 	0 	0 	0
YB+2_S8   	0 	106 	0 	0
YB+2_S9   	0 	0 	8 	0
YB+2_S10   	0 	0 	0 	0 	0
YB+2_S11   	0 	0 	0 	0
YB+2_S12   	0 	3 	0 	3816
YB+2_S1   	0 	445 	0 	0
YB+2_S2   	0 	0 	0 	0
YB+2_S3   	0 	0 	0 	0
YB+2_S4   	397 	0 	0 	3 	0
YB+2_S5   	0 	0 	0 	0
YB+2_S6   	0 	0 	0 	0
YB+2_S7   	0 	0 	-2833 	0
YB+2_S8   	0 	0 	0 	0
YB+2_S9   	0 	0 	0 	0
YB+2_S10   	0 	0 	0 	0 	0
YB+2_S11   	0 	13412 	0 	0
YB+2_S12   	0 	0 	0 	0
CH= 2 MOD= 90 BIAS= 34
YB+2_S1   	0 	0 	0 	0
YB+2_S2   	0 	0 	2 	0
YB+2_S3   	0 	0 	0 	0
YB+2_S4   	432 	0 	785 	10322 	0
YB+2_S5   	2 	4 	0 	2834
YB+2_S6   	23611 	0 	0 	0
YB+2_S7   	0 	0 	0 	0
YB+2_S8   	37 	757 	0 	0
YB+2_S9   	0 	0 	9 	0
YB+2_S10   	0 	0 	4 	0 	0
YB+2_S11   	1 	0 	0 	0
YB+2_S12   	0 	0 	0 	36159
YB+2_S1   	1 	7094 	0 	0
YB+2_S2   	0 	0 	0 	0
YB+2_S3   	0 	11 	0 	0
YB+2_S4   	6002 	0 	0 	215 	0
YB+2_S5   	0 	0 	0 	0
YB+2_S6   	0 	0 	0 	0
YB+2_S7   	0 	0 	16907 	0
YB+2_S8   	0 	0 	0 	0
YB+2_S9   	0 	0 	0 	0
YB+2_S10   	0 	0 	0 	0 	0
YB+2_S11   	0 	8130 	0 	0
YB+2_S12   	0 	0 	0 	0
CH= 2 MOD= 90 BIAS= 38
YB+2_S1   	0 	0 	0 	0
YB+2_S2   	0 	0 	13 	0
YB+2_S3   	2 	0 	0 	6
YB+2_S4   	-35421 	0 	10 	17273 	0
YB+2_S5   	299 	0 	0 	23868
YB+2_S6   	26943 	0 	2 	0
YB+2_S7   	0 	0 	0 	0
YB+2_S8   	-61015 	125 	0 	0
YB+2_S9   	0 	0 	5 	0
YB+2_S10   	0 	1 	1 	0 	0
YB+2_S11   	0 	0 	0 	-30272
YB+2_S12   	0 	0 	2 	12997
YB+2_S1   	1 	-28899 	1052 	0
YB+2_S2   	0 	0 	0 	0
YB+2_S3   	0 	29 	8 	0
YB+2_S4   	-19012 	0 	0 	32 	0
YB+2_S5   	0 	0 	0 	0
YB+2_S6   	0 	0 	0 	0
YB+2_S7   	0 	0 	45426 	0
YB+2_S8   	0 	0 	0 	0
YB+2_S9   	0 	0 	0 	0
YB+2_S10   	0 	0 	12 	0 	0
YB+2_S11   	0 	42849 	0 	0
YB+2_S12   	0 	0 	0 	0
CH= 2 MOD= 90 BIAS= 42
YB+2_S1   	0 	0 	0 	0
YB+2_S2   	0 	0 	559 	0
YB+2_S3   	1 	0 	0 	28
YB+2_S4   	-40754 	6 	71 	9183 	0
YB+2_S5   	-43582 	0 	142 	-27825
YB+2_S6   	12763 	0 	240 	1
YB+2_S7   	0 	1 	0 	0
YB+2_S8   	8462 	447 	0 	0
YB+2_S9   	0 	0 	8 	25
YB+2_S10   	0 	452 	4 	0 	0
YB+2_S11   	3509 	34 	0 	47490
YB+2_S12   	701 	0 	4 	-43756
YB+2_S1   	157 	-14197 	55 	0
YB+2_S2   	0 	0 	0 	0
YB+2_S3   	0 	568 	11 	0
YB+2_S4   	2959 	0 	0 	5 	0
YB+2_S5   	0 	0 	0 	0
YB+2_S6   	0 	0 	0 	0
YB+2_S7   	0 	132 	867 	0
YB+2_S8   	0 	16 	0 	0
YB+2_S9   	0 	0 	0 	0
YB+2_S10   	0 	0 	601 	0 	0
YB+2_S11   	4 	34161 	0 	0
YB+2_S12   	3 	0 	0 	0
CH= 2 MOD= 90 BIAS= 46
YB+2_S1   	2 	0 	0 	0
YB+2_S2   	0 	0 	2490 	0
YB+2_S3   	0 	1 	0 	88
YB+2_S4   	-26659 	11 	772 	14504 	0
YB+2_S5   	-21503 	68 	9327 	-15771
YB+2_S6   	-12107 	0 	5208 	140
YB+2_S7   	0 	20 	0 	0
YB+2_S8   	8846 	5354 	0 	0
YB+2_S9   	0 	0 	10 	150
YB+2_S10   	0 	-56497 	148 	0 	0
YB+2_S11   	15077 	0 	0 	-52232
YB+2_S12   	16657 	0 	296 	35834
YB+2_S1   	-45436 	-52825 	49 	0
YB+2_S2   	0 	9 	0 	0
YB+2_S3   	0 	30922 	946 	0
YB+2_S4   	52484 	0 	22 	135 	0
YB+2_S5   	28 	0 	0 	0
YB+2_S6   	0 	0 	115 	0
YB+2_S7   	0 	14036 	38215 	0
YB+2_S8   	0 	3 	0 	0
YB+2_S9   	0 	0 	0 	94
YB+2_S10   	8 	0 	23570 	0 	0
YB+2_S11   	1094 	-4664 	0 	0
YB+2_S12   	78 	4 	0 	0
CH= 2 MOD= 100 BIAS= 18
YB+2_S1   	0 	0 	0 	0
YB+2_S2   	0 	0 	0 	0
YB+2_S3   	0 	0 	0 	0
YB+2_S4   	0 	0 	0 	0 	0
YB+2_S5   	0 	0 	0 	0
YB+2_S6   	0 	0 	0 	0
YB+2_S7   	0 	0 	0 	0
YB+2_S8   	0 	0 	0 	0
YB+2_S9   	0 	0 	12 	0
YB+2_S10   	0 	0 	0 	0 	0
YB+2_S11   	0 	0 	0 	0
YB+2_S12   	0 	0 	0 	0
YB+2_S1   	0 	0 	0 	0
YB+2_S2   	0 	0 	0 	0
YB+2_S3   	0 	0 	0 	-37979
YB+2_S4   	0 	0 	0 	0 	0
YB+2_S5   	0 	0 	0 	0
YB+2_S6   	0 	0 	0 	3
YB+2_S7   	0 	0 	257 	290
YB+2_S8   	0 	0 	0 	1
YB+2_S9   	0 	0 	0 	0
YB+2_S10   	0 	0 	0 	0 	0
YB+2_S11   	0 	0 	0 	0
YB+2_S12   	0 	0 	0 	0
CH= 2 MOD= 100 BIAS= 22
YB+2_S1   	0 	0 	0 	0
YB+2_S2   	0 	0 	0 	0
YB+2_S3   	0 	0 	0 	0
YB+2_S4   	0 	0 	0 	0 	0
YB+2_S5   	0 	0 	0 	0
YB+2_S6   	0 	0 	0 	0
YB+2_S7   	0 	0 	0 	0
YB+2_S8   	0 	0 	0 	0
YB+2_S9   	0 	0 	11 	0
YB+2_S10   	0 	0 	0 	0 	0
YB+2_S11   	0 	0 	0 	0
YB+2_S12   	0 	0 	0 	0
YB+2_S1   	0 	0 	0 	0
YB+2_S2   	0 	0 	0 	0
YB+2_S3   	0 	0 	0 	0
YB+2_S4   	0 	0 	0 	0 	0
YB+2_S5   	0 	0 	0 	0
YB+2_S6   	0 	0 	0 	0
YB+2_S7   	0 	0 	794 	0
YB+2_S8   	0 	0 	0 	0
YB+2_S9   	0 	0 	0 	0
YB+2_S10   	0 	0 	0 	0 	0
YB+2_S11   	0 	0 	0 	0
YB+2_S12   	0 	0 	0 	0
CH= 2 MOD= 100 BIAS= 26
YB+2_S1   	0 	0 	0 	0
YB+2_S2   	0 	0 	0 	0
YB+2_S3   	0 	0 	0 	0
YB+2_S4   	0 	0 	0 	7 	0
YB+2_S5   	0 	0 	0 	109
YB+2_S6   	427 	0 	0 	0
YB+2_S7   	0 	0 	0 	0
YB+2_S8   	1 	0 	0 	0
YB+2_S9   	0 	0 	5 	0
YB+2_S10   	0 	0 	0 	0 	0
YB+2_S11   	0 	0 	0 	0
YB+2_S12   	0 	0 	0 	942
YB+2_S1   	0 	6 	141 	0
YB+2_S2   	0 	0 	0 	0
YB+2_S3   	0 	0 	0 	0
YB+2_S4   	2 	0 	0 	0 	0
YB+2_S5   	0 	0 	0 	0
YB+2_S6   	0 	0 	0 	0
YB+2_S7   	0 	0 	-14353 	0
YB+2_S8   	0 	0 	0 	0
YB+2_S9   	0 	0 	0 	0
YB+2_S10   	0 	0 	0 	0 	0
YB+2_S11   	0 	1876 	0 	0
YB+2_S12   	0 	0 	0 	0
CH= 2 MOD= 100 BIAS= 30
YB+2_S1   	0 	0 	0 	0
YB+2_S2   	0 	0 	0 	0
YB+2_S3   	10 	0 	0 	1
YB+2_S4   	3639 	0 	-1127 	29185 	0
YB+2_S5   	17 	0 	0 	36413
YB+2_S6   	29706 	0 	0 	0
YB+2_S7   	0 	0 	0 	0
YB+2_S8   	48 	601 	0 	0
YB+2_S9   	0 	0 	14 	0
YB+2_S10   	0 	0 	0 	0 	0
YB+2_S11   	0 	0 	0 	1
YB+2_S12   	0 	2 	0 	44444
YB+2_S1   	0 	3738 	7 	0
YB+2_S2   	0 	0 	0 	0
YB+2_S3   	0 	0 	0 	0
YB+2_S4   	2115 	0 	0 	43 	0
YB+2_S5   	0 	0 	0 	0
YB+2_S6   	0 	0 	0 	0
YB+2_S7   	0 	0 	16432 	0
YB+2_S8   	0 	0 	0 	0
YB+2_S9   	0 	0 	0 	0
YB+2_S10   	0 	0 	0 	0 	0
YB+2_S11   	0 	16683 	0 	0
YB+2_S12   	7 	0 	0 	0
CH= 2 MOD= 100 BIAS= 34
YB+2_S1   	0 	0 	0 	0
YB+2_S2   	0 	0 	37 	0
YB+2_S3   	1 	0 	0 	103
YB+2_S4   	4575 	0 	9666 	36495 	0
YB+2_S5   	1236 	24 	0 	-18284
YB+2_S6   	-13374 	0 	1 	0
YB+2_S7   	0 	3 	0 	0
YB+2_S8   	4548 	4529 	0 	0
YB+2_S9   	0 	0 	8 	1
YB+2_S10   	0 	0 	88 	0 	0
YB+2_S11   	29 	0 	0 	1
YB+2_S12   	0 	0 	0 	59161
YB+2_S1   	9 	-43791 	9 	0
YB+2_S2   	0 	0 	0 	0
YB+2_S3   	0 	37 	14 	0
YB+2_S4   	29154 	0 	0 	3530 	0
YB+2_S5   	6 	0 	0 	0
YB+2_S6   	0 	0 	0 	0
YB+2_S7   	0 	0 	2514 	0
YB+2_S8   	0 	0 	0 	0
YB+2_S9   	0 	0 	0 	0
YB+2_S10   	0 	0 	5 	0 	0
YB+2_S11   	0 	-462 	0 	0
YB+2_S12   	14 	0 	0 	0
CH= 2 MOD= 100 BIAS= 38
YB+2_S1   	1 	0 	0 	0
YB+2_S2   	0 	0 	195 	0
YB+2_S3   	2 	0 	0 	958
YB+2_S4   	12829 	10 	172 	7268 	0
YB+2_S5   	21708 	1 	1 	-201
YB+2_S6   	-2969 	0 	2 	0
YB+2_S7   	0 	2 	0 	0
YB+2_S8   	9173 	2601 	0 	0
YB+2_S9   	0 	0 	10 	29
YB+2_S10   	0 	10 	158 	0 	0
YB+2_S11   	56 	66 	0 	64215
YB+2_S12   	2 	0 	89 	-35049
YB+2_S1   	91 	11919 	19418 	0
YB+2_S2   	0 	0 	0 	0
YB+2_S3   	0 	1738 	159 	0
YB+2_S4   	-3223 	0 	0 	1469 	0
YB+2_S5   	-65529 	0 	0 	0
YB+2_S6   	0 	2 	0 	0
YB+2_S7   	0 	7 	8782 	0
YB+2_S8   	0 	0 	0 	0
YB+2_S9   	1 	0 	0 	12
YB+2_S10   	25 	0 	315 	0 	0
YB+2_S11   	0 	-28226 	0 	0
YB+2_S12   	112 	0 	0 	0
CH= 2 MOD= 100 BIAS= 42
YB+2_S1   	32 	0 	0 	0
YB+2_S2   	0 	0 	4529 	0
YB+2_S3   	6 	5 	0 	8928
YB+2_S4   	25051 	109 	1585 	4989 	0
YB+2_S5   	35599 	5 	1079 	-46544
YB+2_S6   	-35782 	0 	822 	62
YB+2_S7   	4 	106 	0 	0
YB+2_S8   	-49728 	11295 	0 	0
YB+2_S9   	0 	0 	14 	1213
YB+2_S10   	0 	-54284 	562 	0 	0
YB+2_S11   	24167 	680 	0 	19173
YB+2_S12   	5144 	28 	318 	-31660
YB+2_S1   	2745 	14650 	7450 	0
YB+2_S2   	3 	5 	0 	0
YB+2_S3   	0 	2929 	1235 	0
YB+2_S4   	57319 	0 	0 	509 	0
YB+2_S5   	9 	0 	4 	0
YB+2_S6   	0 	2 	1 	0
YB+2_S7   	0 	963 	11586 	0
YB+2_S8   	0 	105 	0 	0
YB+2_S9   	19 	1 	0 	5
YB+2_S10   	31 	0 	7264 	0 	0
YB+2_S11   	161 	-22619 	0 	0
YB+2_S12   	853 	1 	0 	0
CH= 2 MOD= 100 BIAS= 46
YB+2_S1   	45 	0 	0 	0
YB+2_S2   	0 	0 	-42885 	0
YB+2_S3   	5 	24 	0 	-53464
YB+2_S4   	31753 	68 	11702 	11222 	0
YB+2_S5   	35339 	275 	-40502 	35797
YB+2_S6   	2402 	0 	5339 	2625
YB+2_S7   	0 	478 	0 	0
YB+2_S8   	23048 	-21829 	0 	1
YB+2_S9   	0 	0 	12 	4195
YB+2_S10   	0 	1467 	2180 	0 	0
YB+2_S11   	28936 	156 	1 	13403
YB+2_S12   	41451 	1 	8167 	25692
YB+2_S1   	-33436 	42771 	892 	0
YB+2_S2   	23 	333 	0 	0
YB+2_S3   	0 	25584 	19348 	0
YB+2_S4   	2007 	0 	1432 	3938 	0
YB+2_S5   	14378 	15 	40 	0
YB+2_S6   	0 	2 	1137 	0
YB+2_S7   	87 	2155 	6405 	0
YB+2_S8   	0 	141 	0 	0
YB+2_S9   	0 	64 	1 	1143
YB+2_S10   	195 	0 	2535 	0 	0
YB+2_S11   	2494 	35127 	1 	0
YB+2_S12   	3803 	69 	0 	0
CH= 2 MOD= 110 BIAS= 18
YB+2_S1   	0 	0 	0 	0
YB+2_S2   	0 	0 	0 	0
YB+2_S3   	0 	0 	0 	0
YB+2_S4   	0 	0 	0 	0 	0
YB+2_S5   	0 	0 	0 	0
YB+2_S6   	0 	0 	0 	0
YB+2_S7   	0 	0 	0 	0
YB+2_S8   	0 	0 	0 	0
YB+2_S9   	0 	0 	20 	0
YB+2_S10   	0 	0 	0 	0 	0
YB+2_S11   	0 	0 	0 	0
YB+2_S12   	0 	0 	0 	0
YB+2_S1   	0 	0 	0 	0
YB+2_S2   	0 	0 	0 	0
YB+2_S3   	0 	0 	0 	-7091
YB+2_S4   	0 	0 	0 	0 	0
YB+2_S5   	0 	0 	0 	0
YB+2_S6   	0 	0 	0 	6
YB+2_S7   	0 	0 	952 	347
YB+2_S8   	0 	0 	0 	4
YB+2_S9   	0 	0 	0 	0
YB+2_S10   	0 	0 	0 	0 	0
YB+2_S11   	0 	0 	0 	0
YB+2_S12   	0 	0 	0 	0
CH= 2 MOD= 110 BIAS= 22
YB+2_S1   	0 	0 	0 	0
YB+2_S2   	0 	0 	0 	0
YB+2_S3   	0 	0 	0 	3
YB+2_S4   	0 	0 	0 	0 	0
YB+2_S5   	0 	0 	0 	0
YB+2_S6   	0 	0 	0 	0
YB+2_S7   	0 	0 	0 	0
YB+2_S8   	0 	0 	0 	0
YB+2_S9   	0 	0 	14 	0
YB+2_S10   	0 	0 	0 	0 	0
YB+2_S11   	0 	0 	0 	0
YB+2_S12   	0 	0 	0 	0
YB+2_S1   	0 	0 	0 	0
YB+2_S2   	0 	0 	0 	0
YB+2_S3   	0 	0 	0 	0
YB+2_S4   	0 	0 	0 	0 	0
YB+2_S5   	0 	0 	0 	0
YB+2_S6   	0 	0 	0 	0
YB+2_S7   	0 	0 	1195 	0
YB+2_S8   	0 	0 	0 	0
YB+2_S9   	0 	0 	0 	0
YB+2_S10   	0 	0 	0 	0 	0
YB+2_S11   	0 	0 	0 	0
YB+2_S12   	0 	0 	0 	0
CH= 2 MOD= 110 BIAS= 26
YB+2_S1   	0 	0 	0 	0
YB+2_S2   	0 	0 	0 	0
YB+2_S3   	0 	0 	0 	82
YB+2_S4   	0 	0 	18 	2624 	0
YB+2_S5   	0 	0 	0 	5322
YB+2_S6   	14918 	0 	0 	1
YB+2_S7   	0 	0 	0 	0
YB+2_S8   	338 	0 	0 	0
YB+2_S9   	0 	0 	10 	0
YB+2_S10   	0 	0 	0 	0 	0
YB+2_S11   	0 	0 	0 	0
YB+2_S12   	0 	0 	0 	-28315
YB+2_S1   	0 	114 	10779 	0
YB+2_S2   	18 	0 	0 	0
YB+2_S3   	0 	0 	0 	0
YB+2_S4   	38 	0 	0 	0 	0
YB+2_S5   	0 	0 	0 	0
YB+2_S6   	0 	0 	0 	0
YB+2_S7   	0 	0 	54855 	0
YB+2_S8   	0 	0 	0 	0
YB+2_S9   	1 	0 	0 	0
YB+2_S10   	0 	0 	0 	0 	0
YB+2_S11   	0 	3492 	0 	0
YB+2_S12   	0 	0 	0 	0
CH= 2 MOD= 110 BIAS= 30
YB+2_S1   	1 	0 	0 	0
YB+2_S2   	0 	0 	5 	0
YB+2_S3   	88 	0 	0 	269
YB+2_S4   	-22591 	0 	-22472 	27822 	0
YB+2_S5   	3383 	21 	0 	-32777
YB+2_S6   	-11503 	0 	3 	1
YB+2_S7   	0 	2 	0 	0
YB+2_S8   	12535 	5857 	0 	0
YB+2_S9   	0 	0 	13 	20
YB+2_S10   	0 	0 	27 	0 	0
YB+2_S11   	4 	0 	0 	16
YB+2_S12   	0 	59 	0 	-2383
YB+2_S1   	72 	-38134 	471 	0
YB+2_S2   	9 	0 	0 	0
YB+2_S3   	0 	11 	5 	0
YB+2_S4   	13554 	0 	0 	1865 	0
YB+2_S5   	0 	0 	0 	0
YB+2_S6   	0 	0 	0 	0
YB+2_S7   	0 	0 	-33317 	0
YB+2_S8   	0 	0 	0 	0
YB+2_S9   	0 	0 	0 	0
YB+2_S10   	0 	0 	6 	0 	0
YB+2_S11   	1 	-40434 	0 	0
YB+2_S12   	1121 	0 	0 	0
CH= 2 MOD= 110 BIAS= 34
YB+2_S1   	264 	0 	0 	0
YB+2_S2   	0 	0 	-64845 	0
YB+2_S3   	32 	0 	0 	9057
YB+2_S4   	-6192 	1 	3019 	18289 	0
YB+2_S5   	638 	466 	3 	-15930
YB+2_S6   	-20680 	0 	4 	8
YB+2_S7   	3 	59 	0 	0
YB+2_S8   	-11069 	27278 	0 	0
YB+2_S9   	0 	0 	10 	192
YB+2_S10   	3 	1 	883 	0 	0
YB+2_S11   	7930 	12 	0 	16
YB+2_S12   	18 	3 	9 	4558
YB+2_S1   	392 	-36382 	587 	0
YB+2_S2   	2 	8 	0 	0
YB+2_S3   	0 	324 	770 	0
YB+2_S4   	17734 	0 	0 	-8742 	0
YB+2_S5   	266 	0 	0 	0
YB+2_S6   	0 	0 	0 	0
YB+2_S7   	0 	0 	27142 	0
YB+2_S8   	0 	0 	0 	0
YB+2_S9   	3 	0 	0 	0
YB+2_S10   	5 	0 	434 	0 	0
YB+2_S11   	4 	20696 	0 	0
YB+2_S12   	1404 	0 	0 	0
CH= 2 MOD= 110 BIAS= 38
YB+2_S1   	136 	0 	0 	0
YB+2_S2   	1 	0 	4581 	0
YB+2_S3   	191 	1 	0 	-3063
YB+2_S4   	15816 	332 	3324 	-21773 	0
YB+2_S5   	20357 	26 	34 	-64757
YB+2_S6   	-19865 	0 	60 	776
YB+2_S7   	5 	368 	0 	0
YB+2_S8   	-38009 	-23907 	0 	0
YB+2_S9   	0 	0 	16 	3001
YB+2_S10   	0 	806 	21753 	0 	0
YB+2_S11   	14982 	1853 	0 	21352
YB+2_S12   	142 	0 	3413 	9466
YB+2_S1   	5583 	7084 	-22544 	0
YB+2_S2   	82 	61 	0 	0
YB+2_S3   	0 	40853 	6686 	0
YB+2_S4   	-19733 	0 	0 	-9615 	0
YB+2_S5   	858 	0 	0 	0
YB+2_S6   	0 	6 	0 	0
YB+2_S7   	1 	591 	-13877 	0
YB+2_S8   	0 	2 	0 	0
YB+2_S9   	46 	27 	0 	965
YB+2_S10   	1925 	0 	10215 	0 	0
YB+2_S11   	0 	-6438 	1 	0
YB+2_S12   	12006 	4 	0 	0
CH= 2 MOD= 110 BIAS= 42
YB+2_S1   	3446 	0 	1 	1
YB+2_S2   	0 	6 	16815 	0
YB+2_S3   	263 	36 	0 	4671
YB+2_S4   	7915 	1493 	-40833 	-1648 	0
YB+2_S5   	7552 	170 	7413 	-11319
YB+2_S6   	23698 	0 	3374 	-60460
YB+2_S7   	76 	6994 	8 	0
YB+2_S8   	18183 	-10219 	0 	0
YB+2_S9   	0 	0 	13 	-18485
YB+2_S10   	1 	-44667 	-19023 	1 	0
YB+2_S11   	35523 	11573 	0 	-1578
YB+2_S12   	20916 	363 	18435 	479
YB+2_S1   	19131 	-162 	-31938 	0
YB+2_S2   	844 	815 	0 	0
YB+2_S3   	1 	19302 	-22756 	0
YB+2_S4   	17760 	0 	1 	35335 	0
YB+2_S5   	1054 	4 	404 	0
YB+2_S6   	0 	7 	46 	0
YB+2_S7   	294 	10228 	35363 	0
YB+2_S8   	0 	3011 	4 	0
YB+2_S9   	2360 	1389 	0 	874
YB+2_S10   	5328 	0 	9645 	0 	0
YB+2_S11   	2128 	35041 	20 	0
YB+2_S12   	-13195 	134 	0 	0
CH= 2 MOD= 110 BIAS= 46
YB+2_S1   	-57371 	12 	0 	3
YB+2_S2   	0 	15 	29435 	0
YB+2_S3   	847 	490 	0 	-39005
YB+2_S4   	-26143 	1590 	49663 	-24638 	0
YB+2_S5   	-13671 	4201 	29245 	-43084
YB+2_S6   	-46649 	0 	-3481 	14701
YB+2_S7   	40 	-48841 	145 	0
YB+2_S8   	-11102 	35122 	0 	32
YB+2_S9   	121 	0 	13 	-4407
YB+2_S10   	2 	7754 	-16060 	8 	0
YB+2_S11   	16651 	7003 	28 	20953
YB+2_S12   	22921 	81 	-42584 	5068
YB+2_S1   	-7583 	-1657 	-2653 	0
YB+2_S2   	2666 	-51029 	13 	0
YB+2_S3   	23 	-28010 	-34857 	0
YB+2_S4   	-17581 	0 	24072 	22751 	0
YB+2_S5   	39814 	634 	2637 	0
YB+2_S6   	0 	143 	-52512 	0
YB+2_S7   	5986 	-31840 	-23163 	0
YB+2_S8   	1 	6011 	58 	0
YB+2_S9   	376 	18510 	21 	7117
YB+2_S10   	9218 	0 	3767 	0 	0
YB+2_S11   	-50467 	41922 	173 	0
YB+2_S12   	-8110 	4524 	0 	0
CH= 2 MOD= 120 BIAS= 18
YB+2_S1   	0 	0 	0 	0
YB+2_S2   	0 	0 	0 	0
YB+2_S3   	1 	0 	0 	0
YB+2_S4   	0 	0 	0 	0 	0
YB+2_S5   	0 	0 	0 	0
YB+2_S6   	0 	0 	0 	0
YB+2_S7   	0 	0 	0 	0
YB+2_S8   	0 	0 	0 	0
YB+2_S9   	0 	0 	14 	0
YB+2_S10   	0 	0 	0 	0 	0
YB+2_S11   	0 	0 	0 	0
YB+2_S12   	0 	0 	0 	0
YB+2_S1   	0 	0 	0 	0
YB+2_S2   	0 	0 	0 	0
YB+2_S3   	0 	0 	0 	-24347
YB+2_S4   	0 	0 	0 	0 	0
YB+2_S5   	0 	0 	0 	0
YB+2_S6   	0 	0 	0 	24
YB+2_S7   	0 	0 	1920 	330
YB+2_S8   	0 	0 	0 	0
YB+2_S9   	0 	0 	0 	0
YB+2_S10   	0 	0 	0 	0 	0
YB+2_S11   	0 	0 	0 	0
YB+2_S12   	0 	0 	0 	0
CH= 2 MOD= 120 BIAS= 22
YB+2_S1   	0 	0 	0 	0
YB+2_S2   	0 	0 	0 	0
YB+2_S3   	0 	0 	0 	0
YB+2_S4   	0 	0 	0 	0 	0
YB+2_S5   	2 	0 	0 	0
YB+2_S6   	0 	0 	0 	0
YB+2_S7   	0 	0 	0 	0
YB+2_S8   	0 	0 	0 	0
YB+2_S9   	0 	0 	10 	0
YB+2_S10   	0 	0 	0 	0 	0
YB+2_S11   	0 	0 	0 	0
YB+2_S12   	0 	0 	0 	0
YB+2_S1   	0 	1 	0 	0
YB+2_S2   	0 	0 	0 	0
YB+2_S3   	0 	0 	0 	0
YB+2_S4   	0 	0 	0 	0 	0
YB+2_S5   	0 	0 	0 	0
YB+2_S6   	0 	0 	0 	0
YB+2_S7   	0 	0 	170 	0
YB+2_S8   	0 	0 	0 	0
YB+2_S9   	0 	0 	0 	0
YB+2_S10   	0 	0 	0 	0 	0
YB+2_S11   	0 	3 	0 	0
YB+2_S12   	0 	0 	0 	0
CH= 2 MOD= 120 BIAS= 26
YB+2_S1   	1 	0 	0 	0
YB+2_S2   	0 	0 	0 	0
YB+2_S3   	1 	0 	0 	4324
YB+2_S4   	13 	0 	138 	-37235 	0
YB+2_S5   	19 	0 	0 	16892
YB+2_S6   	12576 	0 	1 	0
YB+2_S7   	0 	0 	0 	0
YB+2_S8   	-56689 	8 	0 	0
YB+2_S9   	0 	0 	8 	0
YB+2_S10   	0 	0 	6 	0 	0
YB+2_S11   	0 	0 	0 	0
YB+2_S12   	0 	0 	0 	-13911
YB+2_S1   	0 	802 	100 	0
YB+2_S2   	2342 	0 	0 	0
YB+2_S3   	0 	0 	0 	0
YB+2_S4   	388 	0 	0 	1 	0
YB+2_S5   	0 	0 	0 	0
YB+2_S6   	0 	0 	0 	0
YB+2_S7   	0 	0 	12109 	0
YB+2_S8   	0 	0 	0 	0
YB+2_S9   	11 	0 	0 	0
YB+2_S10   	0 	0 	0 	0 	0
YB+2_S11   	0 	-13619 	0 	0
YB+2_S12   	0 	0 	0 	0
CH= 2 MOD= 120 BIAS= 30
YB+2_S1   	175 	0 	0 	0
YB+2_S2   	0 	0 	107 	0
YB+2_S3   	240 	0 	0 	-49518
YB+2_S4   	-25556 	0 	-5316 	-38831 	0
YB+2_S5   	3865 	238 	0 	-3018
YB+2_S6   	-33987 	0 	2 	5
YB+2_S7   	0 	89 	0 	0
YB+2_S8   	28972 	-15197 	0 	0
YB+2_S9   	3 	0 	16 	864
YB+2_S10   	0 	2 	1220 	0 	0
YB+2_S11   	158 	0 	0 	142
YB+2_S12   	0 	237 	2 	43491
YB+2_S1   	-50580 	16763 	-52117 	0
YB+2_S2   	347 	16 	0 	0
YB+2_S3   	0 	637 	161 	0
YB+2_S4   	10152 	0 	0 	19659 	0
YB+2_S5   	7 	0 	0 	0
YB+2_S6   	0 	0 	0 	0
YB+2_S7   	0 	3 	-9429 	0
YB+2_S8   	0 	0 	0 	0
YB+2_S9   	10 	2 	0 	0
YB+2_S10   	0 	0 	111 	0 	0
YB+2_S11   	13 	-7770 	0 	0
YB+2_S12   	-33345 	0 	0 	0
CH= 2 MOD= 120 BIAS= 34
YB+2_S1   	-45810 	0 	0 	0
YB+2_S2   	0 	1 	5602 	0
YB+2_S3   	1717 	3 	0 	-16756
YB+2_S4   	45095 	1 	32475 	-10512 	0
YB+2_S5   	-39516 	2807 	17 	52382
YB+2_S6   	-59705 	0 	35 	438
YB+2_S7   	247 	1656 	11 	0
YB+2_S8   	48769 	-45397 	0 	0
YB+2_S9   	1 	0 	11 	8386
YB+2_S10   	86 	44 	-53701 	0 	0
YB+2_S11   	-10729 	287 	0 	401
YB+2_S12   	140 	107 	420 	-2813
YB+2_S1   	7679 	-8524 	14832 	0
YB+2_S2   	100 	427 	0 	0
YB+2_S3   	2 	1720 	10565 	0
YB+2_S4   	751 	0 	0 	-39708 	0
YB+2_S5   	4665 	0 	0 	0
YB+2_S6   	0 	7 	0 	0
YB+2_S7   	0 	78 	-29911 	0
YB+2_S8   	0 	4 	3 	0
YB+2_S9   	189 	10 	0 	8
YB+2_S10   	256 	0 	6542 	0 	0
YB+2_S11   	192 	33970 	64 	0
YB+2_S12   	31742 	10 	0 	0
CH= 2 MOD= 120 BIAS= 38
YB+2_S1   	11043 	0 	0 	5
YB+2_S2   	8 	22 	-26542 	0
YB+2_S3   	2526 	77 	0 	8120
YB+2_S4   	-10325 	3852 	-35872 	-11688 	0
YB+2_S5   	3932 	524 	445 	-5044
YB+2_S6   	8487 	0 	510 	23213
YB+2_S7   	54 	17049 	161 	0
YB+2_S8   	16888 	-1479 	0 	0
YB+2_S9   	5 	0 	11 	-7221
YB+2_S10   	44 	-42776 	7323 	2 	0
YB+2_S11   	2553 	20467 	0 	-49027
YB+2_S12   	2882 	4 	27226 	-18290
YB+2_S1   	15847 	27385 	-10484 	0
YB+2_S2   	3058 	2693 	4 	0
YB+2_S3   	18 	6071 	14637 	0
YB+2_S4   	28480 	0 	1 	-21421 	0
YB+2_S5   	27215 	6 	187 	0
YB+2_S6   	0 	45 	12 	0
YB+2_S7   	25 	-53319 	32406 	0
YB+2_S8   	7 	99 	102 	0
YB+2_S9   	-63406 	2555 	0 	20910
YB+2_S10   	31094 	7 	27248 	0 	0
YB+2_S11   	151 	-26166 	218 	0
YB+2_S12   	19474 	283 	0 	0
CH= 2 MOD= 120 BIAS= 42
YB+2_S1   	2991 	0 	38 	60
YB+2_S2   	0 	141 	-30439 	5
YB+2_S3   	-62015 	592 	3 	62170
YB+2_S4   	60546 	14456 	-15630 	5724 	0
YB+2_S5   	37168 	5672 	-18977 	-36065
YB+2_S6   	47383 	0 	-18688 	32129
YB+2_S7   	823 	14330 	996 	6
YB+2_S8   	-25017 	-19587 	0 	26
YB+2_S9   	44 	2 	12 	-27784
YB+2_S10   	9 	-18159 	45582 	45 	0
YB+2_S11   	-11116 	-38065 	9 	-49342
YB+2_S12   	127 	5815 	10585 	20123
YB+2_S1   	7364 	-8311 	-9988 	0
YB+2_S2   	25964 	18597 	26 	0
YB+2_S3   	228 	-37365 	24032 	0
YB+2_S4   	20892 	11 	173 	-3740 	0
YB+2_S5   	-14056 	248 	7467 	0
YB+2_S6   	1 	100 	927 	0
YB+2_S7   	5511 	-30014 	22094 	0
YB+2_S8   	16 	-27269 	578 	0
YB+2_S9   	-17226 	11407 	3 	23258
YB+2_S10   	24149 	23 	-22951 	0 	0
YB+2_S11   	-28233 	-8625 	1429 	0
YB+2_S12   	33187 	6425 	0 	0
CH= 2 MOD= 120 BIAS= 46
YB+2_S1   	-31383 	121 	14 	278
YB+2_S2   	5 	-64483 	19887 	6
YB+2_S3   	13298 	7388 	8 	-20987
YB+2_S4   	-33175 	15610 	24172 	14395 	0
YB+2_S5   	-40619 	-3633 	-44512 	6816
YB+2_S6   	23657 	0 	-4287 	-2080
YB+2_S7   	721 	-6461 	5241 	0
YB+2_S8   	-15828 	-21772 	0 	1125
YB+2_S9   	13661 	0 	8 	7412
YB+2_S10   	76 	-46561 	31883 	285 	0
YB+2_S11   	-2583 	-36618 	314 	-20931
YB+2_S12   	-8608 	4356 	-36090 	26200
YB+2_S1   	1394 	-17636 	3192 	0
YB+2_S2   	-10509 	-39519 	1866 	0
YB+2_S3   	1568 	-42040 	7280 	0
YB+2_S4   	-6631 	21 	-16104 	90 	0
YB+2_S5   	-7973 	6444 	-31055 	0
YB+2_S6   	41 	2152 	59652 	0
YB+2_S7   	-10833 	27912 	-31408 	0
YB+2_S8   	219 	-3327 	4427 	0
YB+2_S9   	-29633 	-10075 	377 	-3672
YB+2_S10   	-11333 	69 	48635 	0 	0
YB+2_S11   	21202 	-7432 	5655 	0
YB+2_S12   	7943 	1833 	0 	0
