CH= 2 MOD= 40 BIAS= 16
YB+2_S1   	0 	0 	3061 	0
YB+2_S2   	8 	0 	0 	1063
YB+2_S3   	0 	0 	0 	0
YB+2_S4   	-65241 	0 	0 	4769 	0
YB+2_S5   	0 	0 	0 	0
YB+2_S6   	0 	3307 	0 	0
YB+2_S7   	0 	0 	0 	0
YB+2_S8   	0 	0 	0 	0
YB+2_S9   	0 	24035 	13 	373
YB+2_S10   	0 	0 	0 	0 	0
YB+2_S11   	0 	0 	2544 	0
YB+2_S12   	0 	-12063 	0 	0
YB+2_S1   	0 	0 	143 	77
YB+2_S2   	0 	0 	0 	49348
YB+2_S3   	46 	5843 	0 	11953
YB+2_S4   	0 	0 	0 	6 	-28969
YB+2_S5   	0 	0 	0 	29
YB+2_S6   	0 	55 	0 	222
YB+2_S7   	0 	0 	4048 	1210
YB+2_S8   	0 	0 	0 	33
YB+2_S9   	2989 	0 	0 	47618
YB+2_S10   	0 	0 	88 	0 	0
YB+2_S11   	0 	0 	0 	1123
YB+2_S12   	0 	0 	0 	2738
CH= 2 MOD= 40 BIAS= 18
YB+2_S1   	0 	0 	0 	0
YB+2_S2   	0 	0 	0 	0
YB+2_S3   	0 	0 	0 	0
YB+2_S4   	0 	0 	0 	1786 	0
YB+2_S5   	0 	0 	0 	0
YB+2_S6   	0 	2 	0 	0
YB+2_S7   	0 	0 	0 	0
YB+2_S8   	0 	0 	0 	0
YB+2_S9   	0 	3 	0 	0
YB+2_S10   	0 	0 	0 	0 	0
YB+2_S11   	0 	0 	0 	0
YB+2_S12   	0 	0 	0 	0
YB+2_S1   	0 	0 	0 	0
YB+2_S2   	0 	0 	0 	2614
YB+2_S3   	0 	0 	0 	35147
YB+2_S4   	0 	0 	0 	0 	2273
YB+2_S5   	0 	0 	0 	1
YB+2_S6   	0 	0 	0 	37
YB+2_S7   	0 	0 	0 	0
YB+2_S8   	0 	0 	0 	0
YB+2_S9   	0 	0 	0 	-476
YB+2_S10   	0 	0 	0 	0 	0
YB+2_S11   	0 	0 	0 	0
YB+2_S12   	0 	0 	0 	0
CH= 2 MOD= 40 BIAS= 22
YB+2_S1   	0 	0 	0 	0
YB+2_S2   	0 	0 	0 	0
YB+2_S3   	0 	2 	0 	0
YB+2_S4   	0 	0 	0 	0 	0
YB+2_S5   	0 	0 	0 	0
YB+2_S6   	0 	0 	0 	0
YB+2_S7   	0 	0 	0 	0
YB+2_S8   	0 	0 	0 	0
YB+2_S9   	0 	0 	0 	0
YB+2_S10   	0 	0 	0 	0 	0
YB+2_S11   	0 	0 	0 	0
YB+2_S12   	0 	0 	0 	0
YB+2_S1   	0 	0 	0 	0
YB+2_S2   	0 	0 	0 	0
YB+2_S3   	0 	0 	0 	0
YB+2_S4   	0 	0 	0 	0 	0
YB+2_S5   	0 	0 	0 	0
YB+2_S6   	0 	0 	0 	0
YB+2_S7   	0 	0 	0 	0
YB+2_S8   	0 	0 	0 	0
YB+2_S9   	0 	0 	0 	416
YB+2_S10   	0 	0 	0 	0 	0
YB+2_S11   	0 	0 	0 	0
YB+2_S12   	0 	0 	0 	0
CH= 2 MOD= 40 BIAS= 26
YB+2_S1   	0 	0 	0 	0
YB+2_S2   	0 	0 	0 	0
YB+2_S3   	0 	7 	0 	0
YB+2_S4   	0 	0 	0 	0 	0
YB+2_S5   	0 	0 	0 	0
YB+2_S6   	0 	0 	0 	0
YB+2_S7   	0 	0 	0 	0
YB+2_S8   	0 	0 	0 	0
YB+2_S9   	0 	0 	0 	0
YB+2_S10   	0 	0 	0 	0 	0
YB+2_S11   	0 	0 	0 	0
YB+2_S12   	0 	0 	0 	4
YB+2_S1   	0 	0 	0 	0
YB+2_S2   	0 	0 	0 	0
YB+2_S3   	0 	0 	0 	0
YB+2_S4   	4 	0 	0 	0 	0
YB+2_S5   	0 	0 	0 	0
YB+2_S6   	0 	0 	0 	0
YB+2_S7   	0 	0 	0 	0
YB+2_S8   	0 	0 	0 	0
YB+2_S9   	10 	0 	0 	0
YB+2_S10   	0 	0 	0 	0 	0
YB+2_S11   	0 	0 	0 	0
YB+2_S12   	0 	0 	0 	0
CH= 2 MOD= 40 BIAS= 30
YB+2_S1   	3251 	0 	0 	0
YB+2_S2   	0 	0 	5 	0
YB+2_S3   	0 	13 	0 	0
YB+2_S4   	0 	0 	0 	0 	0
YB+2_S5   	0 	0 	0 	0
YB+2_S6   	96 	1 	0 	0
YB+2_S7   	0 	0 	0 	0
YB+2_S8   	0 	0 	0 	0
YB+2_S9   	0 	0 	0 	0
YB+2_S10   	0 	0 	0 	0 	1
YB+2_S11   	0 	0 	0 	5
YB+2_S12   	0 	0 	0 	0
YB+2_S1   	0 	0 	0 	0
YB+2_S2   	0 	0 	0 	0
YB+2_S3   	0 	1 	0 	0
YB+2_S4   	12 	0 	0 	0 	0
YB+2_S5   	0 	0 	0 	0
YB+2_S6   	0 	0 	0 	0
YB+2_S7   	0 	0 	1360 	0
YB+2_S8   	0 	0 	0 	0
YB+2_S9   	0 	0 	0 	0
YB+2_S10   	0 	0 	0 	0 	0
YB+2_S11   	0 	0 	0 	0
YB+2_S12   	0 	0 	0 	0
CH= 2 MOD= 40 BIAS= 34
YB+2_S1   	2 	0 	0 	0
YB+2_S2   	0 	0 	165 	0
YB+2_S3   	0 	7 	0 	0
YB+2_S4   	-61242 	0 	0 	0 	0
YB+2_S5   	0 	29 	0 	2
YB+2_S6   	31 	0 	0 	0
YB+2_S7   	0 	0 	0 	0
YB+2_S8   	0 	0 	0 	0
YB+2_S9   	0 	0 	0 	0
YB+2_S10   	0 	0 	0 	0 	0
YB+2_S11   	0 	0 	0 	1
YB+2_S12   	0 	0 	0 	162
YB+2_S1   	0 	2 	0 	0
YB+2_S2   	0 	0 	0 	0
YB+2_S3   	0 	0 	0 	0
YB+2_S4   	4 	0 	0 	0 	0
YB+2_S5   	0 	0 	0 	0
YB+2_S6   	0 	0 	0 	0
YB+2_S7   	0 	0 	21 	0
YB+2_S8   	0 	0 	0 	0
YB+2_S9   	0 	0 	0 	0
YB+2_S10   	0 	0 	0 	0 	0
YB+2_S11   	0 	7 	0 	0
YB+2_S12   	0 	0 	0 	0
CH= 2 MOD= 40 BIAS= 38
YB+2_S1   	1597 	119 	0 	0
YB+2_S2   	0 	0 	5937 	0
YB+2_S3   	0 	8 	0 	0
YB+2_S4   	3365 	0 	257 	0 	0
YB+2_S5   	0 	587 	7 	10
YB+2_S6   	9415 	0 	1 	0
YB+2_S7   	0 	0 	0 	0
YB+2_S8   	0 	0 	0 	0
YB+2_S9   	0 	0 	0 	0
YB+2_S10   	0 	0 	0 	3 	9
YB+2_S11   	1 	0 	11 	2
YB+2_S12   	0 	0 	0 	7
YB+2_S1   	0 	0 	0 	0
YB+2_S2   	0 	466 	0 	0
YB+2_S3   	0 	0 	0 	0
YB+2_S4   	2973 	0 	0 	0 	0
YB+2_S5   	0 	43 	0 	0
YB+2_S6   	0 	0 	0 	0
YB+2_S7   	0 	0 	1019 	0
YB+2_S8   	0 	0 	5 	0
YB+2_S9   	0 	0 	0 	0
YB+2_S10   	0 	0 	0 	0 	0
YB+2_S11   	0 	15 	0 	0
YB+2_S12   	0 	0 	0 	0
CH= 2 MOD= 40 BIAS= 42
YB+2_S1   	-6267 	412 	0 	0
YB+2_S2   	32 	0 	-27763 	0
YB+2_S3   	4 	11 	0 	0
YB+2_S4   	3262 	4 	0 	1 	0
YB+2_S5   	0 	982 	11 	759
YB+2_S6   	14947 	2 	44 	0
YB+2_S7   	0 	16 	0 	0
YB+2_S8   	0 	0 	0 	0
YB+2_S9   	0 	0 	0 	0
YB+2_S10   	0 	0 	0 	1 	692
YB+2_S11   	59 	0 	451 	11
YB+2_S12   	0 	0 	1 	11402
YB+2_S1   	0 	23 	0 	0
YB+2_S2   	0 	18852 	0 	0
YB+2_S3   	0 	0 	0 	0
YB+2_S4   	30000 	0 	0 	0 	0
YB+2_S5   	3 	409 	0 	0
YB+2_S6   	0 	0 	0 	0
YB+2_S7   	0 	2 	1354 	0
YB+2_S8   	0 	0 	82 	0
YB+2_S9   	0 	0 	0 	0
YB+2_S10   	0 	0 	0 	0 	0
YB+2_S11   	0 	24 	0 	0
YB+2_S12   	0 	0 	0 	0
CH= 2 MOD= 40 BIAS= 46
YB+2_S1   	6779 	4728 	0 	0
YB+2_S2   	332 	0 	-30975 	1
YB+2_S3   	6 	11 	0 	0
YB+2_S4   	-9329 	63 	0 	337 	0
YB+2_S5   	102 	3303 	403 	-24546
YB+2_S6   	-22643 	0 	1458 	0
YB+2_S7   	0 	3528 	0 	2
YB+2_S8   	0 	0 	0 	0
YB+2_S9   	0 	0 	0 	0
YB+2_S10   	0 	0 	0 	4127 	0
YB+2_S11   	5296 	0 	3804 	3532
YB+2_S12   	1 	0 	2 	4982
YB+2_S1   	58 	1561 	0 	0
YB+2_S2   	3120 	-10013 	0 	0
YB+2_S3   	0 	0 	0 	0
YB+2_S4   	14399 	15 	0 	0 	0
YB+2_S5   	0 	10023 	0 	0
YB+2_S6   	55 	0 	263 	0
YB+2_S7   	0 	18261 	16641 	0
YB+2_S8   	0 	0 	135 	0
YB+2_S9   	0 	0 	134 	0
YB+2_S10   	0 	2 	0 	1 	0
YB+2_S11   	0 	15 	6 	0
YB+2_S12   	366 	0 	37 	0
CH= 2 MOD= 50 BIAS= 16
YB+2_S1   	0 	0 	109 	0
YB+2_S2   	0 	0 	0 	3
YB+2_S3   	0 	0 	0 	0
YB+2_S4   	2 	0 	0 	4821 	0
YB+2_S5   	0 	0 	0 	0
YB+2_S6   	0 	2 	0 	0
YB+2_S7   	0 	0 	0 	0
YB+2_S8   	0 	0 	0 	0
YB+2_S9   	0 	438 	17 	12
YB+2_S10   	0 	0 	0 	0 	0
YB+2_S11   	0 	0 	0 	0
YB+2_S12   	0 	77 	0 	0
YB+2_S1   	0 	0 	0 	6
YB+2_S2   	0 	0 	0 	-12357
YB+2_S3   	0 	27 	0 	-10620
YB+2_S4   	0 	0 	0 	0 	2302
YB+2_S5   	0 	0 	0 	58
YB+2_S6   	0 	0 	0 	276
YB+2_S7   	0 	0 	5 	628
YB+2_S8   	0 	0 	0 	9
YB+2_S9   	0 	0 	0 	10784
YB+2_S10   	0 	0 	0 	0 	0
YB+2_S11   	0 	0 	0 	0
YB+2_S12   	0 	0 	0 	-58439
CH= 2 MOD= 50 BIAS= 18
YB+2_S1   	0 	0 	0 	0
YB+2_S2   	0 	0 	0 	0
YB+2_S3   	0 	0 	0 	0
YB+2_S4   	0 	0 	0 	64 	0
YB+2_S5   	0 	0 	0 	0
YB+2_S6   	0 	0 	0 	0
YB+2_S7   	0 	0 	0 	0
YB+2_S8   	0 	0 	0 	0
YB+2_S9   	0 	0 	0 	0
YB+2_S10   	0 	0 	0 	0 	0
YB+2_S11   	0 	0 	0 	0
YB+2_S12   	0 	0 	0 	0
YB+2_S1   	0 	0 	0 	0
YB+2_S2   	0 	0 	0 	97
YB+2_S3   	0 	0 	0 	23446
YB+2_S4   	0 	0 	0 	0 	907
YB+2_S5   	0 	0 	0 	7
YB+2_S6   	0 	0 	0 	70
YB+2_S7   	0 	0 	0 	0
YB+2_S8   	0 	0 	0 	0
YB+2_S9   	0 	0 	0 	-53038
YB+2_S10   	0 	0 	0 	0 	0
YB+2_S11   	0 	0 	0 	0
YB+2_S12   	0 	0 	0 	0
CH= 2 MOD= 50 BIAS= 22
YB+2_S1   	0 	0 	0 	0
YB+2_S2   	0 	0 	0 	0
YB+2_S3   	0 	0 	0 	0
YB+2_S4   	0 	0 	0 	0 	0
YB+2_S5   	0 	0 	0 	0
YB+2_S6   	0 	0 	0 	0
YB+2_S7   	0 	0 	0 	0
YB+2_S8   	0 	0 	0 	0
YB+2_S9   	0 	0 	0 	0
YB+2_S10   	0 	0 	0 	0 	0
YB+2_S11   	0 	0 	0 	0
YB+2_S12   	0 	0 	0 	0
YB+2_S1   	0 	0 	0 	0
YB+2_S2   	0 	0 	0 	0
YB+2_S3   	0 	0 	0 	0
YB+2_S4   	0 	0 	0 	0 	0
YB+2_S5   	0 	0 	0 	0
YB+2_S6   	0 	0 	0 	0
YB+2_S7   	0 	0 	0 	0
YB+2_S8   	0 	0 	0 	0
YB+2_S9   	0 	0 	0 	0
YB+2_S10   	0 	0 	0 	0 	0
YB+2_S11   	0 	0 	0 	0
YB+2_S12   	0 	0 	0 	0
CH= 2 MOD= 50 BIAS= 26
YB+2_S1   	0 	0 	0 	0
YB+2_S2   	0 	0 	0 	0
YB+2_S3   	0 	5 	0 	0
YB+2_S4   	0 	0 	0 	0 	0
YB+2_S5   	0 	0 	0 	0
YB+2_S6   	0 	0 	0 	0
YB+2_S7   	0 	0 	0 	0
YB+2_S8   	0 	0 	0 	0
YB+2_S9   	0 	0 	0 	0
YB+2_S10   	0 	0 	0 	0 	0
YB+2_S11   	0 	0 	0 	0
YB+2_S12   	0 	0 	0 	0
YB+2_S1   	0 	0 	0 	0
YB+2_S2   	0 	0 	0 	0
YB+2_S3   	0 	0 	0 	0
YB+2_S4   	1 	0 	0 	0 	0
YB+2_S5   	0 	0 	0 	0
YB+2_S6   	0 	0 	0 	0
YB+2_S7   	0 	0 	0 	0
YB+2_S8   	0 	0 	0 	0
YB+2_S9   	548 	0 	0 	0
YB+2_S10   	0 	0 	0 	0 	0
YB+2_S11   	0 	0 	0 	0
YB+2_S12   	0 	0 	0 	0
CH= 2 MOD= 50 BIAS= 30
YB+2_S1   	856 	0 	0 	0
YB+2_S2   	0 	0 	2 	0
YB+2_S3   	0 	8 	0 	0
YB+2_S4   	0 	0 	0 	0 	0
YB+2_S5   	0 	0 	0 	0
YB+2_S6   	0 	1 	0 	0
YB+2_S7   	0 	0 	0 	0
YB+2_S8   	0 	0 	0 	0
YB+2_S9   	0 	0 	0 	0
YB+2_S10   	0 	0 	0 	0 	0
YB+2_S11   	0 	0 	0 	0
YB+2_S12   	0 	0 	0 	0
YB+2_S1   	0 	0 	0 	0
YB+2_S2   	0 	2 	0 	0
YB+2_S3   	0 	1 	0 	0
YB+2_S4   	15 	0 	0 	0 	0
YB+2_S5   	0 	0 	0 	0
YB+2_S6   	0 	0 	0 	0
YB+2_S7   	0 	0 	1930 	0
YB+2_S8   	0 	0 	0 	0
YB+2_S9   	0 	0 	0 	0
YB+2_S10   	0 	0 	0 	0 	0
YB+2_S11   	0 	0 	0 	0
YB+2_S12   	0 	0 	0 	0
CH= 2 MOD= 50 BIAS= 34
YB+2_S1   	30 	0 	0 	0
YB+2_S2   	0 	0 	35 	0
YB+2_S3   	0 	9 	0 	0
YB+2_S4   	967 	0 	0 	0 	0
YB+2_S5   	0 	23 	1 	9
YB+2_S6   	12 	1 	0 	0
YB+2_S7   	0 	0 	0 	0
YB+2_S8   	0 	0 	0 	0
YB+2_S9   	0 	0 	0 	0
YB+2_S10   	0 	0 	0 	0 	2
YB+2_S11   	0 	0 	2 	0
YB+2_S12   	0 	0 	0 	12
YB+2_S1   	0 	0 	0 	0
YB+2_S2   	0 	0 	0 	0
YB+2_S3   	0 	0 	0 	0
YB+2_S4   	76 	0 	0 	0 	0
YB+2_S5   	0 	0 	0 	0
YB+2_S6   	0 	0 	0 	0
YB+2_S7   	0 	0 	9 	0
YB+2_S8   	0 	0 	0 	0
YB+2_S9   	0 	0 	0 	0
YB+2_S10   	0 	0 	0 	0 	0
YB+2_S11   	0 	2 	0 	0
YB+2_S12   	0 	0 	0 	0
CH= 2 MOD= 50 BIAS= 38
YB+2_S1   	16518 	24 	0 	0
YB+2_S2   	0 	0 	6679 	0
YB+2_S3   	0 	8 	0 	0
YB+2_S4   	1890 	0 	2 	4 	0
YB+2_S5   	1 	52 	25 	8
YB+2_S6   	1025 	0 	0 	0
YB+2_S7   	0 	0 	0 	0
YB+2_S8   	0 	0 	0 	0
YB+2_S9   	0 	0 	0 	0
YB+2_S10   	0 	0 	0 	4 	2
YB+2_S11   	3 	0 	15 	0
YB+2_S12   	0 	0 	0 	6
YB+2_S1   	0 	0 	0 	0
YB+2_S2   	0 	1070 	0 	0
YB+2_S3   	0 	0 	0 	0
YB+2_S4   	16828 	0 	0 	0 	0
YB+2_S5   	0 	4 	0 	0
YB+2_S6   	0 	0 	0 	0
YB+2_S7   	0 	0 	825 	0
YB+2_S8   	0 	0 	0 	0
YB+2_S9   	0 	0 	0 	0
YB+2_S10   	0 	0 	0 	0 	0
YB+2_S11   	0 	2 	0 	0
YB+2_S12   	0 	0 	0 	0
CH= 2 MOD= 50 BIAS= 42
YB+2_S1   	26836 	1535 	0 	0
YB+2_S2   	15 	0 	22217 	0
YB+2_S3   	0 	13 	0 	0
YB+2_S4   	10539 	0 	0 	24 	0
YB+2_S5   	1 	390 	6 	12
YB+2_S6   	5452 	0 	1 	0
YB+2_S7   	0 	414 	0 	0
YB+2_S8   	0 	0 	0 	0
YB+2_S9   	0 	0 	0 	0
YB+2_S10   	0 	0 	0 	2 	481
YB+2_S11   	33 	0 	1643 	0
YB+2_S12   	14 	0 	3 	2742
YB+2_S1   	0 	5 	0 	0
YB+2_S2   	0 	1236 	0 	0
YB+2_S3   	0 	0 	0 	0
YB+2_S4   	-1591 	0 	0 	0 	0
YB+2_S5   	12 	42 	0 	0
YB+2_S6   	1 	0 	0 	0
YB+2_S7   	0 	0 	985 	0
YB+2_S8   	0 	0 	0 	0
YB+2_S9   	0 	0 	0 	0
YB+2_S10   	0 	0 	0 	0 	0
YB+2_S11   	2 	3 	13 	0
YB+2_S12   	1 	0 	0 	0
CH= 2 MOD= 50 BIAS= 46
YB+2_S1   	-2992 	4190 	0 	0
YB+2_S2   	368 	0 	-27867 	1
YB+2_S3   	866 	18 	0 	0
YB+2_S4   	58101 	36 	0 	1905 	0
YB+2_S5   	36 	42277 	74 	-14474
YB+2_S6   	-32911 	0 	16 	0
YB+2_S7   	0 	2910 	0 	2
YB+2_S8   	1 	0 	0 	0
YB+2_S9   	0 	0 	0 	0
YB+2_S10   	0 	0 	0 	-61066 	10
YB+2_S11   	478 	0 	4626 	1182
YB+2_S12   	7 	0 	23 	-46841
YB+2_S1   	641 	593 	0 	0
YB+2_S2   	1389 	2726 	0 	0
YB+2_S3   	0 	0 	0 	0
YB+2_S4   	-23600 	18 	0 	0 	0
YB+2_S5   	0 	1592 	0 	0
YB+2_S6   	5 	0 	625 	0
YB+2_S7   	0 	4927 	899 	0
YB+2_S8   	0 	0 	4 	0
YB+2_S9   	2 	0 	28 	0
YB+2_S10   	0 	3 	0 	3 	0
YB+2_S11   	1 	14 	3 	0
YB+2_S12   	438 	0 	2 	0
CH= 2 MOD= 60 BIAS= 16
YB+2_S1   	0 	0 	0 	0
YB+2_S2   	0 	0 	0 	0
YB+2_S3   	0 	0 	0 	0
YB+2_S4   	0 	0 	0 	1048 	0
YB+2_S5   	0 	0 	0 	0
YB+2_S6   	0 	0 	0 	0
YB+2_S7   	0 	0 	0 	0
YB+2_S8   	0 	0 	0 	0
YB+2_S9   	0 	1 	0 	1
YB+2_S10   	0 	0 	0 	0 	0
YB+2_S11   	0 	0 	0 	0
YB+2_S12   	0 	0 	0 	0
YB+2_S1   	0 	0 	0 	3
YB+2_S2   	0 	0 	0 	6255
YB+2_S3   	0 	0 	0 	24668
YB+2_S4   	0 	0 	0 	0 	2271
YB+2_S5   	0 	0 	0 	102
YB+2_S6   	0 	0 	0 	360
YB+2_S7   	0 	0 	0 	372
YB+2_S8   	0 	0 	0 	0
YB+2_S9   	0 	0 	0 	10361
YB+2_S10   	0 	0 	0 	0 	0
YB+2_S11   	0 	0 	0 	0
YB+2_S12   	0 	0 	0 	11941
CH= 2 MOD= 60 BIAS= 18
YB+2_S1   	0 	0 	0 	0
YB+2_S2   	0 	0 	0 	0
YB+2_S3   	0 	0 	0 	0
YB+2_S4   	0 	0 	0 	0 	0
YB+2_S5   	0 	0 	0 	0
YB+2_S6   	0 	0 	0 	0
YB+2_S7   	0 	0 	0 	0
YB+2_S8   	0 	0 	0 	0
YB+2_S9   	0 	0 	0 	0
YB+2_S10   	0 	0 	0 	0 	0
YB+2_S11   	0 	0 	0 	0
YB+2_S12   	0 	0 	0 	0
YB+2_S1   	0 	0 	0 	0
YB+2_S2   	0 	0 	0 	2
YB+2_S3   	0 	0 	0 	-21052
YB+2_S4   	0 	0 	0 	0 	0
YB+2_S5   	0 	0 	0 	29
YB+2_S6   	0 	0 	0 	144
YB+2_S7   	0 	0 	0 	0
YB+2_S8   	0 	0 	0 	0
YB+2_S9   	0 	0 	0 	6062
YB+2_S10   	0 	0 	0 	0 	0
YB+2_S11   	0 	0 	0 	0
YB+2_S12   	0 	0 	0 	0
CH= 2 MOD= 60 BIAS= 22
YB+2_S1   	0 	0 	0 	0
YB+2_S2   	0 	0 	0 	0
YB+2_S3   	0 	0 	0 	0
YB+2_S4   	0 	0 	0 	0 	0
YB+2_S5   	0 	0 	0 	0
YB+2_S6   	0 	0 	0 	0
YB+2_S7   	0 	0 	0 	0
YB+2_S8   	0 	0 	0 	0
YB+2_S9   	0 	0 	0 	0
YB+2_S10   	0 	0 	0 	0 	0
YB+2_S11   	0 	0 	0 	0
YB+2_S12   	0 	0 	0 	0
YB+2_S1   	0 	0 	0 	0
YB+2_S2   	0 	0 	0 	0
YB+2_S3   	0 	0 	0 	0
YB+2_S4   	0 	0 	0 	0 	0
YB+2_S5   	0 	0 	0 	0
YB+2_S6   	0 	0 	0 	0
YB+2_S7   	0 	0 	0 	0
YB+2_S8   	0 	0 	0 	0
YB+2_S9   	0 	0 	0 	0
YB+2_S10   	0 	0 	0 	0 	0
YB+2_S11   	0 	0 	0 	0
YB+2_S12   	0 	0 	0 	0
CH= 2 MOD= 60 BIAS= 26
YB+2_S1   	0 	0 	0 	0
YB+2_S2   	0 	0 	0 	0
YB+2_S3   	0 	5 	0 	0
YB+2_S4   	0 	0 	0 	0 	0
YB+2_S5   	0 	0 	0 	0
YB+2_S6   	0 	0 	0 	0
YB+2_S7   	0 	0 	0 	0
YB+2_S8   	0 	0 	0 	0
YB+2_S9   	1 	0 	0 	0
YB+2_S10   	0 	0 	0 	0 	0
YB+2_S11   	0 	0 	0 	0
YB+2_S12   	0 	0 	0 	0
YB+2_S1   	0 	0 	0 	0
YB+2_S2   	0 	0 	0 	0
YB+2_S3   	8 	0 	0 	0
YB+2_S4   	0 	0 	0 	0 	0
YB+2_S5   	0 	0 	0 	0
YB+2_S6   	0 	0 	0 	0
YB+2_S7   	0 	0 	0 	0
YB+2_S8   	0 	0 	0 	0
YB+2_S9   	425 	0 	0 	0
YB+2_S10   	0 	0 	0 	0 	0
YB+2_S11   	0 	0 	0 	0
YB+2_S12   	0 	0 	0 	0
CH= 2 MOD= 60 BIAS= 30
YB+2_S1   	325 	0 	0 	0
YB+2_S2   	0 	0 	7 	0
YB+2_S3   	1 	7 	0 	0
YB+2_S4   	3 	0 	0 	21 	0
YB+2_S5   	0 	0 	0 	1
YB+2_S6   	1 	0 	0 	0
YB+2_S7   	0 	0 	0 	0
YB+2_S8   	0 	0 	0 	0
YB+2_S9   	0 	0 	0 	0
YB+2_S10   	0 	0 	0 	0 	4
YB+2_S11   	0 	0 	0 	0
YB+2_S12   	0 	0 	0 	0
YB+2_S1   	0 	0 	0 	0
YB+2_S2   	0 	0 	0 	0
YB+2_S3   	1 	0 	0 	0
YB+2_S4   	9 	0 	0 	0 	0
YB+2_S5   	0 	0 	0 	0
YB+2_S6   	0 	0 	0 	0
YB+2_S7   	0 	0 	2198 	0
YB+2_S8   	0 	0 	0 	0
YB+2_S9   	0 	0 	0 	0
YB+2_S10   	0 	0 	0 	0 	0
YB+2_S11   	0 	0 	0 	0
YB+2_S12   	0 	0 	0 	0
CH= 2 MOD= 60 BIAS= 34
YB+2_S1   	-44098 	0 	0 	0
YB+2_S2   	1 	0 	137 	0
YB+2_S3   	0 	14 	0 	0
YB+2_S4   	1672 	0 	0 	1 	0
YB+2_S5   	0 	39 	0 	17
YB+2_S6   	0 	0 	0 	0
YB+2_S7   	0 	0 	0 	0
YB+2_S8   	0 	0 	0 	0
YB+2_S9   	0 	0 	0 	0
YB+2_S10   	0 	0 	0 	3 	437
YB+2_S11   	0 	0 	133 	0
YB+2_S12   	0 	0 	0 	0
YB+2_S1   	0 	0 	0 	0
YB+2_S2   	0 	84 	0 	0
YB+2_S3   	0 	0 	0 	0
YB+2_S4   	321 	0 	0 	0 	0
YB+2_S5   	2 	0 	0 	0
YB+2_S6   	0 	0 	0 	0
YB+2_S7   	0 	0 	21 	0
YB+2_S8   	0 	0 	0 	0
YB+2_S9   	0 	0 	0 	0
YB+2_S10   	0 	0 	0 	0 	0
YB+2_S11   	0 	0 	0 	0
YB+2_S12   	0 	0 	0 	0
CH= 2 MOD= 60 BIAS= 38
YB+2_S1   	-29327 	3 	1 	0
YB+2_S2   	15 	0 	19199 	0
YB+2_S3   	0 	11 	0 	0
YB+2_S4   	-57359 	0 	0 	220 	0
YB+2_S5   	1 	36 	100 	37
YB+2_S6   	3086 	0 	0 	0
YB+2_S7   	0 	5 	0 	0
YB+2_S8   	1 	0 	0 	0
YB+2_S9   	0 	0 	0 	0
YB+2_S10   	0 	0 	0 	27 	3
YB+2_S11   	0 	0 	84 	0
YB+2_S12   	0 	0 	2 	13
YB+2_S1   	0 	0 	0 	0
YB+2_S2   	0 	382 	0 	0
YB+2_S3   	0 	0 	0 	0
YB+2_S4   	2487 	0 	0 	0 	0
YB+2_S5   	0 	0 	0 	0
YB+2_S6   	0 	0 	0 	0
YB+2_S7   	0 	0 	10879 	0
YB+2_S8   	0 	0 	0 	0
YB+2_S9   	0 	0 	0 	0
YB+2_S10   	0 	0 	0 	0 	0
YB+2_S11   	0 	6 	0 	0
YB+2_S12   	0 	0 	0 	0
CH= 2 MOD= 60 BIAS= 42
YB+2_S1   	-55048 	-51894 	0 	0
YB+2_S2   	419 	0 	36468 	0
YB+2_S3   	20 	7 	0 	0
YB+2_S4   	12420 	13 	0 	1363 	1
YB+2_S5   	3 	9525 	5 	23482
YB+2_S6   	5722 	0 	56 	0
YB+2_S7   	0 	2330 	0 	0
YB+2_S8   	0 	0 	0 	0
YB+2_S9   	0 	0 	0 	0
YB+2_S10   	0 	0 	0 	29 	439
YB+2_S11   	1 	1 	24330 	1
YB+2_S12   	75 	0 	372 	1135
YB+2_S1   	4 	9 	1 	0
YB+2_S2   	0 	3661 	0 	0
YB+2_S3   	0 	0 	0 	0
YB+2_S4   	-2908 	0 	0 	0 	0
YB+2_S5   	3 	4 	0 	0
YB+2_S6   	40 	0 	8 	0
YB+2_S7   	0 	4 	20732 	0
YB+2_S8   	0 	0 	0 	0
YB+2_S9   	0 	0 	1 	0
YB+2_S10   	0 	0 	1 	0 	0
YB+2_S11   	1 	5 	64 	0
YB+2_S12   	1 	0 	0 	0
CH= 2 MOD= 60 BIAS= 46
YB+2_S1   	10514 	3227 	963 	0
YB+2_S2   	1113 	0 	16527 	180
YB+2_S3   	47718 	23 	0 	0
YB+2_S4   	4323 	435 	0 	-13931 	0
YB+2_S5   	62 	-36326 	492 	-51499
YB+2_S6   	-62267 	0 	21 	0
YB+2_S7   	7 	4294 	1 	0
YB+2_S8   	132 	0 	0 	0
YB+2_S9   	0 	0 	0 	0
YB+2_S10   	0 	1 	0 	-22949 	2780
YB+2_S11   	4 	4 	8941 	1959
YB+2_S12   	96 	0 	2164 	-30004
YB+2_S1   	5264 	927 	0 	0
YB+2_S2   	8 	-8292 	0 	0
YB+2_S3   	0 	0 	0 	0
YB+2_S4   	743 	0 	0 	2 	0
YB+2_S5   	0 	738 	0 	0
YB+2_S6   	6 	0 	142 	0
YB+2_S7   	0 	25273 	17700 	0
YB+2_S8   	3 	0 	0 	0
YB+2_S9   	305 	0 	7 	0
YB+2_S10   	0 	245 	0 	3 	0
YB+2_S11   	418 	249 	240 	0
YB+2_S12   	163 	0 	9 	0
CH= 2 MOD= 70 BIAS= 16
YB+2_S1   	0 	0 	0 	0
YB+2_S2   	0 	0 	0 	0
YB+2_S3   	0 	0 	0 	0
YB+2_S4   	0 	0 	0 	47 	0
YB+2_S5   	0 	0 	0 	0
YB+2_S6   	0 	0 	0 	0
YB+2_S7   	0 	0 	0 	0
YB+2_S8   	0 	0 	0 	0
YB+2_S9   	0 	1 	0 	0
YB+2_S10   	0 	0 	0 	0 	0
YB+2_S11   	0 	0 	0 	0
YB+2_S12   	0 	0 	0 	0
YB+2_S1   	0 	0 	0 	1
YB+2_S2   	0 	0 	0 	-29352
YB+2_S3   	0 	0 	0 	6038
YB+2_S4   	0 	0 	0 	0 	501
YB+2_S5   	0 	0 	0 	141
YB+2_S6   	0 	0 	0 	405
YB+2_S7   	0 	0 	0 	213
YB+2_S8   	0 	0 	0 	0
YB+2_S9   	0 	0 	0 	8669
YB+2_S10   	0 	0 	0 	0 	0
YB+2_S11   	0 	0 	0 	0
YB+2_S12   	0 	0 	0 	-46597
CH= 2 MOD= 70 BIAS= 18
YB+2_S1   	0 	0 	0 	0
YB+2_S2   	0 	0 	0 	0
YB+2_S3   	0 	0 	0 	0
YB+2_S4   	0 	0 	0 	0 	0
YB+2_S5   	0 	0 	0 	0
YB+2_S6   	0 	0 	0 	0
YB+2_S7   	0 	0 	0 	0
YB+2_S8   	0 	0 	0 	0
YB+2_S9   	0 	0 	0 	0
YB+2_S10   	0 	0 	0 	0 	0
YB+2_S11   	0 	0 	0 	0
YB+2_S12   	0 	0 	0 	0
YB+2_S1   	0 	0 	0 	0
YB+2_S2   	0 	0 	0 	0
YB+2_S3   	1 	0 	0 	6070
YB+2_S4   	0 	0 	0 	0 	0
YB+2_S5   	0 	0 	0 	36
YB+2_S6   	0 	0 	0 	197
YB+2_S7   	0 	0 	0 	0
YB+2_S8   	0 	0 	0 	0
YB+2_S9   	0 	0 	0 	2498
YB+2_S10   	0 	0 	0 	0 	0
YB+2_S11   	0 	0 	0 	0
YB+2_S12   	0 	0 	0 	0
CH= 2 MOD= 70 BIAS= 22
YB+2_S1   	0 	0 	0 	0
YB+2_S2   	0 	0 	0 	0
YB+2_S3   	0 	3 	0 	0
YB+2_S4   	0 	0 	0 	0 	0
YB+2_S5   	0 	0 	0 	0
YB+2_S6   	0 	0 	0 	0
YB+2_S7   	0 	0 	0 	0
YB+2_S8   	0 	0 	0 	0
YB+2_S9   	0 	0 	0 	0
YB+2_S10   	0 	0 	0 	0 	0
YB+2_S11   	0 	0 	0 	0
YB+2_S12   	0 	0 	0 	0
YB+2_S1   	0 	0 	0 	0
YB+2_S2   	0 	0 	0 	0
YB+2_S3   	191 	0 	0 	0
YB+2_S4   	0 	0 	0 	0 	0
YB+2_S5   	0 	0 	0 	0
YB+2_S6   	0 	0 	0 	0
YB+2_S7   	0 	0 	0 	0
YB+2_S8   	0 	0 	0 	0
YB+2_S9   	0 	0 	0 	0
YB+2_S10   	0 	0 	0 	0 	0
YB+2_S11   	0 	0 	0 	0
YB+2_S12   	0 	0 	0 	0
CH= 2 MOD= 70 BIAS= 26
YB+2_S1   	2 	0 	8 	0
YB+2_S2   	0 	0 	0 	0
YB+2_S3   	0 	13 	0 	0
YB+2_S4   	0 	0 	0 	0 	0
YB+2_S5   	0 	0 	0 	0
YB+2_S6   	0 	0 	0 	0
YB+2_S7   	0 	0 	0 	0
YB+2_S8   	0 	0 	0 	0
YB+2_S9   	3 	0 	0 	0
YB+2_S10   	0 	0 	0 	0 	1
YB+2_S11   	0 	0 	0 	0
YB+2_S12   	0 	0 	0 	0
YB+2_S1   	0 	0 	0 	0
YB+2_S2   	0 	0 	0 	0
YB+2_S3   	1272 	0 	0 	0
YB+2_S4   	0 	0 	0 	0 	0
YB+2_S5   	0 	0 	0 	0
YB+2_S6   	0 	0 	0 	0
YB+2_S7   	0 	0 	0 	0
YB+2_S8   	0 	0 	0 	0
YB+2_S9   	2 	0 	0 	0
YB+2_S10   	0 	0 	0 	0 	0
YB+2_S11   	0 	0 	0 	0
YB+2_S12   	0 	0 	0 	0
CH= 2 MOD= 70 BIAS= 30
YB+2_S1   	479 	0 	0 	0
YB+2_S2   	1 	0 	43 	0
YB+2_S3   	14 	9 	0 	0
YB+2_S4   	154 	0 	0 	334 	0
YB+2_S5   	0 	0 	0 	3
YB+2_S6   	28 	0 	1 	0
YB+2_S7   	0 	0 	0 	0
YB+2_S8   	0 	0 	0 	0
YB+2_S9   	0 	0 	0 	0
YB+2_S10   	0 	0 	0 	0 	121
YB+2_S11   	0 	0 	1 	0
YB+2_S12   	0 	0 	0 	0
YB+2_S1   	0 	0 	0 	0
YB+2_S2   	0 	60 	0 	0
YB+2_S3   	436 	1 	0 	0
YB+2_S4   	23 	0 	0 	0 	0
YB+2_S5   	0 	0 	0 	0
YB+2_S6   	0 	0 	0 	0
YB+2_S7   	0 	0 	18107 	0
YB+2_S8   	0 	0 	0 	0
YB+2_S9   	16 	0 	0 	0
YB+2_S10   	0 	0 	0 	0 	0
YB+2_S11   	0 	0 	0 	0
YB+2_S12   	0 	0 	0 	0
CH= 2 MOD= 70 BIAS= 34
YB+2_S1   	-2247 	0 	0 	0
YB+2_S2   	15 	0 	5462 	13
YB+2_S3   	122 	14 	0 	0
YB+2_S4   	7613 	0 	0 	11144 	0
YB+2_S5   	0 	231 	0 	30
YB+2_S6   	40 	0 	0 	0
YB+2_S7   	0 	0 	0 	0
YB+2_S8   	2 	0 	0 	0
YB+2_S9   	0 	0 	0 	0
YB+2_S10   	0 	0 	0 	5 	12639
YB+2_S11   	1 	0 	3814 	0
YB+2_S12   	0 	0 	0 	2
YB+2_S1   	0 	0 	0 	0
YB+2_S2   	0 	2316 	0 	0
YB+2_S3   	85 	0 	0 	0
YB+2_S4   	626 	0 	0 	0 	0
YB+2_S5   	16 	0 	0 	0
YB+2_S6   	1 	0 	0 	0
YB+2_S7   	0 	0 	1629 	0
YB+2_S8   	0 	0 	0 	0
YB+2_S9   	2 	0 	0 	0
YB+2_S10   	0 	0 	0 	0 	0
YB+2_S11   	0 	5 	0 	0
YB+2_S12   	0 	0 	0 	0
CH= 2 MOD= 70 BIAS= 38
YB+2_S1   	-50006 	328 	126 	0
YB+2_S2   	368 	0 	7590 	0
YB+2_S3   	30 	6 	0 	0
YB+2_S4   	2098 	1 	0 	-57245 	1
YB+2_S5   	15 	2169 	27 	533
YB+2_S6   	5798 	1 	128 	0
YB+2_S7   	0 	96 	0 	0
YB+2_S8   	218 	1 	0 	0
YB+2_S9   	0 	0 	0 	0
YB+2_S10   	0 	0 	0 	147 	4
YB+2_S11   	0 	0 	4691 	2
YB+2_S12   	0 	0 	257 	145
YB+2_S1   	0 	0 	0 	0
YB+2_S2   	0 	4508 	0 	0
YB+2_S3   	0 	2 	5 	0
YB+2_S4   	47964 	0 	0 	0 	0
YB+2_S5   	0 	1 	0 	0
YB+2_S6   	27 	0 	0 	0
YB+2_S7   	0 	0 	4691 	0
YB+2_S8   	0 	0 	0 	0
YB+2_S9   	56 	0 	0 	0
YB+2_S10   	0 	2 	0 	0 	0
YB+2_S11   	0 	36 	2 	0
YB+2_S12   	0 	0 	0 	0
CH= 2 MOD= 70 BIAS= 42
YB+2_S1   	35831 	-22731 	0 	0
YB+2_S2   	374 	0 	12363 	10
YB+2_S3   	7208 	73 	4 	0
YB+2_S4   	15916 	517 	0 	41143 	9
YB+2_S5   	49 	-8685 	9 	34939
YB+2_S6   	47259 	0 	360 	0
YB+2_S7   	0 	12996 	2 	0
YB+2_S8   	-64961 	8 	0 	0
YB+2_S9   	0 	0 	0 	0
YB+2_S10   	0 	3 	0 	47 	2670
YB+2_S11   	1 	3 	-18814 	3
YB+2_S12   	142 	2 	3910 	5597
YB+2_S1   	39 	165 	1 	0
YB+2_S2   	0 	9806 	0 	0
YB+2_S3   	0 	0 	15 	0
YB+2_S4   	7920 	42 	0 	0 	0
YB+2_S5   	55 	4 	1 	0
YB+2_S6   	3795 	0 	1284 	0
YB+2_S7   	0 	85 	1168 	0
YB+2_S8   	0 	0 	0 	0
YB+2_S9   	171 	0 	23 	0
YB+2_S10   	0 	0 	0 	0 	0
YB+2_S11   	42 	51 	505 	0
YB+2_S12   	2 	0 	0 	0
CH= 2 MOD= 70 BIAS= 46
YB+2_S1   	-16216 	19760 	1867 	12
YB+2_S2   	8158 	0 	18752 	2273
YB+2_S3   	46498 	205 	0 	2
YB+2_S4   	14598 	4954 	0 	-17366 	17
YB+2_S5   	1157 	-16093 	458 	-13614
YB+2_S6   	6280 	0 	183 	2
YB+2_S7   	188 	7968 	43 	0
YB+2_S8   	2443 	41 	0 	0
YB+2_S9   	0 	0 	0 	0
YB+2_S10   	0 	40 	0 	-45438 	18119
YB+2_S11   	148 	13 	30261 	2752
YB+2_S12   	4804 	15 	8372 	39509
YB+2_S1   	12868 	15848 	0 	0
YB+2_S2   	32 	-15741 	32 	0
YB+2_S3   	0 	1 	32 	0
YB+2_S4   	14226 	3 	0 	305 	0
YB+2_S5   	77 	9192 	1 	0
YB+2_S6   	150 	1 	35 	0
YB+2_S7   	0 	5560 	-60939 	0
YB+2_S8   	1213 	1 	0 	0
YB+2_S9   	15968 	0 	16 	0
YB+2_S10   	25 	4667 	3 	33 	0
YB+2_S11   	10767 	4458 	2760 	0
YB+2_S12   	256 	0 	39 	0
CH= 2 MOD= 80 BIAS= 16
YB+2_S1   	0 	0 	0 	0
YB+2_S2   	0 	0 	0 	0
YB+2_S3   	0 	0 	0 	0
YB+2_S4   	0 	0 	0 	0 	0
YB+2_S5   	0 	0 	0 	0
YB+2_S6   	0 	0 	0 	0
YB+2_S7   	0 	0 	0 	0
YB+2_S8   	0 	0 	0 	0
YB+2_S9   	0 	0 	0 	0
YB+2_S10   	0 	0 	0 	0 	0
YB+2_S11   	0 	0 	0 	0
YB+2_S12   	0 	0 	0 	0
YB+2_S1   	0 	0 	0 	0
YB+2_S2   	0 	0 	0 	-40005
YB+2_S3   	1 	0 	0 	-1176
YB+2_S4   	0 	0 	0 	0 	9
YB+2_S5   	0 	0 	0 	118
YB+2_S6   	0 	0 	0 	416
YB+2_S7   	0 	0 	0 	136
YB+2_S8   	0 	0 	0 	0
YB+2_S9   	0 	0 	0 	5187
YB+2_S10   	0 	0 	0 	0 	0
YB+2_S11   	0 	0 	0 	0
YB+2_S12   	0 	0 	0 	22873
CH= 2 MOD= 80 BIAS= 18
YB+2_S1   	0 	0 	0 	0
YB+2_S2   	0 	0 	0 	0
YB+2_S3   	0 	0 	0 	0
YB+2_S4   	0 	0 	0 	0 	0
YB+2_S5   	0 	0 	0 	0
YB+2_S6   	0 	0 	0 	0
YB+2_S7   	0 	0 	0 	0
YB+2_S8   	0 	0 	0 	0
YB+2_S9   	0 	0 	0 	0
YB+2_S10   	0 	0 	0 	0 	0
YB+2_S11   	0 	0 	0 	0
YB+2_S12   	0 	0 	0 	0
YB+2_S1   	0 	0 	0 	0
YB+2_S2   	0 	0 	0 	0
YB+2_S3   	326 	0 	0 	514
YB+2_S4   	0 	0 	0 	0 	0
YB+2_S5   	0 	0 	0 	49
YB+2_S6   	0 	0 	0 	241
YB+2_S7   	0 	0 	0 	1
YB+2_S8   	0 	0 	0 	0
YB+2_S9   	0 	0 	0 	177
YB+2_S10   	0 	0 	0 	0 	0
YB+2_S11   	0 	0 	0 	0
YB+2_S12   	0 	0 	0 	0
CH= 2 MOD= 80 BIAS= 22
YB+2_S1   	0 	0 	0 	0
YB+2_S2   	0 	0 	0 	0
YB+2_S3   	0 	2 	0 	0
YB+2_S4   	0 	0 	0 	0 	0
YB+2_S5   	0 	0 	0 	0
YB+2_S6   	0 	0 	0 	0
YB+2_S7   	0 	0 	0 	0
YB+2_S8   	0 	0 	0 	0
YB+2_S9   	0 	0 	0 	0
YB+2_S10   	0 	0 	0 	0 	0
YB+2_S11   	0 	0 	0 	0
YB+2_S12   	0 	0 	0 	0
YB+2_S1   	0 	0 	0 	0
YB+2_S2   	0 	0 	0 	0
YB+2_S3   	9591 	1 	0 	0
YB+2_S4   	0 	0 	0 	0 	0
YB+2_S5   	0 	0 	0 	0
YB+2_S6   	0 	0 	0 	0
YB+2_S7   	0 	0 	0 	0
YB+2_S8   	0 	0 	0 	0
YB+2_S9   	0 	0 	0 	0
YB+2_S10   	0 	0 	0 	0 	0
YB+2_S11   	0 	0 	0 	0
YB+2_S12   	0 	0 	0 	0
CH= 2 MOD= 80 BIAS= 26
YB+2_S1   	41 	0 	1 	0
YB+2_S2   	0 	0 	1 	0
YB+2_S3   	9 	4 	0 	0
YB+2_S4   	1 	0 	0 	0 	0
YB+2_S5   	0 	0 	0 	0
YB+2_S6   	1 	0 	0 	0
YB+2_S7   	0 	0 	0 	0
YB+2_S8   	0 	0 	0 	0
YB+2_S9   	0 	0 	0 	0
YB+2_S10   	0 	0 	0 	0 	16
YB+2_S11   	0 	0 	0 	0
YB+2_S12   	0 	0 	0 	0
YB+2_S1   	0 	0 	0 	0
YB+2_S2   	0 	0 	0 	0
YB+2_S3   	31074 	0 	0 	0
YB+2_S4   	0 	0 	0 	0 	0
YB+2_S5   	0 	0 	0 	0
YB+2_S6   	0 	0 	0 	0
YB+2_S7   	0 	0 	12 	0
YB+2_S8   	0 	0 	0 	0
YB+2_S9   	0 	0 	0 	0
YB+2_S10   	0 	0 	0 	0 	0
YB+2_S11   	0 	0 	0 	0
YB+2_S12   	0 	0 	0 	0
CH= 2 MOD= 80 BIAS= 30
YB+2_S1   	1927 	0 	1 	0
YB+2_S2   	13 	0 	285 	26
YB+2_S3   	1112 	15 	0 	0
YB+2_S4   	-55089 	0 	0 	-62405 	0
YB+2_S5   	6 	83 	0 	106
YB+2_S6   	2293 	0 	5 	0
YB+2_S7   	0 	0 	0 	0
YB+2_S8   	0 	39 	0 	0
YB+2_S9   	2 	1 	0 	0
YB+2_S10   	0 	0 	0 	0 	451
YB+2_S11   	0 	0 	64 	0
YB+2_S12   	0 	0 	0 	11
YB+2_S1   	0 	0 	0 	0
YB+2_S2   	0 	8 	0 	0
YB+2_S3   	5913 	0 	0 	0
YB+2_S4   	95 	0 	0 	0 	0
YB+2_S5   	1 	1 	0 	0
YB+2_S6   	0 	0 	0 	0
YB+2_S7   	0 	0 	12816 	0
YB+2_S8   	0 	0 	0 	0
YB+2_S9   	1817 	0 	2 	0
YB+2_S10   	1 	0 	0 	0 	0
YB+2_S11   	0 	0 	0 	0
YB+2_S12   	0 	0 	0 	0
CH= 2 MOD= 80 BIAS= 34
YB+2_S1   	4447 	416 	0 	0
YB+2_S2   	234 	0 	-24867 	369
YB+2_S3   	2519 	47 	0 	1
YB+2_S4   	31319 	0 	2 	27785 	0
YB+2_S5   	333 	4678 	0 	381
YB+2_S6   	-38553 	0 	44 	0
YB+2_S7   	0 	1 	0 	0
YB+2_S8   	257 	25 	0 	0
YB+2_S9   	0 	0 	0 	0
YB+2_S10   	0 	0 	0 	7 	-11862
YB+2_S11   	10 	1 	-31281 	5
YB+2_S12   	4 	0 	1 	66
YB+2_S1   	0 	0 	0 	0
YB+2_S2   	0 	3936 	0 	0
YB+2_S3   	584 	1 	2 	0
YB+2_S4   	6534 	0 	0 	59 	0
YB+2_S5   	2 	0 	0 	0
YB+2_S6   	1 	0 	1 	0
YB+2_S7   	0 	0 	-12485 	0
YB+2_S8   	7 	0 	0 	0
YB+2_S9   	1095 	0 	0 	0
YB+2_S10   	0 	0 	0 	0 	0
YB+2_S11   	0 	30 	0 	0
YB+2_S12   	0 	0 	0 	0
CH= 2 MOD= 80 BIAS= 38
YB+2_S1   	-12692 	-35821 	-57110 	0
YB+2_S2   	1344 	0 	32962 	252
YB+2_S3   	-56012 	16 	0 	0
YB+2_S4   	-45658 	12 	0 	-40142 	12
YB+2_S5   	115 	32215 	3 	11653
YB+2_S6   	-22162 	0 	1983 	0
YB+2_S7   	0 	315 	1 	0
YB+2_S8   	-51295 	1367 	0 	0
YB+2_S9   	0 	0 	0 	0
YB+2_S10   	0 	8 	0 	64 	588
YB+2_S11   	2 	0 	19664 	17
YB+2_S12   	7 	27 	9125 	1905
YB+2_S1   	1 	3 	0 	0
YB+2_S2   	0 	10143 	0 	0
YB+2_S3   	4 	15 	184 	0
YB+2_S4   	-12489 	1 	0 	2 	0
YB+2_S5   	17 	3 	0 	0
YB+2_S6   	25 	0 	7 	0
YB+2_S7   	0 	9 	-25449 	0
YB+2_S8   	488 	0 	0 	0
YB+2_S9   	4288 	1 	24 	0
YB+2_S10   	0 	9594 	1 	0 	0
YB+2_S11   	3 	317 	0 	0
YB+2_S12   	0 	0 	0 	0
CH= 2 MOD= 80 BIAS= 42
YB+2_S1   	-38055 	16006 	9 	26
YB+2_S2   	13088 	0 	1265 	11396
YB+2_S3   	-32456 	13227 	80 	31
YB+2_S4   	38990 	11191 	16 	-59929 	1112
YB+2_S5   	8431 	15629 	148 	-20381
YB+2_S6   	-4141 	1 	740 	5
YB+2_S7   	871 	-54596 	412 	1
YB+2_S8   	-32862 	9561 	0 	2
YB+2_S9   	0 	0 	6 	1
YB+2_S10   	0 	28 	0 	153 	35988
YB+2_S11   	174 	4 	15673 	301
YB+2_S12   	22972 	60 	18818 	21091
YB+2_S1   	759 	-34070 	1 	0
YB+2_S2   	11 	-26568 	2 	0
YB+2_S3   	18 	15 	2515 	0
YB+2_S4   	-6833 	0 	0 	134 	0
YB+2_S5   	3136 	2622 	158 	0
YB+2_S6   	9371 	0 	429 	0
YB+2_S7   	0 	415 	36818 	0
YB+2_S8   	1455 	0 	0 	0
YB+2_S9   	-37858 	0 	789 	0
YB+2_S10   	13 	110 	5 	0 	0
YB+2_S11   	869 	592 	216 	0
YB+2_S12   	12 	0 	0 	0
CH= 2 MOD= 80 BIAS= 46
YB+2_S1   	-35005 	16903 	3391 	1992
YB+2_S2   	26642 	0 	49688 	3592
YB+2_S3   	-8482 	3339 	122 	34
YB+2_S4   	-18937 	576 	0 	-63931 	2592
YB+2_S5   	-10043 	-23421 	1491 	24060
YB+2_S6   	-34826 	0 	1321 	2990
YB+2_S7   	15121 	1204 	1058 	53
YB+2_S8   	25441 	12087 	0 	93
YB+2_S9   	0 	0 	89 	12
YB+2_S10   	1 	-57602 	57 	21347 	24377
YB+2_S11   	-33443 	60 	-33246 	10222
YB+2_S12   	10875 	419 	-37826 	5515
YB+2_S1   	-15528 	-1881 	45 	0
YB+2_S2   	2662 	36902 	385 	0
YB+2_S3   	10 	44 	4308 	0
YB+2_S4   	-16115 	8720 	1 	1308 	0
YB+2_S5   	17231 	22537 	579 	0
YB+2_S6   	15418 	6 	1260 	0
YB+2_S7   	2 	18401 	-48690 	0
YB+2_S8   	-18159 	54 	0 	0
YB+2_S9   	12992 	1 	3096 	0
YB+2_S10   	2056 	-21446 	87 	95 	4
YB+2_S11   	11356 	-33861 	19853 	0
YB+2_S12   	48 	0 	36 	0
CH= 2 MOD= 90 BIAS= 16
YB+2_S1   	0 	0 	0 	0
YB+2_S2   	0 	0 	0 	0
YB+2_S3   	0 	0 	0 	0
YB+2_S4   	0 	0 	0 	0 	0
YB+2_S5   	0 	0 	0 	0
YB+2_S6   	0 	0 	0 	0
YB+2_S7   	0 	0 	0 	0
YB+2_S8   	0 	0 	0 	0
YB+2_S9   	0 	0 	0 	0
YB+2_S10   	0 	0 	0 	0 	0
YB+2_S11   	0 	0 	0 	0
YB+2_S12   	0 	0 	0 	0
YB+2_S1   	0 	0 	0 	0
YB+2_S2   	0 	0 	0 	5527
YB+2_S3   	-36504 	0 	0 	23623
YB+2_S4   	0 	0 	0 	0 	0
YB+2_S5   	0 	0 	0 	145
YB+2_S6   	0 	0 	0 	499
YB+2_S7   	0 	0 	0 	81
YB+2_S8   	0 	0 	0 	0
YB+2_S9   	0 	0 	0 	1603
YB+2_S10   	0 	0 	0 	0 	0
YB+2_S11   	0 	0 	0 	0
YB+2_S12   	0 	0 	0 	23588
CH= 2 MOD= 90 BIAS= 18
YB+2_S1   	0 	0 	0 	0
YB+2_S2   	0 	0 	0 	0
YB+2_S3   	0 	0 	0 	0
YB+2_S4   	0 	0 	0 	0 	0
YB+2_S5   	0 	0 	0 	0
YB+2_S6   	0 	0 	0 	0
YB+2_S7   	0 	0 	0 	0
YB+2_S8   	0 	0 	0 	0
YB+2_S9   	0 	0 	0 	0
YB+2_S10   	0 	0 	0 	0 	0
YB+2_S11   	0 	0 	0 	0
YB+2_S12   	0 	0 	0 	0
YB+2_S1   	0 	0 	0 	0
YB+2_S2   	0 	0 	0 	0
YB+2_S3   	13692 	0 	0 	49
YB+2_S4   	0 	0 	0 	0 	0
YB+2_S5   	0 	0 	0 	50
YB+2_S6   	0 	0 	0 	271
YB+2_S7   	0 	0 	0 	0
YB+2_S8   	0 	0 	0 	0
YB+2_S9   	0 	0 	0 	2
YB+2_S10   	0 	0 	0 	0 	0
YB+2_S11   	0 	0 	0 	0
YB+2_S12   	0 	0 	0 	0
CH= 2 MOD= 90 BIAS= 22
YB+2_S1   	0 	0 	0 	0
YB+2_S2   	0 	0 	0 	0
YB+2_S3   	0 	0 	0 	0
YB+2_S4   	0 	0 	0 	0 	0
YB+2_S5   	0 	0 	0 	0
YB+2_S6   	0 	0 	0 	0
YB+2_S7   	0 	0 	0 	0
YB+2_S8   	0 	0 	0 	0
YB+2_S9   	0 	0 	0 	0
YB+2_S10   	0 	0 	0 	0 	3
YB+2_S11   	0 	0 	0 	0
YB+2_S12   	0 	0 	0 	0
YB+2_S1   	0 	0 	0 	0
YB+2_S2   	0 	1 	0 	0
YB+2_S3   	7321 	0 	0 	0
YB+2_S4   	0 	0 	0 	0 	0
YB+2_S5   	0 	0 	0 	0
YB+2_S6   	0 	0 	0 	0
YB+2_S7   	0 	0 	0 	0
YB+2_S8   	0 	0 	0 	0
YB+2_S9   	0 	0 	0 	0
YB+2_S10   	0 	0 	0 	0 	0
YB+2_S11   	0 	0 	0 	0
YB+2_S12   	0 	0 	0 	0
CH= 2 MOD= 90 BIAS= 26
YB+2_S1   	68 	0 	0 	0
YB+2_S2   	771 	0 	1 	0
YB+2_S3   	3762 	2 	0 	0
YB+2_S4   	37 	0 	0 	0 	0
YB+2_S5   	1 	35 	0 	310
YB+2_S6   	106 	0 	0 	0
YB+2_S7   	0 	0 	0 	0
YB+2_S8   	0 	0 	0 	0
YB+2_S9   	3 	0 	0 	3
YB+2_S10   	0 	0 	0 	0 	1010
YB+2_S11   	0 	0 	22 	0
YB+2_S12   	0 	0 	0 	4
YB+2_S1   	0 	0 	0 	0
YB+2_S2   	0 	114 	0 	0
YB+2_S3   	-27496 	0 	0 	0
YB+2_S4   	22 	0 	0 	147 	0
YB+2_S5   	0 	0 	0 	0
YB+2_S6   	0 	0 	0 	0
YB+2_S7   	0 	0 	5183 	0
YB+2_S8   	0 	0 	0 	0
YB+2_S9   	0 	0 	2 	0
YB+2_S10   	0 	0 	0 	0 	0
YB+2_S11   	0 	0 	0 	0
YB+2_S12   	0 	0 	0 	0
CH= 2 MOD= 90 BIAS= 30
YB+2_S1   	-22989 	14 	6 	0
YB+2_S2   	3750 	0 	4450 	2316
YB+2_S3   	-59738 	20 	1 	10
YB+2_S4   	29506 	1 	0 	7016 	1
YB+2_S5   	1850 	10599 	0 	922
YB+2_S6   	18157 	0 	7 	0
YB+2_S7   	4 	0 	0 	0
YB+2_S8   	4 	12156 	0 	0
YB+2_S9   	0 	0 	12 	2
YB+2_S10   	0 	15 	0 	7 	-55944
YB+2_S11   	0 	0 	6487 	1
YB+2_S12   	1 	4 	6 	902
YB+2_S1   	23 	70 	11 	0
YB+2_S2   	0 	1289 	0 	0
YB+2_S3   	34491 	0 	17 	0
YB+2_S4   	9350 	0 	0 	238 	0
YB+2_S5   	-16940 	0 	0 	0
YB+2_S6   	0 	0 	2 	0
YB+2_S7   	0 	0 	52760 	0
YB+2_S8   	2 	0 	0 	0
YB+2_S9   	47352 	0 	369 	0
YB+2_S10   	29 	0 	12 	0 	0
YB+2_S11   	280 	406 	1 	0
YB+2_S12   	0 	0 	0 	0
CH= 2 MOD= 90 BIAS= 34
YB+2_S1   	-3318 	6183 	66 	1
YB+2_S2   	5157 	0 	-6290 	-49938
YB+2_S3   	39719 	2633 	20 	112
YB+2_S4   	-42556 	50 	10 	22215 	78
YB+2_S5   	11127 	-13913 	40 	48056
YB+2_S6   	-27116 	0 	404 	1
YB+2_S7   	103 	172 	13 	0
YB+2_S8   	4008 	8506 	0 	4
YB+2_S9   	0 	0 	4 	4
YB+2_S10   	0 	349 	0 	25 	7876
YB+2_S11   	1 	0 	2735 	1379
YB+2_S12   	5 	5 	534 	1344
YB+2_S1   	36 	185 	48 	0
YB+2_S2   	21 	2341 	0 	0
YB+2_S3   	13606 	9 	294 	0
YB+2_S4   	4677 	0 	0 	6349 	0
YB+2_S5   	809 	0 	22 	0
YB+2_S6   	116 	0 	1772 	0
YB+2_S7   	0 	7 	-33588 	0
YB+2_S8   	626 	0 	0 	0
YB+2_S9   	-2520 	0 	132 	0
YB+2_S10   	42 	7592 	7 	0 	0
YB+2_S11   	46 	299 	22 	0
YB+2_S12   	0 	0 	0 	0
CH= 2 MOD= 90 BIAS= 38
YB+2_S1   	20908 	5970 	12980 	106
YB+2_S2   	-18062 	0 	-34510 	-5087
YB+2_S3   	-15334 	4781 	89 	76
YB+2_S4   	24567 	1895 	35 	-36890 	1280
YB+2_S5   	-23155 	418 	8 	1265
YB+2_S6   	-10190 	0 	2238 	25
YB+2_S7   	277 	5564 	13 	0
YB+2_S8   	-8507 	23550 	0 	69
YB+2_S9   	0 	0 	1447 	61
YB+2_S10   	2 	3681 	0 	616 	-56684
YB+2_S11   	48 	3 	56935 	1740
YB+2_S12   	400 	184 	46455 	37410
YB+2_S1   	340 	1487 	268 	0
YB+2_S2   	1738 	-16947 	2 	0
YB+2_S3   	259 	82 	6033 	0
YB+2_S4   	36151 	80 	3 	3310 	11
YB+2_S5   	-54307 	-3025 	541 	0
YB+2_S6   	446 	0 	2233 	0
YB+2_S7   	0 	617 	-16808 	0
YB+2_S8   	-36760 	0 	0 	0
YB+2_S9   	16130 	45 	9074 	0
YB+2_S10   	941 	-58760 	7 	0 	0
YB+2_S11   	1633 	4405 	102 	0
YB+2_S12   	4 	0 	0 	0
CH= 2 MOD= 90 BIAS= 42
YB+2_S1   	-22294 	-39810 	20114 	7067
YB+2_S2   	-26927 	15 	12145 	-39370
YB+2_S3   	18356 	9313 	5896 	9361
YB+2_S4   	-13746 	5468 	442 	16875 	36945
YB+2_S5   	44491 	-6550 	2157 	-29177
YB+2_S6   	22893 	0 	1655 	4182
YB+2_S7   	8007 	1992 	-1477 	4
YB+2_S8   	-50466 	24093 	0 	249
YB+2_S9   	0 	0 	-42839 	780
YB+2_S10   	6 	15988 	1124 	12601 	-44916
YB+2_S11   	-46105 	16 	13245 	-42003
YB+2_S12   	18785 	2634 	-44000 	27088
YB+2_S1   	21992 	39710 	45 	0
YB+2_S2   	6440 	39385 	111 	0
YB+2_S3   	528 	2390 	-44006 	0
YB+2_S4   	-10330 	1 	195 	27394 	130
YB+2_S5   	-8351 	12431 	-50855 	0
YB+2_S6   	8276 	1 	2870 	0
YB+2_S7   	48 	21266 	-5923 	0
YB+2_S8   	33933 	42 	0 	0
YB+2_S9   	-21387 	35 	-16624 	1
YB+2_S10   	6756 	27785 	440 	2 	17
YB+2_S11   	-11798 	18207 	5565 	0
YB+2_S12   	338 	0 	28 	0
CH= 2 MOD= 90 BIAS= 46
YB+2_S1   	12128 	60110 	8177 	-57749
YB+2_S2   	6663 	118 	4358 	24890
YB+2_S3   	40205 	46335 	-59899 	7596
YB+2_S4   	17002 	19794 	10 	-24241 	-40368
YB+2_S5   	35005 	18876 	12152 	-35930
YB+2_S6   	-62060 	0 	6798 	5250
YB+2_S7   	-22482 	2557 	-6966 	7
YB+2_S8   	7132 	34959 	0 	20882
YB+2_S9   	0 	0 	328 	3095
YB+2_S10   	1332 	-12780 	13233 	2518 	-18336
YB+2_S11   	24328 	885 	15317 	31079
YB+2_S12   	-51752 	16623 	-8684 	-34732
YB+2_S1   	-24532 	31110 	9955 	0
YB+2_S2   	21444 	-12935 	2507 	0
YB+2_S3   	6021 	4897 	21500 	0
YB+2_S4   	5486 	-22165 	402 	-30347 	4
YB+2_S5   	-8894 	29092 	-41690 	0
YB+2_S6   	-24680 	174 	-4738 	0
YB+2_S7   	171 	7941 	-1151 	0
YB+2_S8   	-21346 	3801 	5 	0
YB+2_S9   	-6465 	62 	25831 	0
YB+2_S10   	4963 	-11715 	3998 	704 	1771
YB+2_S11   	26263 	46402 	-35767 	1
YB+2_S12   	518 	0 	38 	0
CH= 2 MOD= 100 BIAS= 16
YB+2_S1   	0 	0 	0 	0
YB+2_S2   	0 	0 	0 	0
YB+2_S3   	0 	0 	0 	0
YB+2_S4   	0 	0 	0 	0 	0
YB+2_S5   	0 	0 	0 	0
YB+2_S6   	0 	0 	0 	0
YB+2_S7   	0 	0 	0 	0
YB+2_S8   	0 	0 	0 	0
YB+2_S9   	0 	0 	0 	0
YB+2_S10   	0 	0 	0 	0 	0
YB+2_S11   	0 	0 	0 	0
YB+2_S12   	0 	0 	0 	0
YB+2_S1   	0 	0 	0 	0
YB+2_S2   	0 	0 	0 	-6303
YB+2_S3   	-11015 	0 	0 	32915
YB+2_S4   	0 	0 	0 	0 	0
YB+2_S5   	0 	0 	0 	167
YB+2_S6   	0 	0 	0 	547
YB+2_S7   	0 	0 	0 	52
YB+2_S8   	0 	0 	0 	0
YB+2_S9   	0 	0 	0 	160
YB+2_S10   	0 	0 	0 	0 	0
YB+2_S11   	0 	0 	0 	0
YB+2_S12   	0 	0 	0 	-39800
CH= 2 MOD= 100 BIAS= 18
YB+2_S1   	0 	0 	0 	0
YB+2_S2   	0 	0 	0 	0
YB+2_S3   	0 	0 	0 	0
YB+2_S4   	0 	0 	0 	0 	0
YB+2_S5   	0 	0 	0 	0
YB+2_S6   	0 	0 	0 	0
YB+2_S7   	0 	0 	0 	0
YB+2_S8   	0 	0 	0 	0
YB+2_S9   	0 	0 	0 	0
YB+2_S10   	0 	0 	0 	0 	0
YB+2_S11   	0 	0 	0 	0
YB+2_S12   	0 	0 	0 	0
YB+2_S1   	0 	0 	0 	0
YB+2_S2   	0 	0 	0 	0
YB+2_S3   	-20640 	0 	0 	12
YB+2_S4   	0 	0 	0 	0 	0
YB+2_S5   	0 	0 	0 	60
YB+2_S6   	0 	0 	0 	267
YB+2_S7   	0 	0 	0 	2
YB+2_S8   	0 	0 	0 	0
YB+2_S9   	0 	0 	0 	0
YB+2_S10   	0 	0 	0 	0 	0
YB+2_S11   	0 	0 	0 	0
YB+2_S12   	0 	0 	0 	0
CH= 2 MOD= 100 BIAS= 22
YB+2_S1   	0 	0 	0 	0
YB+2_S2   	0 	0 	0 	0
YB+2_S3   	0 	0 	0 	0
YB+2_S4   	10 	0 	0 	0 	0
YB+2_S5   	0 	0 	0 	2
YB+2_S6   	1 	0 	0 	0
YB+2_S7   	0 	0 	0 	0
YB+2_S8   	0 	0 	0 	0
YB+2_S9   	0 	0 	0 	0
YB+2_S10   	0 	0 	0 	0 	20
YB+2_S11   	0 	0 	22 	0
YB+2_S12   	0 	0 	0 	0
YB+2_S1   	0 	0 	1 	0
YB+2_S2   	0 	4 	0 	0
YB+2_S3   	4384 	0 	5 	0
YB+2_S4   	1 	0 	0 	0 	0
YB+2_S5   	0 	0 	0 	0
YB+2_S6   	0 	0 	0 	0
YB+2_S7   	0 	0 	0 	0
YB+2_S8   	0 	0 	0 	0
YB+2_S9   	0 	0 	0 	0
YB+2_S10   	0 	0 	0 	0 	0
YB+2_S11   	0 	0 	0 	0
YB+2_S12   	0 	0 	0 	0
CH= 2 MOD= 100 BIAS= 26
YB+2_S1   	8 	15 	41 	0
YB+2_S2   	3408 	0 	271 	17
YB+2_S3   	-35 	18 	0 	0
YB+2_S4   	12918 	25 	0 	993 	0
YB+2_S5   	4 	1917 	0 	1934
YB+2_S6   	2856 	0 	2 	0
YB+2_S7   	0 	0 	6 	0
YB+2_S8   	2 	108 	0 	22
YB+2_S9   	2 	0 	0 	36
YB+2_S10   	0 	61 	0 	0 	22927
YB+2_S11   	0 	0 	2240 	0
YB+2_S12   	1 	0 	2 	40
YB+2_S1   	0 	0 	0 	0
YB+2_S2   	2 	4143 	0 	0
YB+2_S3   	-38140 	0 	8 	0
YB+2_S4   	1639 	0 	0 	23377 	0
YB+2_S5   	443 	0 	0 	0
YB+2_S6   	15 	0 	0 	0
YB+2_S7   	0 	0 	-4421 	0
YB+2_S8   	0 	0 	0 	0
YB+2_S9   	12 	0 	83 	0
YB+2_S10   	0 	0 	0 	2 	0
YB+2_S11   	28 	0 	2 	0
YB+2_S12   	2 	0 	0 	0
CH= 2 MOD= 100 BIAS= 30
YB+2_S1   	-24719 	1247 	337 	0
YB+2_S2   	-21569 	0 	-45113 	-6385
YB+2_S3   	18768 	481 	32 	299
YB+2_S4   	-42627 	203 	1 	-30644 	174
YB+2_S5   	4475 	7870 	1 	10898
YB+2_S6   	23033 	0 	199 	13
YB+2_S7   	239 	2 	2 	0
YB+2_S8   	873 	7617 	0 	558
YB+2_S9   	6 	0 	992 	162
YB+2_S10   	0 	4834 	2 	58 	28094
YB+2_S11   	4 	0 	-482 	164
YB+2_S12   	132 	124 	990 	16742
YB+2_S1   	55 	1657 	154 	0
YB+2_S2   	46 	20404 	17 	0
YB+2_S3   	29770 	0 	695 	0
YB+2_S4   	19405 	3 	2 	-57921 	77
YB+2_S5   	-12046 	0 	244 	0
YB+2_S6   	276 	0 	46 	0
YB+2_S7   	1 	260 	-27545 	0
YB+2_S8   	1150 	0 	0 	0
YB+2_S9   	-1055 	0 	-58710 	8
YB+2_S10   	193 	10 	493 	0 	0
YB+2_S11   	9612 	8543 	357 	3
YB+2_S12   	0 	0 	0 	0
CH= 2 MOD= 100 BIAS= 34
YB+2_S1   	-39807 	-29268 	2531 	50
YB+2_S2   	39236 	1 	-36186 	-29636
YB+2_S3   	5033 	14872 	899 	3520
YB+2_S4   	12010 	5699 	2 	-21797 	1562
YB+2_S5   	43233 	28885 	318 	58458
YB+2_S6   	-33672 	0 	1089 	361
YB+2_S7   	4592 	4121 	412 	0
YB+2_S8   	21576 	-12182 	0 	1556
YB+2_S9   	1 	0 	2934 	800
YB+2_S10   	2 	-36722 	0 	268 	-30358
YB+2_S11   	12 	2 	35821 	40845
YB+2_S12   	151 	551 	13508 	14944
YB+2_S1   	-61415 	26500 	713 	0
YB+2_S2   	1372 	-11389 	5 	0
YB+2_S3   	37686 	38 	-58671 	0
YB+2_S4   	9522 	1886 	9 	1710 	16
YB+2_S5   	9148 	315 	8550 	0
YB+2_S6   	2193 	0 	-50711 	0
YB+2_S7   	5 	-64340 	-20528 	0
YB+2_S8   	32232 	3 	0 	0
YB+2_S9   	50496 	0 	18616 	6
YB+2_S10   	5415 	2985 	495 	1 	0
YB+2_S11   	3780 	3281 	1660 	2
YB+2_S12   	22 	0 	0 	0
CH= 2 MOD= 100 BIAS= 38
YB+2_S1   	16046 	-37328 	-25511 	3551
YB+2_S2   	52448 	50 	-21491 	33339
YB+2_S3   	-13847 	5528 	11769 	-47747
YB+2_S4   	41421 	-17527 	1604 	3533 	-40938
YB+2_S5   	26294 	-20644 	199 	25611
YB+2_S6   	-1298 	0 	-57670 	7195
YB+2_S7   	-26381 	8627 	2059 	0
YB+2_S8   	-17389 	-20444 	0 	7043
YB+2_S9   	77 	0 	-38248 	5724
YB+2_S10   	163 	15158 	8 	48854 	-56425
YB+2_S11   	4098 	2 	30373 	-20134
YB+2_S12   	3016 	5212 	2979 	5568
YB+2_S1   	-54201 	-11118 	11080 	0
YB+2_S2   	-30423 	41078 	139 	0
YB+2_S3   	9112 	10301 	43651 	0
YB+2_S4   	-5036 	2261 	580 	-40072 	992
YB+2_S5   	9230 	-39771 	-9777 	0
YB+2_S6   	10914 	0 	37084 	0
YB+2_S7   	154 	37357 	-9028 	0
YB+2_S8   	-14932 	178 	0 	0
YB+2_S9   	22973 	402 	-7041 	1
YB+2_S10   	7609 	-60892 	1005 	22 	21
YB+2_S11   	-23815 	41121 	3807 	12
YB+2_S12   	107 	1 	8 	0
CH= 2 MOD= 100 BIAS= 42
YB+2_S1   	5192 	-34179 	15611 	-43045
YB+2_S2   	10359 	842 	-9848 	24013
YB+2_S3   	33733 	18636 	22449 	16415
YB+2_S4   	38143 	-3287 	-44413 	26963 	7839
YB+2_S5   	-31889 	17737 	-28819 	-21024
YB+2_S6   	6787 	2 	43686 	23899
YB+2_S7   	11518 	8000 	35541 	1
YB+2_S8   	52911 	4377 	0 	-35006
YB+2_S9   	46 	0 	17579 	-32172
YB+2_S10   	2135 	-48398 	-38488 	27602 	27137
YB+2_S11   	35198 	245 	-21976 	-11666
YB+2_S12   	24845 	32281 	24716 	42433
YB+2_S1   	17142 	-42406 	-62127 	0
YB+2_S2   	5857 	-34396 	4550 	0
YB+2_S3   	6478 	17843 	-10580 	0
YB+2_S4   	-32885 	4091 	6673 	14499 	3093
YB+2_S5   	554 	21513 	45855 	0
YB+2_S6   	31405 	11 	-27942 	0
YB+2_S7   	-59838 	-16590 	-8285 	0
YB+2_S8   	34613 	13049 	7 	0
YB+2_S9   	32412 	237 	57694 	13
YB+2_S10   	-28922 	1893 	20281 	659 	847
YB+2_S11   	-22829 	-1533 	12549 	96
YB+2_S12   	7602 	0 	771 	0
CH= 2 MOD= 100 BIAS= 46
YB+2_S1   	-26749 	10953 	5399 	-22732
YB+2_S2   	-52255 	12842 	-43134 	11987
YB+2_S3   	5121 	-20735 	7036 	-42480
YB+2_S4   	34886 	8044 	-60422 	3871 	39224
YB+2_S5   	15968 	16455 	-25434 	-10287
YB+2_S6   	1143 	0 	-30658 	-19886
YB+2_S7   	-2497 	19343 	28977 	38
YB+2_S8   	-42291 	17154 	0 	-5086
YB+2_S9   	99 	1 	-9301 	-36357
YB+2_S10   	29873 	16999 	-4970 	-20131 	-17865
YB+2_S11   	-45972 	-31616 	-3294 	-20189
YB+2_S12   	-27440 	-32052 	21468 	25150
YB+2_S1   	2922 	49854 	-49336 	0
YB+2_S2   	-29341 	15816 	-54122 	1
YB+2_S3   	6340 	28971 	-45788 	0
YB+2_S4   	34449 	5676 	19832 	-6375 	390
YB+2_S5   	8922 	11639 	-13241 	0
YB+2_S6   	11162 	2085 	-6559 	0
YB+2_S7   	-49224 	983 	-668 	0
YB+2_S8   	-32075 	-1368 	449 	6
YB+2_S9   	38200 	1617 	-29721 	54
YB+2_S10   	-49100 	13559 	19744 	6366 	39483
YB+2_S11   	-22983 	5498 	-32036 	148
YB+2_S12   	-46794 	61 	396 	0
CH= 2 MOD= 110 BIAS= 16
YB+2_S1   	0 	0 	0 	0
YB+2_S2   	0 	0 	0 	0
YB+2_S3   	0 	0 	0 	0
YB+2_S4   	0 	0 	0 	0 	0
YB+2_S5   	0 	0 	0 	6
YB+2_S6   	0 	0 	0 	0
YB+2_S7   	0 	0 	0 	0
YB+2_S8   	0 	0 	0 	0
YB+2_S9   	0 	0 	0 	0
YB+2_S10   	0 	0 	0 	0 	0
YB+2_S11   	0 	0 	0 	0
YB+2_S12   	0 	0 	0 	0
YB+2_S1   	0 	0 	0 	0
YB+2_S2   	0 	0 	0 	5614
YB+2_S3   	-373 	0 	0 	-14773
YB+2_S4   	0 	0 	0 	0 	0
YB+2_S5   	0 	0 	0 	232
YB+2_S6   	0 	0 	0 	606
YB+2_S7   	0 	0 	0 	13
YB+2_S8   	0 	0 	0 	0
YB+2_S9   	0 	0 	0 	6
YB+2_S10   	0 	0 	0 	0 	0
YB+2_S11   	0 	0 	0 	0
YB+2_S12   	0 	0 	0 	22957
CH= 2 MOD= 110 BIAS= 18
YB+2_S1   	0 	0 	0 	0
YB+2_S2   	0 	0 	0 	0
YB+2_S3   	0 	0 	0 	0
YB+2_S4   	0 	0 	0 	0 	0
YB+2_S5   	0 	0 	0 	5
YB+2_S6   	1 	0 	0 	0
YB+2_S7   	0 	0 	0 	0
YB+2_S8   	0 	0 	0 	0
YB+2_S9   	0 	0 	0 	0
YB+2_S10   	0 	0 	0 	0 	0
YB+2_S11   	0 	0 	0 	0
YB+2_S12   	0 	0 	0 	0
YB+2_S1   	0 	0 	0 	0
YB+2_S2   	0 	0 	0 	0
YB+2_S3   	-952 	0 	0 	1
YB+2_S4   	0 	0 	0 	0 	0
YB+2_S5   	0 	0 	0 	100
YB+2_S6   	0 	0 	0 	362
YB+2_S7   	0 	0 	0 	1
YB+2_S8   	0 	0 	0 	0
YB+2_S9   	0 	0 	0 	0
YB+2_S10   	0 	0 	0 	0 	0
YB+2_S11   	0 	0 	0 	0
YB+2_S12   	0 	0 	0 	0
CH= 2 MOD= 110 BIAS= 22
YB+2_S1   	0 	0 	0 	0
YB+2_S2   	2 	0 	23 	0
YB+2_S3   	0 	1043 	0 	0
YB+2_S4   	170 	0 	0 	0 	0
YB+2_S5   	8 	0 	0 	6
YB+2_S6   	54 	0 	0 	0
YB+2_S7   	0 	0 	0 	0
YB+2_S8   	0 	1 	0 	115
YB+2_S9   	0 	0 	0 	0
YB+2_S10   	0 	251 	0 	0 	116
YB+2_S11   	0 	0 	-62000 	0
YB+2_S12   	5 	0 	0 	0
YB+2_S1   	0 	0 	0 	0
YB+2_S2   	0 	0 	0 	0
YB+2_S3   	22641 	0 	2810 	0
YB+2_S4   	2 	0 	0 	0 	0
YB+2_S5   	0 	0 	0 	0
YB+2_S6   	0 	0 	0 	0
YB+2_S7   	0 	0 	0 	0
YB+2_S8   	0 	0 	0 	0
YB+2_S9   	0 	0 	0 	0
YB+2_S10   	0 	0 	0 	0 	0
YB+2_S11   	324 	0 	0 	0
YB+2_S12   	0 	0 	0 	0
CH= 2 MOD= 110 BIAS= 26
YB+2_S1   	12 	2905 	-63424 	0
YB+2_S2   	-20305 	0 	-61328 	3725
YB+2_S3   	4568 	3181 	0 	75
YB+2_S4   	4578 	669 	0 	-7930 	27
YB+2_S5   	1727 	-11186 	14 	8855
YB+2_S6   	-24247 	1 	482 	15
YB+2_S7   	20 	16 	38 	0
YB+2_S8   	138 	-41398 	0 	-57769
YB+2_S9   	1 	0 	0 	41
YB+2_S10   	0 	14294 	0 	3 	7000
YB+2_S11   	6 	0 	-25619 	8
YB+2_S12   	0 	672 	214 	1555
YB+2_S1   	12 	4 	1759 	0
YB+2_S2   	955 	20168 	0 	0
YB+2_S3   	7252 	0 	1257 	0
YB+2_S4   	-6726 	0 	1 	-18292 	0
YB+2_S5   	23985 	0 	0 	0
YB+2_S6   	103 	0 	4 	0
YB+2_S7   	0 	45 	11436 	0
YB+2_S8   	10 	0 	0 	0
YB+2_S9   	46 	0 	3815 	0
YB+2_S10   	13 	2 	0 	76 	0
YB+2_S11   	5134 	107 	373 	0
YB+2_S12   	1 	0 	0 	0
CH= 2 MOD= 110 BIAS= 30
YB+2_S1   	17108 	18127 	30742 	5
YB+2_S2   	11126 	289 	-27162 	53661
YB+2_S3   	-6836 	-23073 	137 	-52091
YB+2_S4   	-9613 	22555 	5810 	-3889 	9779
YB+2_S5   	-7262 	53164 	34 	57007
YB+2_S6   	22804 	0 	19747 	3290
YB+2_S7   	-54395 	2548 	460 	0
YB+2_S8   	45582 	-33536 	0 	-18488
YB+2_S9   	210 	1 	-7103 	10391
YB+2_S10   	100 	33456 	38 	337 	24472
YB+2_S11   	1465 	2 	-3789 	-28899
YB+2_S12   	17107 	15228 	-23454 	14654
YB+2_S1   	420 	12059 	937 	0
YB+2_S2   	-43647 	11119 	422 	0
YB+2_S3   	-55678 	336 	19045 	0
YB+2_S4   	1116 	1093 	185 	-7174 	14299
YB+2_S5   	21403 	0 	-51567 	0
YB+2_S6   	-31467 	0 	1646 	0
YB+2_S7   	42 	28583 	-40922 	0
YB+2_S8   	-29160 	12 	0 	0
YB+2_S9   	-53857 	0 	-12247 	86
YB+2_S10   	4037 	4214 	4230 	10 	35
YB+2_S11   	-25379 	-48729 	10993 	2263
YB+2_S12   	691 	0 	0 	0
CH= 2 MOD= 110 BIAS= 34
YB+2_S1   	-36388 	22954 	-21452 	809
YB+2_S2   	-38000 	2068 	3462 	44300
YB+2_S3   	11581 	10693 	18492 	9993
YB+2_S4   	12826 	9418 	7 	1734 	20181
YB+2_S5   	-39877 	-33918 	112 	-8978
YB+2_S6   	8426 	0 	-42652 	39698
YB+2_S7   	26594 	46370 	9426 	0
YB+2_S8   	23897 	-4974 	8 	33983
YB+2_S9   	466 	0 	49747 	-20067
YB+2_S10   	809 	-51540 	627 	7643 	641
YB+2_S11   	5872 	73 	-17750 	19366
YB+2_S12   	17399 	-21042 	-580 	16911
YB+2_S1   	-23677 	9047 	11959 	0
YB+2_S2   	39072 	-17979 	296 	0
YB+2_S3   	26679 	485 	-31093 	0
YB+2_S4   	53838 	13911 	2402 	8636 	1826
YB+2_S5   	-1519 	34455 	-14455 	0
YB+2_S6   	27749 	9 	51281 	0
YB+2_S7   	579 	20429 	39832 	0
YB+2_S8   	5142 	1677 	6 	0
YB+2_S9   	44740 	7 	-19090 	129
YB+2_S10   	-51176 	-8159 	13474 	665 	885
YB+2_S11   	16602 	-4621 	-16976 	1985
YB+2_S12   	348 	4 	15 	0
CH= 2 MOD= 110 BIAS= 38
YB+2_S1   	22033 	20463 	-52796 	-20051
YB+2_S2   	14403 	14733 	-26461 	-23200
YB+2_S3   	-5111 	16518 	-2740 	40433
YB+2_S4   	45186 	410 	-27783 	16516 	41755
YB+2_S5   	28502 	-15459 	3458 	2100
YB+2_S6   	5457 	0 	-23978 	10379
YB+2_S7   	-14297 	44980 	6915 	5
YB+2_S8   	-9098 	-17685 	33 	-34569
YB+2_S9   	5389 	0 	30052 	10798
YB+2_S10   	10075 	-35767 	11649 	-12625 	9494
YB+2_S11   	-29182 	151 	6186 	-18625
YB+2_S12   	-20426 	-20865 	-47373 	2918
YB+2_S1   	-37430 	-49040 	18792 	0
YB+2_S2   	11306 	-31983 	8138 	27
YB+2_S3   	-35067 	-8963 	-6124 	0
YB+2_S4   	31062 	34716 	13099 	-12465 	-42464
YB+2_S5   	33349 	1843 	-19752 	0
YB+2_S6   	-1679 	14 	-7655 	0
YB+2_S7   	22450 	4175 	12649 	0
YB+2_S8   	29365 	-15376 	52 	2
YB+2_S9   	41329 	2419 	8165 	196
YB+2_S10   	11647 	-33889 	-13898 	1731 	6563
YB+2_S11   	11081 	-4970 	10585 	4930
YB+2_S12   	6465 	37 	394 	0
CH= 2 MOD= 110 BIAS= 42
YB+2_S1   	-1451 	-4328 	-334 	485
YB+2_S2   	22046 	20265 	-4798 	-46848
YB+2_S3   	-44628 	-21690 	-5929 	-52671
YB+2_S4   	55384 	-9761 	-7884 	-1327 	-44007
YB+2_S5   	45658 	41545 	27353 	4034
YB+2_S6   	27915 	0 	-32101 	17026
YB+2_S7   	50958 	5740 	57744 	126
YB+2_S8   	-6075 	-46294 	62 	11751
YB+2_S9   	12656 	5 	23991 	-33828
YB+2_S10   	21788 	26289 	-27975 	719 	12081
YB+2_S11   	2083 	-61130 	-11941 	-5098
YB+2_S12   	20608 	-19798 	844 	15196
YB+2_S1   	-5089 	-49323 	-40223 	0
YB+2_S2   	-11228 	-11804 	-20615 	200
YB+2_S3   	-8495 	53864 	60892 	0
YB+2_S4   	6289 	19969 	-34397 	56893 	3100
YB+2_S5   	-30596 	20353 	3538 	0
YB+2_S6   	-13031 	333 	-3186 	0
YB+2_S7   	-36624 	-15992 	-23787 	0
YB+2_S8   	-1639 	-45431 	842 	0
YB+2_S9   	3576 	2424 	-9880 	1445
YB+2_S10   	-14336 	-3101 	19044 	-37156 	39514
YB+2_S11   	21794 	-42387 	51456 	-25524
YB+2_S12   	-11318 	728 	2475 	0
CH= 2 MOD= 110 BIAS= 46
YB+2_S1   	23986 	-24313 	-14272 	25910
YB+2_S2   	21586 	7649 	15283 	1404
YB+2_S3   	3229 	27329 	-9685 	3699
YB+2_S4   	-31649 	-8058 	35258 	1632 	-35787
YB+2_S5   	-28236 	-4764 	10395 	-23295
YB+2_S6   	32112 	1 	281 	-29662
YB+2_S7   	46222 	-16469 	-53194 	1485
YB+2_S8   	20118 	-33024 	65 	-25450
YB+2_S9   	-20353 	1350 	-25283 	-58317
YB+2_S10   	2077 	-18309 	-35222 	30203 	2983
YB+2_S11   	-53122 	-13411 	9374 	11714
YB+2_S12   	4010 	20414 	-23349 	-46538
YB+2_S1   	11900 	39687 	-42153 	0
YB+2_S2   	-7395 	-11761 	-19063 	658
YB+2_S3   	18355 	51721 	-18339 	1
YB+2_S4   	-38939 	5026 	-9927 	-19452 	-7480
YB+2_S5   	-60010 	15913 	-9070 	0
YB+2_S6   	31607 	5815 	9539 	0
YB+2_S7   	-14587 	-19415 	-3597 	24
YB+2_S8   	-18282 	49454 	23261 	110
YB+2_S9   	32379 	-148 	-21108 	7033
YB+2_S10   	-17684 	-31597 	9483 	34288 	-35163
YB+2_S11   	-6118 	19695 	-44413 	-12719
YB+2_S12   	-29238 	4136 	6839 	0
CH= 2 MOD= 120 BIAS= 16
YB+2_S1   	0 	0 	0 	0
YB+2_S2   	0 	0 	0 	0
YB+2_S3   	0 	0 	0 	0
YB+2_S4   	0 	0 	0 	0 	0
YB+2_S5   	0 	0 	0 	44
YB+2_S6   	10 	0 	0 	0
YB+2_S7   	0 	0 	0 	0
YB+2_S8   	0 	0 	0 	0
YB+2_S9   	0 	0 	0 	0
YB+2_S10   	0 	0 	0 	0 	0
YB+2_S11   	0 	0 	0 	0
YB+2_S12   	0 	0 	0 	0
YB+2_S1   	0 	0 	0 	0
YB+2_S2   	0 	0 	0 	40888
YB+2_S3   	47456 	0 	0 	8057
YB+2_S4   	0 	0 	0 	0 	0
YB+2_S5   	0 	0 	0 	277
YB+2_S6   	0 	0 	0 	624
YB+2_S7   	0 	0 	0 	17
YB+2_S8   	0 	0 	0 	0
YB+2_S9   	0 	0 	0 	0
YB+2_S10   	0 	0 	0 	0 	0
YB+2_S11   	0 	0 	0 	0
YB+2_S12   	0 	0 	0 	12315
CH= 2 MOD= 120 BIAS= 18
YB+2_S1   	0 	0 	0 	0
YB+2_S2   	0 	0 	0 	0
YB+2_S3   	0 	0 	0 	0
YB+2_S4   	0 	0 	0 	0 	0
YB+2_S5   	0 	0 	0 	79
YB+2_S6   	42 	0 	0 	0
YB+2_S7   	0 	0 	0 	0
YB+2_S8   	0 	0 	0 	0
YB+2_S9   	0 	0 	0 	0
YB+2_S10   	0 	0 	0 	0 	0
YB+2_S11   	0 	0 	0 	0
YB+2_S12   	0 	0 	0 	0
YB+2_S1   	0 	0 	0 	0
YB+2_S2   	0 	0 	0 	0
YB+2_S3   	5425 	0 	0 	1
YB+2_S4   	0 	0 	0 	0 	0
YB+2_S5   	0 	0 	0 	109
YB+2_S6   	0 	0 	0 	343
YB+2_S7   	0 	0 	0 	6
YB+2_S8   	0 	0 	0 	0
YB+2_S9   	0 	0 	0 	0
YB+2_S10   	0 	0 	0 	0 	0
YB+2_S11   	0 	0 	0 	0
YB+2_S12   	0 	0 	0 	0
CH= 2 MOD= 120 BIAS= 22
YB+2_S1   	0 	0 	0 	0
YB+2_S2   	2488 	0 	3179 	0
YB+2_S3   	0 	138 	0 	0
YB+2_S4   	7 	0 	0 	0 	0
YB+2_S5   	6850 	0 	0 	285
YB+2_S6   	230 	0 	0 	1
YB+2_S7   	0 	8 	0 	0
YB+2_S8   	0 	2 	0 	-50074
YB+2_S9   	0 	0 	0 	0
YB+2_S10   	0 	32888 	0 	0 	1409
YB+2_S11   	0 	0 	-2545 	0
YB+2_S12   	17 	0 	3 	0
YB+2_S1   	0 	0 	0 	0
YB+2_S2   	0 	0 	0 	0
YB+2_S3   	-9031 	0 	1 	0
YB+2_S4   	42 	0 	259 	0 	0
YB+2_S5   	0 	0 	0 	0
YB+2_S6   	0 	0 	0 	0
YB+2_S7   	0 	0 	0 	0
YB+2_S8   	4 	0 	0 	0
YB+2_S9   	0 	0 	0 	0
YB+2_S10   	0 	2 	0 	0 	0
YB+2_S11   	-28106 	11 	0 	0
YB+2_S12   	0 	0 	0 	0
CH= 2 MOD= 120 BIAS= 26
YB+2_S1   	15 	37005 	-12621 	0
YB+2_S2   	-32363 	4 	32860 	47743
YB+2_S3   	43331 	-15363 	0 	3818
YB+2_S4   	-4482 	7798 	0 	7526 	1846
YB+2_S5   	22902 	-46960 	21 	-36696
YB+2_S6   	18093 	0 	-47148 	858
YB+2_S7   	1875 	10479 	286 	0
YB+2_S8   	-51984 	3380 	0 	16615
YB+2_S9   	4 	0 	83 	16
YB+2_S10   	5 	33202 	1 	206 	-30602
YB+2_S11   	465 	0 	-6285 	912
YB+2_S12   	4 	21171 	5725 	37308
YB+2_S1   	458 	810 	1091 	0
YB+2_S2   	11476 	-28850 	12 	0
YB+2_S3   	-23503 	30 	22910 	0
YB+2_S4   	-62259 	22 	219 	28398 	4
YB+2_S5   	11071 	0 	1 	0
YB+2_S6   	2379 	0 	753 	0
YB+2_S7   	0 	1273 	13678 	0
YB+2_S8   	1356 	9 	0 	0
YB+2_S9   	0 	0 	-5882 	0
YB+2_S10   	1079 	151 	2 	760 	2
YB+2_S11   	-1857 	5958 	4958 	0
YB+2_S12   	46 	0 	0 	0
CH= 2 MOD= 120 BIAS= 30
YB+2_S1   	-52378 	38316 	-4680 	116
YB+2_S2   	21594 	27035 	44760 	2341
YB+2_S3   	-31394 	-21568 	5052 	6920
YB+2_S4   	15022 	-17086 	38697 	7651 	-32223
YB+2_S5   	2679 	4863 	185 	-5411
YB+2_S6   	52786 	0 	29539 	-30819
YB+2_S7   	-20753 	5368 	13049 	12
YB+2_S8   	29660 	37958 	14 	8853
YB+2_S9   	1590 	0 	12952 	60246
YB+2_S10   	-57518 	-15462 	829 	-51357 	-39626
YB+2_S11   	36637 	21 	-13421 	11396
YB+2_S12   	11908 	-8779 	-21034 	46343
YB+2_S1   	5894 	-20675 	6308 	0
YB+2_S2   	8232 	952 	3145 	0
YB+2_S3   	21031 	1373 	-3758 	0
YB+2_S4   	10998 	-42445 	6397 	-19204 	-29202
YB+2_S5   	13604 	19 	-49132 	0
YB+2_S6   	36156 	12 	2351 	0
YB+2_S7   	2085 	20393 	-2635 	0
YB+2_S8   	-5883 	3457 	13 	0
YB+2_S9   	-30 	7 	44969 	846
YB+2_S10   	-15890 	34076 	15339 	498 	2408
YB+2_S11   	-42020 	-13784 	-13203 	-152
YB+2_S12   	-26040 	0 	21 	0
CH= 2 MOD= 120 BIAS= 34
YB+2_S1   	-8866 	5285 	31946 	4997
YB+2_S2   	-2031 	7603 	15152 	25066
YB+2_S3   	-17503 	60831 	24787 	-19225
YB+2_S4   	-28778 	-12311 	181 	33314 	-19475
YB+2_S5   	-47327 	-20946 	1764 	-4483
YB+2_S6   	15557 	1 	30319 	9473
YB+2_S7   	28469 	-12534 	-13196 	38
YB+2_S8   	6121 	24485 	333 	-12047
YB+2_S9   	15492 	0 	-15088 	-5237
YB+2_S10   	-16111 	27292 	-42992 	50672 	-9467
YB+2_S11   	16739 	18506 	-5077 	47223
YB+2_S12   	9209 	-27000 	-2356 	28956
YB+2_S1   	48753 	34020 	-23200 	0
YB+2_S2   	-26973 	20716 	4687 	0
YB+2_S3   	11757 	34170 	936 	0
YB+2_S4   	-33564 	14340 	2568 	-14193 	12353
YB+2_S5   	46090 	20468 	18601 	0
YB+2_S6   	-3360 	35 	31270 	0
YB+2_S7   	19205 	19851 	-28102 	0
YB+2_S8   	36663 	-15045 	294 	0
YB+2_S9   	-2547 	361 	26397 	2052
YB+2_S10   	-19017 	-28996 	36126 	21728 	-23875
YB+2_S11   	18120 	5348 	-27471 	43102
YB+2_S12   	-31778 	49 	1102 	0
CH= 2 MOD= 120 BIAS= 38
YB+2_S1   	57431 	14261 	11705 	6068
YB+2_S2   	22810 	-8596 	10782 	-5322
YB+2_S3   	4809 	30630 	-4461 	6362
YB+2_S4   	4408 	21718 	-26183 	20268 	-9300
YB+2_S5   	39134 	-19051 	-35033 	-1788
YB+2_S6   	24474 	0 	14498 	18406
YB+2_S7   	-8017 	-57154 	52922 	649
YB+2_S8   	-1147 	-16704 	264 	-47367
YB+2_S9   	8961 	3 	-3018 	-54720
YB+2_S10   	-45755 	-14876 	-9567 	-14549 	-60338
YB+2_S11   	14441 	-53103 	-19403 	-41880
YB+2_S12   	35273 	27747 	3550 	12103
YB+2_S1   	-12723 	17200 	-16045 	0
YB+2_S2   	13339 	-44802 	6364 	1435
YB+2_S3   	-8550 	-38027 	-3602 	0
YB+2_S4   	164 	28030 	11914 	-14526 	-30876
YB+2_S5   	-8281 	-4159 	-2744 	0
YB+2_S6   	-17826 	280 	41290 	0
YB+2_S7   	-48150 	4056 	56649 	6
YB+2_S8   	30051 	9136 	-44719 	21
YB+2_S9   	38557 	19266 	-38523 	5610
YB+2_S10   	14460 	-20812 	-6697 	-15054 	-39267
YB+2_S11   	16080 	41240 	28538 	19809
YB+2_S12   	32844 	881 	9905 	0
CH= 2 MOD= 120 BIAS= 42
YB+2_S1   	-17571 	-46685 	-26339 	41271
YB+2_S2   	3549 	-14797 	-42406 	20058
YB+2_S3   	3809 	-17392 	44094 	-868
YB+2_S4   	27408 	-18785 	40710 	14715 	12973
YB+2_S5   	-8868 	15702 	26755 	-18609
YB+2_S6   	26166 	0 	-25565 	-39664
YB+2_S7   	-9488 	22391 	-34691 	8163
YB+2_S8   	-37149 	-30736 	529 	1506
YB+2_S9   	-3155 	1060 	16101 	10364
YB+2_S10   	8439 	-16696 	-45660 	-17026 	59541
YB+2_S11   	24988 	1080 	4797 	16317
YB+2_S12   	2221 	-46897 	-24770 	4827
YB+2_S1   	-25014 	-55463 	-21087 	0
YB+2_S2   	26415 	69 	13676 	2882
YB+2_S3   	49704 	-13237 	-31602 	26
YB+2_S4   	9107 	15034 	-4644 	-32485 	-18476
YB+2_S5   	2481 	-37223 	49962 	0
YB+2_S6   	-7834 	3233 	40241 	0
YB+2_S7   	-3162 	20891 	22477 	143
YB+2_S8   	-17754 	5243 	47937 	74
YB+2_S9   	-20807 	-26223 	26666 	25724
YB+2_S10   	-12575 	8646 	10201 	-47125 	-3108
YB+2_S11   	40732 	12639 	2583 	-8773
YB+2_S12   	40743 	-31597 	19499 	0
CH= 2 MOD= 120 BIAS= 46
YB+2_S1   	-8479 	19785 	42485 	38630
YB+2_S2   	-25079 	-19190 	-31525 	39539
YB+2_S3   	-40786 	39864 	31464 	-34004
YB+2_S4   	-47695 	2919 	-27816 	-59365 	14236
YB+2_S5   	43659 	-3549 	-5309 	-13332
YB+2_S6   	7242 	0 	7501 	-32504
YB+2_S7   	-1218 	27870 	4574 	-28684
YB+2_S8   	13473 	2114 	4199 	-1889
YB+2_S9   	18880 	2302 	35860 	6786
YB+2_S10   	19103 	-14228 	15164 	19184 	10715
YB+2_S11   	-30078 	15572 	29357 	-11048
YB+2_S12   	21597 	-13385 	-64769 	-14991
YB+2_S1   	-15142 	11045 	-27232 	0
YB+2_S2   	-29329 	35396 	-57161 	3085
YB+2_S3   	-44117 	15942 	-49374 	302
YB+2_S4   	18147 	16092 	43349 	-44342 	-349
YB+2_S5   	1431 	22434 	-15985 	0
YB+2_S6   	-25251 	7713 	-46061 	0
YB+2_S7   	11534 	-41145 	3607 	429
YB+2_S8   	-6361 	-8678 	48608 	1698
YB+2_S9   	-12209 	25582 	6843 	33161
YB+2_S10   	4920 	14810 	21556 	19391 	-21536
YB+2_S11   	-47838 	-5336 	-4405 	8774
YB+2_S12   	36063 	-1644 	48261 	1
