CH= 1 MOD= 40 BIAS= 16
YB+2_S1   	0 	0 	3192 	0
YB+2_S2   	4 	0 	0 	1020
YB+2_S3   	0 	0 	0 	0
YB+2_S4   	358 	0 	0 	4782 	0
YB+2_S5   	0 	0 	0 	0
YB+2_S6   	0 	3970 	0 	0
YB+2_S7   	0 	0 	0 	0
YB+2_S8   	0 	0 	0 	0
YB+2_S9   	0 	49662 	11 	304
YB+2_S10   	0 	0 	0 	0 	0
YB+2_S11   	0 	0 	2263 	0
YB+2_S12   	0 	-41113 	0 	0
YB+2_S1   	0 	0 	95 	144
YB+2_S2   	0 	0 	0 	25338
YB+2_S3   	36 	4673 	0 	10715
YB+2_S4   	0 	0 	0 	4 	-29529
YB+2_S5   	0 	0 	0 	21
YB+2_S6   	0 	13 	0 	230
YB+2_S7   	0 	0 	4137 	1122
YB+2_S8   	0 	0 	0 	41
YB+2_S9   	2021 	0 	0 	-26474
YB+2_S10   	0 	0 	85 	0 	0
YB+2_S11   	0 	0 	0 	1183
YB+2_S12   	0 	0 	0 	5693
CH= 1 MOD= 40 BIAS= 18
YB+2_S1   	0 	0 	0 	0
YB+2_S2   	0 	0 	0 	0
YB+2_S3   	0 	0 	0 	0
YB+2_S4   	0 	0 	0 	1602 	0
YB+2_S5   	0 	0 	0 	0
YB+2_S6   	0 	0 	0 	0
YB+2_S7   	0 	0 	0 	0
YB+2_S8   	0 	0 	0 	0
YB+2_S9   	0 	2 	0 	0
YB+2_S10   	0 	0 	0 	0 	0
YB+2_S11   	0 	0 	0 	0
YB+2_S12   	0 	0 	0 	0
YB+2_S1   	0 	0 	0 	0
YB+2_S2   	0 	0 	0 	3436
YB+2_S3   	0 	0 	0 	-42049
YB+2_S4   	0 	0 	0 	0 	2304
YB+2_S5   	0 	0 	0 	1
YB+2_S6   	0 	0 	0 	38
YB+2_S7   	0 	0 	0 	0
YB+2_S8   	0 	0 	0 	0
YB+2_S9   	0 	0 	0 	3787
YB+2_S10   	0 	0 	0 	0 	0
YB+2_S11   	0 	0 	0 	0
YB+2_S12   	0 	0 	0 	0
CH= 1 MOD= 40 BIAS= 22
YB+2_S1   	0 	0 	0 	0
YB+2_S2   	0 	0 	0 	0
YB+2_S3   	0 	5 	0 	0
YB+2_S4   	0 	0 	0 	0 	0
YB+2_S5   	0 	0 	0 	0
YB+2_S6   	0 	0 	0 	0
YB+2_S7   	0 	0 	0 	0
YB+2_S8   	0 	0 	0 	0
YB+2_S9   	0 	0 	0 	0
YB+2_S10   	0 	0 	0 	0 	0
YB+2_S11   	0 	0 	0 	0
YB+2_S12   	0 	0 	0 	0
YB+2_S1   	0 	0 	0 	0
YB+2_S2   	0 	0 	0 	0
YB+2_S3   	0 	0 	0 	0
YB+2_S4   	0 	0 	0 	0 	0
YB+2_S5   	0 	0 	0 	0
YB+2_S6   	0 	0 	0 	0
YB+2_S7   	0 	0 	0 	0
YB+2_S8   	0 	0 	0 	0
YB+2_S9   	0 	0 	0 	410
YB+2_S10   	0 	0 	0 	0 	0
YB+2_S11   	0 	0 	0 	0
YB+2_S12   	0 	0 	0 	0
CH= 1 MOD= 40 BIAS= 26
YB+2_S1   	0 	0 	0 	0
YB+2_S2   	0 	0 	0 	0
YB+2_S3   	0 	7 	0 	0
YB+2_S4   	0 	0 	0 	0 	0
YB+2_S5   	0 	0 	0 	0
YB+2_S6   	0 	0 	0 	0
YB+2_S7   	0 	0 	0 	0
YB+2_S8   	0 	0 	0 	0
YB+2_S9   	0 	0 	0 	0
YB+2_S10   	0 	0 	0 	0 	0
YB+2_S11   	0 	0 	0 	0
YB+2_S12   	0 	0 	0 	16
YB+2_S1   	0 	0 	0 	0
YB+2_S2   	0 	12 	0 	0
YB+2_S3   	0 	0 	0 	0
YB+2_S4   	0 	0 	0 	0 	0
YB+2_S5   	0 	0 	0 	0
YB+2_S6   	0 	0 	0 	0
YB+2_S7   	0 	0 	0 	0
YB+2_S8   	0 	0 	0 	0
YB+2_S9   	1 	0 	0 	0
YB+2_S10   	0 	0 	0 	0 	0
YB+2_S11   	0 	0 	0 	0
YB+2_S12   	0 	0 	0 	0
CH= 1 MOD= 40 BIAS= 30
YB+2_S1   	0 	0 	0 	0
YB+2_S2   	0 	0 	48 	0
YB+2_S3   	0 	12 	0 	0
YB+2_S4   	10 	0 	0 	0 	0
YB+2_S5   	0 	1 	0 	0
YB+2_S6   	0 	0 	0 	0
YB+2_S7   	0 	0 	0 	0
YB+2_S8   	0 	0 	0 	0
YB+2_S9   	0 	0 	0 	0
YB+2_S10   	0 	0 	0 	0 	0
YB+2_S11   	0 	0 	0 	2
YB+2_S12   	0 	0 	0 	0
YB+2_S1   	0 	0 	0 	0
YB+2_S2   	0 	0 	0 	0
YB+2_S3   	0 	0 	0 	0
YB+2_S4   	0 	0 	0 	0 	0
YB+2_S5   	0 	0 	0 	0
YB+2_S6   	0 	0 	0 	0
YB+2_S7   	0 	0 	0 	0
YB+2_S8   	0 	0 	0 	0
YB+2_S9   	0 	0 	0 	0
YB+2_S10   	0 	0 	0 	0 	0
YB+2_S11   	0 	0 	0 	0
YB+2_S12   	0 	0 	0 	0
CH= 1 MOD= 40 BIAS= 34
YB+2_S1   	343 	0 	0 	0
YB+2_S2   	0 	0 	379 	0
YB+2_S3   	0 	11 	0 	0
YB+2_S4   	-48964 	0 	0 	0 	0
YB+2_S5   	0 	1 	11 	15
YB+2_S6   	9 	0 	4 	0
YB+2_S7   	0 	0 	0 	0
YB+2_S8   	0 	0 	0 	0
YB+2_S9   	0 	0 	0 	0
YB+2_S10   	0 	0 	0 	0 	0
YB+2_S11   	0 	0 	0 	0
YB+2_S12   	0 	0 	0 	2
YB+2_S1   	1 	86 	0 	0
YB+2_S2   	0 	0 	0 	0
YB+2_S3   	0 	0 	0 	0
YB+2_S4   	22 	0 	0 	0 	0
YB+2_S5   	0 	0 	0 	0
YB+2_S6   	0 	0 	0 	0
YB+2_S7   	0 	0 	100 	0
YB+2_S8   	0 	0 	0 	0
YB+2_S9   	0 	0 	0 	0
YB+2_S10   	0 	0 	0 	0 	0
YB+2_S11   	0 	0 	0 	0
YB+2_S12   	0 	0 	0 	0
CH= 1 MOD= 40 BIAS= 38
YB+2_S1   	-61153 	153 	0 	0
YB+2_S2   	0 	0 	6226 	0
YB+2_S3   	0 	10 	0 	0
YB+2_S4   	-1235 	0 	0 	12 	0
YB+2_S5   	0 	4973 	616 	1266
YB+2_S6   	1451 	1 	166 	0
YB+2_S7   	0 	0 	0 	0
YB+2_S8   	0 	0 	0 	0
YB+2_S9   	0 	0 	0 	0
YB+2_S10   	0 	0 	0 	7 	1
YB+2_S11   	0 	0 	8 	0
YB+2_S12   	0 	0 	0 	5
YB+2_S1   	0 	323 	0 	0
YB+2_S2   	0 	0 	0 	0
YB+2_S3   	0 	0 	0 	0
YB+2_S4   	4536 	0 	0 	0 	0
YB+2_S5   	0 	11 	0 	0
YB+2_S6   	0 	0 	0 	0
YB+2_S7   	0 	0 	390 	0
YB+2_S8   	0 	0 	1 	0
YB+2_S9   	0 	0 	0 	0
YB+2_S10   	0 	0 	0 	0 	0
YB+2_S11   	0 	0 	0 	0
YB+2_S12   	0 	0 	0 	0
CH= 1 MOD= 40 BIAS= 42
YB+2_S1   	4707 	515 	0 	0
YB+2_S2   	22 	0 	16995 	0
YB+2_S3   	0 	16 	0 	0
YB+2_S4   	-16155 	0 	0 	10 	0
YB+2_S5   	0 	21409 	72 	1071
YB+2_S6   	7762 	0 	15 	0
YB+2_S7   	0 	0 	6 	0
YB+2_S8   	0 	0 	0 	0
YB+2_S9   	0 	0 	0 	0
YB+2_S10   	0 	0 	0 	0 	1
YB+2_S11   	0 	0 	313 	23
YB+2_S12   	0 	0 	0 	14269
YB+2_S1   	1 	0 	0 	0
YB+2_S2   	0 	813 	0 	0
YB+2_S3   	0 	0 	0 	0
YB+2_S4   	-10986 	0 	0 	0 	0
YB+2_S5   	0 	446 	0 	0
YB+2_S6   	0 	0 	3 	0
YB+2_S7   	0 	0 	1006 	0
YB+2_S8   	0 	0 	7 	0
YB+2_S9   	0 	0 	0 	0
YB+2_S10   	0 	0 	0 	0 	0
YB+2_S11   	9 	0 	0 	0
YB+2_S12   	0 	0 	0 	0
CH= 1 MOD= 40 BIAS= 46
YB+2_S1   	19773 	29579 	5 	0
YB+2_S2   	168 	0 	-31318 	0
YB+2_S3   	0 	17 	0 	0
YB+2_S4   	11185 	4862 	629 	1 	0
YB+2_S5   	35102 	-18665 	2612 	-14418
YB+2_S6   	-13898 	1 	19455 	0
YB+2_S7   	0 	111 	0 	44
YB+2_S8   	0 	0 	0 	0
YB+2_S9   	0 	0 	0 	0
YB+2_S10   	0 	1 	0 	899 	0
YB+2_S11   	1 	0 	2728 	227
YB+2_S12   	1 	0 	0 	-49139
YB+2_S1   	17 	1544 	0 	0
YB+2_S2   	245 	-23346 	0 	0
YB+2_S3   	0 	1 	0 	0
YB+2_S4   	-2507 	0 	0 	0 	2
YB+2_S5   	0 	660 	0 	0
YB+2_S6   	6 	7 	1098 	0
YB+2_S7   	0 	2 	-7472 	0
YB+2_S8   	0 	0 	39080 	0
YB+2_S9   	0 	0 	965 	0
YB+2_S10   	0 	4 	1 	0 	0
YB+2_S11   	0 	129 	7 	0
YB+2_S12   	1 	0 	0 	0
CH= 1 MOD= 50 BIAS= 16
YB+2_S1   	0 	0 	75 	0
YB+2_S2   	0 	0 	0 	1
YB+2_S3   	0 	0 	0 	0
YB+2_S4   	9 	0 	0 	4843 	0
YB+2_S5   	0 	0 	0 	0
YB+2_S6   	0 	1 	0 	0
YB+2_S7   	0 	0 	0 	0
YB+2_S8   	0 	0 	0 	0
YB+2_S9   	0 	322 	5 	8
YB+2_S10   	0 	0 	0 	0 	0
YB+2_S11   	0 	0 	0 	0
YB+2_S12   	0 	92 	0 	0
YB+2_S1   	0 	0 	0 	24
YB+2_S2   	0 	0 	0 	1403
YB+2_S3   	0 	26 	0 	48982
YB+2_S4   	0 	0 	0 	0 	2341
YB+2_S5   	0 	0 	0 	24
YB+2_S6   	0 	0 	0 	305
YB+2_S7   	0 	0 	5 	968
YB+2_S8   	0 	0 	0 	13
YB+2_S9   	0 	0 	0 	11423
YB+2_S10   	0 	0 	0 	0 	0
YB+2_S11   	0 	0 	0 	2
YB+2_S12   	0 	0 	0 	-48680
CH= 1 MOD= 50 BIAS= 18
YB+2_S1   	0 	0 	0 	0
YB+2_S2   	0 	0 	0 	0
YB+2_S3   	0 	0 	0 	0
YB+2_S4   	0 	0 	0 	25 	0
YB+2_S5   	0 	0 	0 	0
YB+2_S6   	0 	0 	0 	0
YB+2_S7   	0 	0 	0 	0
YB+2_S8   	0 	0 	0 	0
YB+2_S9   	0 	0 	0 	0
YB+2_S10   	0 	0 	0 	0 	0
YB+2_S11   	0 	0 	0 	0
YB+2_S12   	0 	0 	0 	0
YB+2_S1   	0 	0 	0 	0
YB+2_S2   	0 	0 	0 	35
YB+2_S3   	0 	0 	0 	509
YB+2_S4   	0 	0 	0 	0 	825
YB+2_S5   	0 	0 	0 	13
YB+2_S6   	0 	0 	0 	56
YB+2_S7   	0 	0 	0 	0
YB+2_S8   	0 	0 	0 	0
YB+2_S9   	0 	0 	0 	10958
YB+2_S10   	0 	0 	0 	0 	0
YB+2_S11   	0 	0 	0 	0
YB+2_S12   	0 	0 	0 	0
CH= 1 MOD= 50 BIAS= 22
YB+2_S1   	0 	0 	0 	0
YB+2_S2   	0 	0 	0 	0
YB+2_S3   	0 	1 	0 	0
YB+2_S4   	0 	0 	0 	0 	0
YB+2_S5   	0 	0 	0 	0
YB+2_S6   	0 	0 	0 	0
YB+2_S7   	0 	0 	0 	0
YB+2_S8   	0 	0 	0 	0
YB+2_S9   	0 	0 	0 	0
YB+2_S10   	0 	0 	0 	0 	0
YB+2_S11   	0 	0 	0 	0
YB+2_S12   	0 	0 	0 	0
YB+2_S1   	0 	0 	0 	0
YB+2_S2   	0 	0 	0 	0
YB+2_S3   	0 	0 	0 	0
YB+2_S4   	0 	0 	0 	0 	0
YB+2_S5   	0 	0 	0 	0
YB+2_S6   	0 	0 	0 	0
YB+2_S7   	0 	0 	0 	0
YB+2_S8   	0 	0 	0 	0
YB+2_S9   	0 	0 	0 	1
YB+2_S10   	0 	0 	0 	0 	0
YB+2_S11   	0 	0 	0 	0
YB+2_S12   	0 	0 	0 	0
CH= 1 MOD= 50 BIAS= 26
YB+2_S1   	0 	0 	0 	0
YB+2_S2   	0 	0 	0 	0
YB+2_S3   	0 	5 	0 	0
YB+2_S4   	0 	0 	0 	0 	0
YB+2_S5   	0 	0 	0 	0
YB+2_S6   	0 	0 	0 	0
YB+2_S7   	0 	0 	0 	0
YB+2_S8   	0 	0 	0 	0
YB+2_S9   	0 	0 	0 	0
YB+2_S10   	0 	0 	0 	0 	0
YB+2_S11   	0 	0 	0 	0
YB+2_S12   	0 	0 	0 	0
YB+2_S1   	0 	0 	0 	0
YB+2_S2   	0 	0 	0 	0
YB+2_S3   	0 	0 	0 	0
YB+2_S4   	1 	0 	0 	0 	0
YB+2_S5   	0 	0 	0 	0
YB+2_S6   	0 	0 	0 	0
YB+2_S7   	0 	0 	0 	0
YB+2_S8   	0 	0 	0 	0
YB+2_S9   	12 	0 	0 	0
YB+2_S10   	0 	0 	0 	0 	0
YB+2_S11   	0 	0 	0 	0
YB+2_S12   	0 	0 	0 	0
CH= 1 MOD= 50 BIAS= 30
YB+2_S1   	2 	0 	0 	0
YB+2_S2   	0 	0 	1 	0
YB+2_S3   	0 	14 	0 	0
YB+2_S4   	3 	0 	0 	0 	0
YB+2_S5   	0 	0 	0 	0
YB+2_S6   	0 	0 	0 	0
YB+2_S7   	0 	0 	0 	0
YB+2_S8   	0 	0 	0 	0
YB+2_S9   	0 	0 	0 	0
YB+2_S10   	0 	0 	0 	0 	0
YB+2_S11   	0 	0 	0 	0
YB+2_S12   	0 	0 	0 	0
YB+2_S1   	0 	0 	0 	0
YB+2_S2   	0 	0 	0 	0
YB+2_S3   	1 	0 	0 	0
YB+2_S4   	1 	0 	0 	0 	0
YB+2_S5   	0 	0 	0 	0
YB+2_S6   	0 	0 	0 	0
YB+2_S7   	0 	0 	1 	0
YB+2_S8   	0 	0 	0 	0
YB+2_S9   	0 	0 	0 	0
YB+2_S10   	0 	0 	0 	0 	0
YB+2_S11   	0 	0 	0 	0
YB+2_S12   	0 	0 	0 	0
CH= 1 MOD= 50 BIAS= 34
YB+2_S1   	104 	0 	0 	0
YB+2_S2   	0 	0 	136 	0
YB+2_S3   	0 	13 	0 	1
YB+2_S4   	-25996 	0 	0 	0 	0
YB+2_S5   	0 	1 	1 	6
YB+2_S6   	1 	0 	0 	0
YB+2_S7   	0 	0 	0 	0
YB+2_S8   	0 	1 	0 	0
YB+2_S9   	0 	0 	0 	0
YB+2_S10   	0 	0 	0 	0 	0
YB+2_S11   	0 	0 	0 	0
YB+2_S12   	0 	0 	0 	1
YB+2_S1   	0 	39 	0 	0
YB+2_S2   	0 	0 	0 	0
YB+2_S3   	0 	0 	0 	0
YB+2_S4   	6 	0 	0 	0 	0
YB+2_S5   	0 	0 	0 	0
YB+2_S6   	0 	0 	0 	0
YB+2_S7   	0 	0 	19 	0
YB+2_S8   	0 	0 	0 	0
YB+2_S9   	0 	0 	0 	0
YB+2_S10   	0 	0 	0 	0 	0
YB+2_S11   	0 	0 	0 	0
YB+2_S12   	0 	0 	0 	0
CH= 1 MOD= 50 BIAS= 38
YB+2_S1   	11855 	535 	0 	0
YB+2_S2   	0 	0 	2077 	0
YB+2_S3   	0 	15 	0 	0
YB+2_S4   	4105 	0 	8 	7 	0
YB+2_S5   	0 	3614 	50 	805
YB+2_S6   	204 	0 	9 	0
YB+2_S7   	0 	0 	1 	0
YB+2_S8   	0 	0 	0 	0
YB+2_S9   	0 	0 	0 	0
YB+2_S10   	0 	0 	0 	2 	0
YB+2_S11   	0 	0 	30 	0
YB+2_S12   	0 	0 	0 	0
YB+2_S1   	0 	14 	0 	0
YB+2_S2   	0 	7 	0 	0
YB+2_S3   	0 	0 	0 	0
YB+2_S4   	13138 	0 	0 	0 	0
YB+2_S5   	0 	25 	0 	0
YB+2_S6   	0 	0 	0 	0
YB+2_S7   	0 	0 	151 	0
YB+2_S8   	0 	0 	0 	0
YB+2_S9   	0 	0 	0 	0
YB+2_S10   	0 	0 	0 	0 	0
YB+2_S11   	0 	1 	0 	0
YB+2_S12   	0 	0 	0 	0
CH= 1 MOD= 50 BIAS= 42
YB+2_S1   	-59756 	4467 	0 	0
YB+2_S2   	1 	0 	7943 	0
YB+2_S3   	0 	-65517 	0 	0
YB+2_S4   	33884 	50 	0 	13 	0
YB+2_S5   	0 	-39233 	9 	8327
YB+2_S6   	6799 	1 	614 	0
YB+2_S7   	0 	0 	11 	0
YB+2_S8   	0 	0 	0 	0
YB+2_S9   	0 	0 	0 	0
YB+2_S10   	0 	0 	0 	0 	4
YB+2_S11   	3 	0 	1110 	0
YB+2_S12   	0 	0 	0 	2218
YB+2_S1   	0 	0 	0 	0
YB+2_S2   	1 	16 	0 	0
YB+2_S3   	0 	0 	0 	0
YB+2_S4   	20778 	0 	0 	0 	0
YB+2_S5   	0 	14 	0 	0
YB+2_S6   	0 	0 	0 	0
YB+2_S7   	0 	0 	770 	0
YB+2_S8   	0 	0 	5 	0
YB+2_S9   	0 	0 	0 	0
YB+2_S10   	0 	0 	0 	0 	0
YB+2_S11   	24 	1 	0 	0
YB+2_S12   	0 	0 	0 	0
CH= 1 MOD= 50 BIAS= 46
YB+2_S1   	-30672 	-40845 	0 	0
YB+2_S2   	20 	0 	18905 	13
YB+2_S3   	0 	18 	0 	0
YB+2_S4   	-3421 	6151 	0 	4 	0
YB+2_S5   	1522 	6054 	389 	11445
YB+2_S6   	8546 	0 	3804 	0
YB+2_S7   	0 	4544 	0 	14
YB+2_S8   	0 	0 	0 	0
YB+2_S9   	0 	0 	0 	0
YB+2_S10   	0 	0 	0 	1369 	2
YB+2_S11   	1452 	0 	2614 	99
YB+2_S12   	4 	0 	0 	19727
YB+2_S1   	221 	3352 	0 	0
YB+2_S2   	7102 	25662 	0 	0
YB+2_S3   	0 	0 	0 	0
YB+2_S4   	5677 	0 	0 	0 	0
YB+2_S5   	0 	284 	0 	0
YB+2_S6   	15 	2 	-56350 	0
YB+2_S7   	0 	38 	14319 	0
YB+2_S8   	0 	0 	15 	0
YB+2_S9   	1 	0 	130 	0
YB+2_S10   	0 	11 	0 	1 	0
YB+2_S11   	0 	35 	5 	0
YB+2_S12   	2 	0 	0 	0
CH= 1 MOD= 60 BIAS= 16
YB+2_S1   	0 	0 	0 	0
YB+2_S2   	0 	0 	0 	0
YB+2_S3   	0 	0 	0 	0
YB+2_S4   	0 	0 	0 	1040 	0
YB+2_S5   	0 	0 	0 	0
YB+2_S6   	0 	0 	0 	0
YB+2_S7   	0 	0 	0 	0
YB+2_S8   	0 	0 	0 	0
YB+2_S9   	0 	1 	0 	2
YB+2_S10   	0 	0 	0 	0 	0
YB+2_S11   	0 	0 	0 	0
YB+2_S12   	0 	0 	0 	0
YB+2_S1   	0 	0 	0 	1
YB+2_S2   	0 	0 	0 	10803
YB+2_S3   	0 	0 	0 	-49723
YB+2_S4   	0 	0 	0 	0 	2284
YB+2_S5   	0 	0 	0 	76
YB+2_S6   	0 	0 	0 	394
YB+2_S7   	0 	0 	0 	341
YB+2_S8   	0 	0 	0 	1
YB+2_S9   	0 	0 	0 	9975
YB+2_S10   	0 	0 	0 	0 	0
YB+2_S11   	0 	0 	0 	0
YB+2_S12   	0 	0 	0 	-46437
CH= 1 MOD= 60 BIAS= 18
YB+2_S1   	0 	0 	0 	0
YB+2_S2   	0 	0 	0 	0
YB+2_S3   	0 	0 	0 	0
YB+2_S4   	0 	0 	0 	0 	0
YB+2_S5   	0 	0 	0 	0
YB+2_S6   	0 	0 	0 	0
YB+2_S7   	0 	0 	0 	0
YB+2_S8   	0 	0 	0 	0
YB+2_S9   	0 	0 	0 	0
YB+2_S10   	0 	0 	0 	0 	0
YB+2_S11   	0 	0 	0 	0
YB+2_S12   	0 	0 	0 	0
YB+2_S1   	0 	0 	0 	0
YB+2_S2   	0 	0 	0 	1
YB+2_S3   	0 	0 	0 	-13578
YB+2_S4   	0 	0 	0 	0 	0
YB+2_S5   	0 	0 	0 	27
YB+2_S6   	0 	0 	0 	140
YB+2_S7   	0 	0 	0 	0
YB+2_S8   	0 	0 	0 	0
YB+2_S9   	0 	0 	0 	5897
YB+2_S10   	0 	0 	0 	0 	0
YB+2_S11   	0 	0 	0 	0
YB+2_S12   	0 	0 	0 	0
CH= 1 MOD= 60 BIAS= 22
YB+2_S1   	0 	0 	0 	0
YB+2_S2   	0 	0 	0 	0
YB+2_S3   	0 	5 	0 	0
YB+2_S4   	0 	0 	0 	0 	0
YB+2_S5   	0 	0 	0 	0
YB+2_S6   	0 	0 	0 	0
YB+2_S7   	0 	0 	0 	0
YB+2_S8   	0 	0 	0 	0
YB+2_S9   	0 	0 	0 	0
YB+2_S10   	0 	0 	0 	0 	0
YB+2_S11   	0 	0 	0 	0
YB+2_S12   	0 	0 	0 	0
YB+2_S1   	0 	0 	0 	0
YB+2_S2   	0 	0 	0 	0
YB+2_S3   	0 	0 	0 	0
YB+2_S4   	0 	0 	0 	0 	0
YB+2_S5   	0 	0 	0 	0
YB+2_S6   	0 	0 	0 	0
YB+2_S7   	0 	0 	0 	0
YB+2_S8   	0 	0 	0 	0
YB+2_S9   	0 	0 	0 	0
YB+2_S10   	0 	0 	0 	0 	0
YB+2_S11   	0 	0 	0 	0
YB+2_S12   	0 	0 	0 	0
CH= 1 MOD= 60 BIAS= 26
YB+2_S1   	0 	0 	1 	0
YB+2_S2   	0 	0 	0 	0
YB+2_S3   	0 	2 	0 	0
YB+2_S4   	0 	0 	0 	0 	0
YB+2_S5   	0 	0 	0 	0
YB+2_S6   	0 	0 	0 	0
YB+2_S7   	0 	0 	0 	0
YB+2_S8   	0 	0 	0 	0
YB+2_S9   	0 	0 	0 	0
YB+2_S10   	0 	0 	0 	0 	0
YB+2_S11   	0 	0 	0 	0
YB+2_S12   	0 	0 	0 	0
YB+2_S1   	0 	0 	0 	0
YB+2_S2   	0 	0 	0 	0
YB+2_S3   	1 	0 	0 	0
YB+2_S4   	1 	0 	0 	0 	0
YB+2_S5   	0 	0 	0 	0
YB+2_S6   	0 	0 	0 	0
YB+2_S7   	0 	0 	0 	0
YB+2_S8   	0 	0 	0 	0
YB+2_S9   	12 	0 	0 	0
YB+2_S10   	0 	0 	0 	0 	0
YB+2_S11   	0 	0 	0 	0
YB+2_S12   	0 	0 	0 	0
CH= 1 MOD= 60 BIAS= 30
YB+2_S1   	83 	0 	0 	0
YB+2_S2   	0 	0 	13 	0
YB+2_S3   	0 	18 	0 	0
YB+2_S4   	32 	0 	0 	0 	0
YB+2_S5   	0 	0 	0 	1
YB+2_S6   	0 	0 	0 	0
YB+2_S7   	0 	0 	0 	0
YB+2_S8   	0 	0 	0 	0
YB+2_S9   	0 	0 	0 	0
YB+2_S10   	0 	0 	0 	0 	0
YB+2_S11   	0 	0 	0 	0
YB+2_S12   	0 	0 	0 	0
YB+2_S1   	0 	0 	0 	0
YB+2_S2   	0 	0 	0 	0
YB+2_S3   	32 	0 	0 	0
YB+2_S4   	99 	0 	0 	0 	0
YB+2_S5   	0 	0 	0 	0
YB+2_S6   	0 	0 	0 	0
YB+2_S7   	0 	0 	43 	0
YB+2_S8   	0 	0 	0 	0
YB+2_S9   	0 	0 	0 	0
YB+2_S10   	0 	0 	0 	0 	0
YB+2_S11   	0 	0 	0 	0
YB+2_S12   	0 	0 	0 	0
CH= 1 MOD= 60 BIAS= 34
YB+2_S1   	625 	0 	0 	0
YB+2_S2   	0 	0 	484 	0
YB+2_S3   	0 	14 	0 	0
YB+2_S4   	-3270 	0 	0 	0 	0
YB+2_S5   	0 	42 	0 	6
YB+2_S6   	0 	0 	0 	0
YB+2_S7   	0 	0 	0 	0
YB+2_S8   	0 	1 	0 	0
YB+2_S9   	0 	0 	0 	0
YB+2_S10   	0 	0 	0 	0 	1
YB+2_S11   	0 	0 	24 	0
YB+2_S12   	0 	0 	0 	0
YB+2_S1   	0 	7 	0 	0
YB+2_S2   	0 	2 	0 	0
YB+2_S3   	0 	0 	0 	0
YB+2_S4   	4 	0 	0 	0 	0
YB+2_S5   	0 	0 	0 	0
YB+2_S6   	0 	0 	0 	0
YB+2_S7   	0 	0 	39 	0
YB+2_S8   	0 	0 	0 	0
YB+2_S9   	0 	0 	0 	0
YB+2_S10   	0 	0 	0 	0 	0
YB+2_S11   	0 	1 	0 	0
YB+2_S12   	0 	0 	0 	0
CH= 1 MOD= 60 BIAS= 38
YB+2_S1   	-55832 	145 	0 	0
YB+2_S2   	83 	0 	-60408 	0
YB+2_S3   	0 	8 	0 	0
YB+2_S4   	37206 	0 	5 	17 	0
YB+2_S5   	0 	3107 	0 	259
YB+2_S6   	3723 	1 	0 	0
YB+2_S7   	0 	0 	0 	0
YB+2_S8   	0 	0 	0 	0
YB+2_S9   	0 	0 	0 	0
YB+2_S10   	0 	0 	0 	56 	5
YB+2_S11   	0 	0 	781 	0
YB+2_S12   	0 	0 	0 	11
YB+2_S1   	1 	0 	0 	0
YB+2_S2   	0 	845 	0 	0
YB+2_S3   	0 	0 	0 	0
YB+2_S4   	36378 	0 	0 	0 	0
YB+2_S5   	0 	1 	0 	0
YB+2_S6   	0 	0 	0 	0
YB+2_S7   	0 	0 	414 	0
YB+2_S8   	0 	0 	0 	0
YB+2_S9   	0 	0 	0 	0
YB+2_S10   	0 	0 	0 	0 	0
YB+2_S11   	0 	2 	8 	0
YB+2_S12   	0 	0 	0 	0
CH= 1 MOD= 60 BIAS= 42
YB+2_S1   	34588 	-15711 	0 	0
YB+2_S2   	99 	0 	19377 	0
YB+2_S3   	0 	17 	0 	0
YB+2_S4   	-6112 	247 	0 	68 	0
YB+2_S5   	13 	24281 	5 	7262
YB+2_S6   	-40027 	0 	5 	0
YB+2_S7   	1 	611 	48 	0
YB+2_S8   	0 	0 	0 	0
YB+2_S9   	0 	0 	0 	0
YB+2_S10   	0 	0 	0 	0 	10
YB+2_S11   	10 	0 	12150 	5
YB+2_S12   	0 	0 	4 	815
YB+2_S1   	2 	6 	0 	0
YB+2_S2   	0 	138 	0 	0
YB+2_S3   	0 	0 	0 	0
YB+2_S4   	47672 	0 	0 	0 	0
YB+2_S5   	0 	18 	0 	0
YB+2_S6   	0 	0 	1 	0
YB+2_S7   	0 	0 	1397 	0
YB+2_S8   	0 	0 	2 	0
YB+2_S9   	3 	0 	0 	0
YB+2_S10   	1 	0 	0 	0 	0
YB+2_S11   	165 	4 	143 	0
YB+2_S12   	0 	0 	0 	0
CH= 1 MOD= 60 BIAS= 46
YB+2_S1   	-15511 	29844 	0 	0
YB+2_S2   	226 	0 	-29633 	109
YB+2_S3   	46 	19 	0 	0
YB+2_S4   	-39226 	4982 	0 	428 	0
YB+2_S5   	667 	4159 	231 	-35418
YB+2_S6   	12890 	0 	111 	0
YB+2_S7   	2 	-42578 	0 	7
YB+2_S8   	0 	0 	0 	0
YB+2_S9   	0 	0 	0 	0
YB+2_S10   	0 	0 	0 	9499 	1288
YB+2_S11   	-34958 	0 	11093 	198
YB+2_S12   	69 	0 	33 	34971
YB+2_S1   	3392 	-59953 	0 	0
YB+2_S2   	-61120 	-5828 	1 	0
YB+2_S3   	0 	0 	1 	0
YB+2_S4   	41057 	1023 	0 	0 	0
YB+2_S5   	0 	915 	0 	0
YB+2_S6   	78 	0 	10481 	0
YB+2_S7   	0 	-63777 	37296 	0
YB+2_S8   	0 	0 	0 	0
YB+2_S9   	340 	0 	82 	0
YB+2_S10   	2 	191 	1 	5 	0
YB+2_S11   	1 	84 	135 	0
YB+2_S12   	2 	0 	0 	0
CH= 1 MOD= 70 BIAS= 16
YB+2_S1   	0 	0 	0 	0
YB+2_S2   	0 	0 	0 	0
YB+2_S3   	0 	0 	0 	0
YB+2_S4   	0 	0 	0 	72 	0
YB+2_S5   	0 	0 	0 	0
YB+2_S6   	0 	0 	0 	0
YB+2_S7   	0 	0 	0 	0
YB+2_S8   	0 	0 	0 	0
YB+2_S9   	0 	0 	0 	0
YB+2_S10   	0 	0 	0 	0 	0
YB+2_S11   	0 	0 	0 	0
YB+2_S12   	0 	0 	0 	0
YB+2_S1   	0 	0 	0 	1
YB+2_S2   	0 	0 	0 	18878
YB+2_S3   	3 	0 	0 	-9595
YB+2_S4   	0 	0 	0 	0 	603
YB+2_S5   	0 	0 	0 	93
YB+2_S6   	0 	0 	0 	433
YB+2_S7   	0 	0 	0 	243
YB+2_S8   	0 	0 	0 	1
YB+2_S9   	0 	0 	0 	8143
YB+2_S10   	0 	0 	0 	0 	0
YB+2_S11   	0 	0 	0 	0
YB+2_S12   	0 	0 	0 	30387
CH= 1 MOD= 70 BIAS= 18
YB+2_S1   	0 	0 	0 	0
YB+2_S2   	0 	0 	0 	0
YB+2_S3   	0 	0 	0 	0
YB+2_S4   	0 	0 	0 	0 	0
YB+2_S5   	0 	0 	0 	0
YB+2_S6   	0 	0 	0 	0
YB+2_S7   	0 	0 	0 	0
YB+2_S8   	0 	0 	0 	0
YB+2_S9   	0 	0 	0 	0
YB+2_S10   	0 	0 	0 	0 	0
YB+2_S11   	0 	0 	0 	0
YB+2_S12   	0 	0 	0 	0
YB+2_S1   	0 	0 	0 	0
YB+2_S2   	0 	0 	0 	1
YB+2_S3   	0 	0 	0 	9961
YB+2_S4   	0 	0 	0 	0 	0
YB+2_S5   	0 	0 	0 	29
YB+2_S6   	0 	0 	0 	183
YB+2_S7   	0 	0 	0 	0
YB+2_S8   	0 	0 	0 	0
YB+2_S9   	0 	0 	0 	2310
YB+2_S10   	0 	0 	0 	0 	0
YB+2_S11   	0 	0 	0 	0
YB+2_S12   	0 	0 	0 	0
CH= 1 MOD= 70 BIAS= 22
YB+2_S1   	0 	0 	0 	0
YB+2_S2   	0 	0 	0 	0
YB+2_S3   	0 	2 	0 	0
YB+2_S4   	0 	0 	0 	0 	0
YB+2_S5   	0 	0 	0 	0
YB+2_S6   	0 	0 	0 	0
YB+2_S7   	0 	0 	0 	0
YB+2_S8   	0 	0 	0 	0
YB+2_S9   	0 	0 	0 	0
YB+2_S10   	0 	0 	0 	0 	0
YB+2_S11   	0 	0 	0 	0
YB+2_S12   	0 	0 	0 	0
YB+2_S1   	0 	0 	0 	0
YB+2_S2   	0 	0 	0 	0
YB+2_S3   	155 	0 	0 	0
YB+2_S4   	0 	0 	0 	0 	0
YB+2_S5   	0 	0 	0 	0
YB+2_S6   	0 	0 	0 	0
YB+2_S7   	0 	0 	0 	0
YB+2_S8   	0 	0 	0 	0
YB+2_S9   	0 	0 	0 	0
YB+2_S10   	0 	0 	0 	0 	0
YB+2_S11   	0 	0 	0 	0
YB+2_S12   	0 	0 	0 	0
CH= 1 MOD= 70 BIAS= 26
YB+2_S1   	0 	0 	49 	0
YB+2_S2   	0 	0 	0 	0
YB+2_S3   	0 	9 	0 	0
YB+2_S4   	0 	0 	0 	0 	0
YB+2_S5   	0 	0 	0 	0
YB+2_S6   	0 	0 	0 	0
YB+2_S7   	0 	0 	0 	0
YB+2_S8   	0 	0 	0 	0
YB+2_S9   	0 	0 	0 	0
YB+2_S10   	0 	0 	0 	0 	0
YB+2_S11   	0 	0 	0 	0
YB+2_S12   	0 	0 	0 	0
YB+2_S1   	0 	0 	0 	0
YB+2_S2   	0 	0 	0 	0
YB+2_S3   	282 	0 	0 	0
YB+2_S4   	31 	0 	0 	0 	0
YB+2_S5   	0 	0 	0 	0
YB+2_S6   	0 	0 	0 	0
YB+2_S7   	0 	0 	0 	0
YB+2_S8   	0 	0 	0 	0
YB+2_S9   	0 	0 	0 	0
YB+2_S10   	0 	0 	0 	0 	0
YB+2_S11   	0 	0 	0 	0
YB+2_S12   	0 	0 	0 	0
CH= 1 MOD= 70 BIAS= 30
YB+2_S1   	667 	0 	0 	0
YB+2_S2   	0 	0 	1325 	0
YB+2_S3   	1 	11 	0 	0
YB+2_S4   	266 	0 	0 	17 	0
YB+2_S5   	0 	5 	0 	44
YB+2_S6   	3 	0 	0 	0
YB+2_S7   	0 	0 	0 	0
YB+2_S8   	0 	0 	0 	0
YB+2_S9   	0 	0 	0 	0
YB+2_S10   	0 	0 	0 	0 	85
YB+2_S11   	0 	0 	0 	0
YB+2_S12   	0 	0 	0 	0
YB+2_S1   	0 	0 	0 	0
YB+2_S2   	0 	10 	0 	0
YB+2_S3   	1004 	0 	0 	0
YB+2_S4   	1393 	0 	0 	0 	0
YB+2_S5   	0 	0 	0 	0
YB+2_S6   	0 	0 	0 	0
YB+2_S7   	0 	0 	839 	0
YB+2_S8   	0 	0 	0 	0
YB+2_S9   	2 	0 	0 	0
YB+2_S10   	0 	0 	0 	0 	0
YB+2_S11   	0 	0 	0 	0
YB+2_S12   	0 	0 	0 	0
CH= 1 MOD= 70 BIAS= 34
YB+2_S1   	6735 	1 	0 	0
YB+2_S2   	2 	0 	1446 	39
YB+2_S3   	120 	11 	0 	1
YB+2_S4   	-11908 	0 	0 	0 	0
YB+2_S5   	0 	1486 	0 	23
YB+2_S6   	24 	0 	0 	0
YB+2_S7   	0 	0 	0 	0
YB+2_S8   	0 	5 	0 	0
YB+2_S9   	0 	0 	0 	0
YB+2_S10   	0 	0 	0 	1 	42
YB+2_S11   	0 	0 	1961 	0
YB+2_S12   	0 	0 	0 	7
YB+2_S1   	0 	1 	0 	0
YB+2_S2   	0 	1023 	0 	0
YB+2_S3   	10 	0 	0 	0
YB+2_S4   	27 	0 	0 	0 	0
YB+2_S5   	0 	0 	0 	0
YB+2_S6   	0 	0 	0 	0
YB+2_S7   	0 	0 	446 	0
YB+2_S8   	0 	0 	0 	0
YB+2_S9   	1 	0 	0 	0
YB+2_S10   	0 	0 	0 	0 	0
YB+2_S11   	2 	11 	0 	0
YB+2_S12   	0 	0 	0 	0
CH= 1 MOD= 70 BIAS= 38
YB+2_S1   	-13244 	569 	0 	0
YB+2_S2   	201 	0 	-13062 	0
YB+2_S3   	1324 	13 	0 	0
YB+2_S4   	-5236 	0 	0 	519 	0
YB+2_S5   	45 	5439 	14 	399
YB+2_S6   	10840 	0 	0 	0
YB+2_S7   	0 	0 	1 	0
YB+2_S8   	0 	0 	0 	0
YB+2_S9   	0 	0 	0 	0
YB+2_S10   	0 	0 	0 	8 	8
YB+2_S11   	15 	0 	2335 	0
YB+2_S12   	0 	0 	1 	161
YB+2_S1   	17 	0 	0 	0
YB+2_S2   	1 	18386 	0 	0
YB+2_S3   	2 	0 	0 	0
YB+2_S4   	-45150 	0 	0 	0 	0
YB+2_S5   	0 	2 	0 	0
YB+2_S6   	1 	0 	0 	0
YB+2_S7   	0 	0 	10050 	0
YB+2_S8   	0 	0 	0 	0
YB+2_S9   	48 	0 	0 	0
YB+2_S10   	0 	1 	0 	0 	0
YB+2_S11   	0 	2 	23 	0
YB+2_S12   	0 	0 	0 	0
CH= 1 MOD= 70 BIAS= 42
YB+2_S1   	-36657 	10815 	2 	7
YB+2_S2   	4029 	0 	-41051 	4
YB+2_S3   	281 	24 	0 	0
YB+2_S4   	36302 	651 	0 	1735 	2
YB+2_S5   	1313 	30134 	21 	3644
YB+2_S6   	50140 	0 	104 	0
YB+2_S7   	27 	3412 	127 	0
YB+2_S8   	0 	0 	0 	2
YB+2_S9   	2 	0 	0 	0
YB+2_S10   	0 	5 	0 	13 	811
YB+2_S11   	2331 	1 	-29666 	11
YB+2_S12   	345 	0 	764 	1891
YB+2_S1   	14 	153 	0 	0
YB+2_S2   	5 	-46668 	0 	0
YB+2_S3   	0 	0 	0 	0
YB+2_S4   	-20639 	68 	0 	0 	0
YB+2_S5   	16 	51 	0 	0
YB+2_S6   	2 	0 	9 	0
YB+2_S7   	0 	33 	8942 	0
YB+2_S8   	2 	0 	0 	0
YB+2_S9   	568 	0 	0 	0
YB+2_S10   	0 	0 	2 	0 	0
YB+2_S11   	1921 	9 	899 	0
YB+2_S12   	58 	0 	0 	0
CH= 1 MOD= 70 BIAS= 46
YB+2_S1   	20610 	15129 	0 	2
YB+2_S2   	16317 	0 	-9854 	243
YB+2_S3   	-14284 	75 	0 	8
YB+2_S4   	-45917 	-62822 	2 	13738 	1
YB+2_S5   	13301 	-17718 	363 	9728
YB+2_S6   	-6888 	0 	1181 	0
YB+2_S7   	10 	10575 	1 	44
YB+2_S8   	0 	2 	0 	2
YB+2_S9   	0 	0 	0 	0
YB+2_S10   	0 	110 	0 	7814 	548
YB+2_S11   	-37639 	0 	-23671 	1597
YB+2_S12   	782 	9 	2848 	-10928
YB+2_S1   	-32486 	7308 	0 	0
YB+2_S2   	13481 	-8811 	12 	0
YB+2_S3   	0 	1 	51 	0
YB+2_S4   	10038 	3165 	0 	8 	0
YB+2_S5   	18 	3200 	7 	0
YB+2_S6   	-63023 	0 	5083 	0
YB+2_S7   	0 	-37003 	-34230 	0
YB+2_S8   	38 	1 	0 	0
YB+2_S9   	30318 	0 	99 	0
YB+2_S10   	110 	2584 	13 	38 	0
YB+2_S11   	2906 	845 	4707 	0
YB+2_S12   	584 	0 	61 	0
CH= 1 MOD= 80 BIAS= 16
YB+2_S1   	0 	0 	0 	0
YB+2_S2   	0 	0 	0 	0
YB+2_S3   	0 	0 	0 	0
YB+2_S4   	0 	0 	0 	0 	0
YB+2_S5   	0 	0 	0 	0
YB+2_S6   	0 	0 	0 	0
YB+2_S7   	0 	0 	0 	0
YB+2_S8   	0 	0 	0 	0
YB+2_S9   	0 	0 	0 	0
YB+2_S10   	0 	0 	0 	0 	0
YB+2_S11   	0 	0 	0 	0
YB+2_S12   	0 	0 	0 	0
YB+2_S1   	0 	0 	0 	1
YB+2_S2   	0 	0 	0 	36723
YB+2_S3   	4 	0 	0 	30687
YB+2_S4   	0 	0 	0 	0 	2
YB+2_S5   	0 	0 	0 	154
YB+2_S6   	0 	0 	0 	514
YB+2_S7   	0 	0 	0 	150
YB+2_S8   	0 	0 	0 	0
YB+2_S9   	0 	0 	0 	4926
YB+2_S10   	0 	0 	0 	0 	0
YB+2_S11   	0 	0 	0 	0
YB+2_S12   	0 	0 	0 	-7604
CH= 1 MOD= 80 BIAS= 18
YB+2_S1   	0 	0 	0 	0
YB+2_S2   	0 	0 	0 	0
YB+2_S3   	0 	0 	0 	0
YB+2_S4   	0 	0 	0 	0 	0
YB+2_S5   	0 	0 	0 	0
YB+2_S6   	0 	0 	0 	0
YB+2_S7   	0 	0 	0 	0
YB+2_S8   	0 	0 	0 	0
YB+2_S9   	0 	0 	0 	0
YB+2_S10   	0 	0 	0 	0 	0
YB+2_S11   	0 	0 	0 	0
YB+2_S12   	0 	0 	0 	0
YB+2_S1   	0 	0 	0 	0
YB+2_S2   	0 	0 	0 	1
YB+2_S3   	335 	0 	0 	549
YB+2_S4   	0 	0 	0 	0 	0
YB+2_S5   	0 	0 	0 	35
YB+2_S6   	0 	0 	0 	228
YB+2_S7   	0 	0 	0 	0
YB+2_S8   	0 	0 	0 	0
YB+2_S9   	0 	0 	0 	195
YB+2_S10   	0 	0 	0 	0 	0
YB+2_S11   	0 	0 	0 	0
YB+2_S12   	0 	0 	0 	0
CH= 1 MOD= 80 BIAS= 22
YB+2_S1   	0 	0 	0 	0
YB+2_S2   	0 	0 	0 	0
YB+2_S3   	0 	2 	0 	0
YB+2_S4   	0 	0 	0 	0 	0
YB+2_S5   	0 	0 	0 	0
YB+2_S6   	0 	0 	0 	0
YB+2_S7   	0 	0 	0 	0
YB+2_S8   	0 	0 	0 	0
YB+2_S9   	0 	0 	0 	0
YB+2_S10   	0 	0 	0 	0 	0
YB+2_S11   	0 	0 	0 	0
YB+2_S12   	0 	0 	0 	0
YB+2_S1   	0 	0 	0 	0
YB+2_S2   	0 	0 	0 	0
YB+2_S3   	-8088 	0 	0 	0
YB+2_S4   	0 	0 	0 	0 	0
YB+2_S5   	0 	0 	0 	0
YB+2_S6   	0 	0 	0 	0
YB+2_S7   	0 	0 	0 	0
YB+2_S8   	0 	0 	0 	0
YB+2_S9   	0 	0 	0 	0
YB+2_S10   	0 	0 	0 	0 	0
YB+2_S11   	0 	0 	0 	0
YB+2_S12   	0 	0 	0 	0
CH= 1 MOD= 80 BIAS= 26
YB+2_S1   	0 	0 	10 	0
YB+2_S2   	0 	0 	0 	0
YB+2_S3   	3 	11 	0 	0
YB+2_S4   	74 	0 	0 	0 	0
YB+2_S5   	0 	2 	0 	0
YB+2_S6   	0 	0 	0 	0
YB+2_S7   	0 	0 	0 	0
YB+2_S8   	0 	0 	0 	0
YB+2_S9   	1 	0 	0 	0
YB+2_S10   	0 	0 	0 	0 	16
YB+2_S11   	0 	0 	0 	0
YB+2_S12   	0 	0 	0 	0
YB+2_S1   	0 	0 	0 	0
YB+2_S2   	0 	5 	0 	0
YB+2_S3   	23690 	0 	0 	0
YB+2_S4   	410 	0 	0 	0 	0
YB+2_S5   	0 	0 	0 	0
YB+2_S6   	0 	0 	0 	0
YB+2_S7   	0 	0 	33 	0
YB+2_S8   	0 	0 	0 	0
YB+2_S9   	0 	0 	0 	0
YB+2_S10   	0 	0 	0 	0 	0
YB+2_S11   	0 	0 	0 	0
YB+2_S12   	0 	0 	0 	0
CH= 1 MOD= 80 BIAS= 30
YB+2_S1   	2063 	2 	0 	0
YB+2_S2   	20 	0 	8146 	43
YB+2_S3   	579 	14 	0 	0
YB+2_S4   	2239 	0 	0 	11934 	0
YB+2_S5   	12 	176 	0 	2
YB+2_S6   	6356 	0 	0 	0
YB+2_S7   	0 	0 	0 	0
YB+2_S8   	0 	1 	0 	0
YB+2_S9   	0 	0 	0 	1
YB+2_S10   	0 	0 	0 	0 	1365
YB+2_S11   	0 	0 	76 	0
YB+2_S12   	0 	0 	0 	0
YB+2_S1   	0 	0 	0 	0
YB+2_S2   	0 	240 	0 	0
YB+2_S3   	17005 	0 	0 	0
YB+2_S4   	4517 	0 	0 	1 	0
YB+2_S5   	1 	0 	0 	0
YB+2_S6   	0 	0 	0 	0
YB+2_S7   	0 	0 	42613 	0
YB+2_S8   	0 	0 	0 	0
YB+2_S9   	1087 	0 	0 	0
YB+2_S10   	0 	0 	0 	0 	0
YB+2_S11   	0 	0 	0 	0
YB+2_S12   	0 	0 	0 	0
CH= 1 MOD= 80 BIAS= 34
YB+2_S1   	-4691 	48 	0 	0
YB+2_S2   	255 	0 	7809 	1401
YB+2_S3   	6036 	20 	0 	8
YB+2_S4   	11645 	0 	0 	611 	1
YB+2_S5   	97 	11821 	4 	203
YB+2_S6   	8090 	0 	0 	0
YB+2_S7   	1 	0 	0 	0
YB+2_S8   	4 	36 	0 	0
YB+2_S9   	0 	0 	0 	0
YB+2_S10   	0 	1 	0 	7 	8051
YB+2_S11   	0 	0 	55366 	3
YB+2_S12   	1 	1 	5 	130
YB+2_S1   	0 	0 	1 	0
YB+2_S2   	0 	-41571 	0 	0
YB+2_S3   	843 	0 	0 	0
YB+2_S4   	1822 	0 	0 	3 	0
YB+2_S5   	2493 	0 	0 	0
YB+2_S6   	23 	0 	0 	0
YB+2_S7   	0 	0 	-26062 	0
YB+2_S8   	3 	0 	0 	0
YB+2_S9   	439 	0 	2 	0
YB+2_S10   	0 	0 	0 	0 	0
YB+2_S11   	21 	168 	0 	0
YB+2_S12   	0 	0 	0 	0
CH= 1 MOD= 80 BIAS= 38
YB+2_S1   	-37820 	6814 	141 	0
YB+2_S2   	2830 	0 	47219 	115
YB+2_S3   	-56175 	73 	0 	0
YB+2_S4   	-32092 	2 	0 	5474 	43
YB+2_S5   	7361 	18138 	177 	6170
YB+2_S6   	-39975 	0 	8 	0
YB+2_S7   	3 	25 	0 	0
YB+2_S8   	32 	153 	0 	6
YB+2_S9   	0 	0 	0 	1
YB+2_S10   	0 	6 	0 	13 	1339
YB+2_S11   	331 	0 	-12104 	33
YB+2_S12   	16 	5 	483 	1623
YB+2_S1   	108 	122 	2 	0
YB+2_S2   	0 	2918 	0 	0
YB+2_S3   	15 	0 	33 	0
YB+2_S4   	-760 	3 	0 	44 	0
YB+2_S5   	1085 	3 	4 	0
YB+2_S6   	244 	0 	0 	0
YB+2_S7   	0 	10 	-46844 	0
YB+2_S8   	28 	0 	0 	0
YB+2_S9   	6385 	0 	3 	0
YB+2_S10   	0 	30 	0 	0 	0
YB+2_S11   	87 	86 	576 	0
YB+2_S12   	0 	0 	0 	0
CH= 1 MOD= 80 BIAS= 42
YB+2_S1   	-12790 	19238 	2238 	31
YB+2_S2   	-42540 	0 	-17498 	907
YB+2_S3   	-31165 	627 	87 	0
YB+2_S4   	-45072 	1531 	6 	-15553 	253
YB+2_S5   	-28857 	-21485 	76 	-24500
YB+2_S6   	-26574 	0 	1382 	1
YB+2_S7   	240 	-61394 	1933 	0
YB+2_S8   	120 	332 	0 	59
YB+2_S9   	293 	0 	2 	0
YB+2_S10   	0 	164 	1 	53 	-28437
YB+2_S11   	1847 	7 	-21455 	277
YB+2_S12   	7583 	18 	24340 	-47724
YB+2_S1   	1050 	1193 	7 	0
YB+2_S2   	40 	-8837 	15 	0
YB+2_S3   	2 	0 	89 	0
YB+2_S4   	6298 	118 	1 	243 	0
YB+2_S5   	6537 	172 	37 	0
YB+2_S6   	1714 	0 	284 	0
YB+2_S7   	0 	669 	-29614 	0
YB+2_S8   	162 	1 	0 	0
YB+2_S9   	-32173 	0 	471 	0
YB+2_S10   	0 	12 	16 	0 	2
YB+2_S11   	-55600 	124 	3432 	0
YB+2_S12   	439 	0 	0 	0
CH= 1 MOD= 80 BIAS= 46
YB+2_S1   	7561 	16330 	6763 	126
YB+2_S2   	-40195 	0 	7082 	-30414
YB+2_S3   	-23525 	-43068 	47 	244
YB+2_S4   	22609 	29127 	59 	35363 	94
YB+2_S5   	2267 	15094 	921 	-8091
YB+2_S6   	-12985 	1 	7694 	37
YB+2_S7   	1092 	13191 	70 	41
YB+2_S8   	146 	1291 	0 	76
YB+2_S9   	0 	0 	37 	19
YB+2_S10   	0 	9100 	1 	31315 	29044
YB+2_S11   	1168 	7 	-33199 	19052
YB+2_S12   	9511 	632 	37467 	11552
YB+2_S1   	-45661 	-43442 	0 	0
YB+2_S2   	-52774 	34317 	466 	0
YB+2_S3   	2 	86 	2552 	0
YB+2_S4   	14579 	54730 	4 	1247 	0
YB+2_S5   	2612 	5520 	1372 	0
YB+2_S6   	20541 	0 	28599 	0
YB+2_S7   	9 	-7574 	31346 	0
YB+2_S8   	7919 	214 	0 	0
YB+2_S9   	-45497 	0 	1368 	0
YB+2_S10   	3281 	-26319 	226 	172 	0
YB+2_S11   	-13928 	-57181 	48826 	0
YB+2_S12   	7726 	0 	456 	0
CH= 1 MOD= 90 BIAS= 16
YB+2_S1   	0 	0 	0 	0
YB+2_S2   	0 	0 	0 	0
YB+2_S3   	0 	0 	0 	0
YB+2_S4   	0 	0 	0 	0 	0
YB+2_S5   	0 	0 	0 	0
YB+2_S6   	0 	0 	0 	0
YB+2_S7   	0 	0 	0 	0
YB+2_S8   	0 	0 	0 	0
YB+2_S9   	0 	0 	0 	0
YB+2_S10   	0 	0 	0 	0 	0
YB+2_S11   	0 	0 	0 	0
YB+2_S12   	0 	0 	0 	0
YB+2_S1   	0 	0 	0 	0
YB+2_S2   	0 	0 	0 	10216
YB+2_S3   	26354 	0 	0 	-4076
YB+2_S4   	0 	0 	0 	0 	0
YB+2_S5   	0 	0 	0 	141
YB+2_S6   	0 	0 	0 	634
YB+2_S7   	0 	0 	0 	78
YB+2_S8   	0 	0 	0 	0
YB+2_S9   	0 	0 	0 	1446
YB+2_S10   	0 	0 	0 	0 	0
YB+2_S11   	0 	0 	0 	0
YB+2_S12   	0 	0 	0 	-2342
CH= 1 MOD= 90 BIAS= 18
YB+2_S1   	0 	0 	0 	0
YB+2_S2   	0 	0 	0 	0
YB+2_S3   	0 	0 	0 	0
YB+2_S4   	0 	0 	0 	0 	0
YB+2_S5   	0 	0 	0 	0
YB+2_S6   	0 	0 	0 	0
YB+2_S7   	0 	0 	0 	0
YB+2_S8   	0 	0 	0 	0
YB+2_S9   	0 	0 	0 	0
YB+2_S10   	0 	0 	0 	0 	0
YB+2_S11   	0 	0 	0 	0
YB+2_S12   	0 	0 	0 	0
YB+2_S1   	0 	0 	0 	0
YB+2_S2   	0 	0 	0 	0
YB+2_S3   	-19408 	0 	0 	52
YB+2_S4   	0 	0 	0 	0 	0
YB+2_S5   	0 	0 	0 	57
YB+2_S6   	0 	0 	0 	314
YB+2_S7   	0 	0 	0 	2
YB+2_S8   	0 	0 	0 	0
YB+2_S9   	0 	0 	0 	2
YB+2_S10   	0 	0 	0 	0 	0
YB+2_S11   	0 	0 	0 	0
YB+2_S12   	0 	0 	0 	0
CH= 1 MOD= 90 BIAS= 22
YB+2_S1   	0 	0 	0 	0
YB+2_S2   	0 	0 	0 	0
YB+2_S3   	0 	7 	0 	0
YB+2_S4   	0 	0 	0 	0 	0
YB+2_S5   	0 	0 	0 	0
YB+2_S6   	0 	0 	0 	0
YB+2_S7   	0 	0 	0 	0
YB+2_S8   	0 	0 	0 	0
YB+2_S9   	0 	0 	0 	0
YB+2_S10   	0 	0 	0 	0 	2
YB+2_S11   	0 	0 	0 	0
YB+2_S12   	0 	0 	0 	0
YB+2_S1   	0 	0 	0 	0
YB+2_S2   	0 	0 	0 	0
YB+2_S3   	46649 	0 	0 	0
YB+2_S4   	0 	0 	0 	0 	0
YB+2_S5   	0 	0 	0 	0
YB+2_S6   	0 	0 	0 	0
YB+2_S7   	0 	0 	0 	0
YB+2_S8   	0 	0 	0 	0
YB+2_S9   	0 	0 	0 	0
YB+2_S10   	0 	0 	0 	0 	0
YB+2_S11   	0 	0 	0 	0
YB+2_S12   	0 	0 	0 	0
CH= 1 MOD= 90 BIAS= 26
YB+2_S1   	17 	0 	0 	0
YB+2_S2   	4 	0 	6 	0
YB+2_S3   	1694 	11 	0 	0
YB+2_S4   	1041 	4 	0 	0 	0
YB+2_S5   	0 	34 	0 	6
YB+2_S6   	185 	0 	0 	0
YB+2_S7   	1 	0 	5 	0
YB+2_S8   	1 	1 	0 	0
YB+2_S9   	1 	0 	0 	4
YB+2_S10   	0 	0 	0 	0 	3773
YB+2_S11   	0 	0 	110 	0
YB+2_S12   	0 	0 	0 	1
YB+2_S1   	0 	0 	0 	0
YB+2_S2   	0 	0 	0 	0
YB+2_S3   	12422 	0 	0 	0
YB+2_S4   	700 	0 	0 	348 	0
YB+2_S5   	0 	0 	0 	0
YB+2_S6   	0 	0 	0 	0
YB+2_S7   	0 	0 	7739 	0
YB+2_S8   	0 	0 	0 	0
YB+2_S9   	1 	0 	4 	0
YB+2_S10   	0 	0 	0 	0 	0
YB+2_S11   	0 	0 	0 	0
YB+2_S12   	0 	0 	0 	0
CH= 1 MOD= 90 BIAS= 30
YB+2_S1   	2170 	188 	10 	0
YB+2_S2   	1217 	0 	33949 	-62177
YB+2_S3   	-26234 	64 	0 	2
YB+2_S4   	38935 	10 	0 	-14715 	0
YB+2_S5   	202 	6301 	0 	276
YB+2_S6   	-807 	0 	10 	0
YB+2_S7   	1 	11 	3 	0
YB+2_S8   	34 	975 	0 	1
YB+2_S9   	2 	0 	81 	1
YB+2_S10   	0 	4 	0 	2 	24257
YB+2_S11   	1 	0 	13092 	6
YB+2_S12   	1 	0 	59 	26
YB+2_S1   	0 	0 	2 	0
YB+2_S2   	1 	1218 	0 	0
YB+2_S3   	4232 	0 	23 	0
YB+2_S4   	16150 	0 	0 	130 	0
YB+2_S5   	690 	0 	2 	0
YB+2_S6   	14 	0 	0 	0
YB+2_S7   	0 	0 	2148 	0
YB+2_S8   	6 	0 	0 	0
YB+2_S9   	-5810 	0 	551 	0
YB+2_S10   	0 	1 	22 	0 	0
YB+2_S11   	0 	4 	2 	0
YB+2_S12   	0 	0 	0 	0
CH= 1 MOD= 90 BIAS= 34
YB+2_S1   	24893 	1958 	6 	0
YB+2_S2   	6212 	0 	47778 	-38080
YB+2_S3   	-19132 	188 	30 	354
YB+2_S4   	2995 	28 	23 	-22404 	282
YB+2_S5   	-28560 	6530 	26 	16566
YB+2_S6   	-46040 	0 	16 	0
YB+2_S7   	21 	103 	2 	0
YB+2_S8   	8509 	5536 	0 	20
YB+2_S9   	0 	0 	2 	5
YB+2_S10   	0 	306 	0 	68 	14934
YB+2_S11   	157 	1 	36447 	120
YB+2_S12   	229 	22 	294 	2477
YB+2_S1   	8 	3 	15 	0
YB+2_S2   	20 	48746 	2 	0
YB+2_S3   	-44660 	17 	102 	0
YB+2_S4   	30775 	42 	0 	2174 	0
YB+2_S5   	49962 	0 	13 	0
YB+2_S6   	8837 	0 	3 	0
YB+2_S7   	0 	10 	-31843 	0
YB+2_S8   	1088 	0 	0 	0
YB+2_S9   	-58452 	0 	1259 	0
YB+2_S10   	1 	30 	0 	0 	0
YB+2_S11   	391 	5591 	27 	0
YB+2_S12   	8 	0 	0 	0
CH= 1 MOD= 90 BIAS= 38
YB+2_S1   	39343 	-39084 	20538 	1
YB+2_S2   	46319 	0 	-4726 	24145
YB+2_S3   	6144 	4508 	24 	119
YB+2_S4   	-26758 	1834 	17 	-26045 	1939
YB+2_S5   	-6781 	16926 	77 	10313
YB+2_S6   	13348 	0 	738 	25
YB+2_S7   	879 	27747 	161 	0
YB+2_S8   	-3884 	-31914 	0 	602
YB+2_S9   	0 	0 	308 	89
YB+2_S10   	0 	3344 	0 	255 	43852
YB+2_S11   	461 	2 	12443 	-63518
YB+2_S12   	473 	856 	23495 	19020
YB+2_S1   	230 	1166 	54 	0
YB+2_S2   	60 	-37713 	5 	0
YB+2_S3   	113 	1407 	-61366 	0
YB+2_S4   	32358 	34 	5 	6745 	0
YB+2_S5   	-3108 	30 	925 	0
YB+2_S6   	19572 	0 	1467 	0
YB+2_S7   	0 	1237 	-22464 	0
YB+2_S8   	14345 	25 	0 	0
YB+2_S9   	-37639 	33 	6332 	0
YB+2_S10   	25 	14682 	40 	0 	1
YB+2_S11   	9713 	4625 	6970 	0
YB+2_S12   	36 	0 	0 	0
CH= 1 MOD= 90 BIAS= 42
YB+2_S1   	7224 	-28745 	-20 	534
YB+2_S2   	8392 	13 	6985 	6402
YB+2_S3   	-21644 	-9923 	17428 	1774
YB+2_S4   	-48765 	14 	48 	13595 	-51828
YB+2_S5   	-1697 	2695 	11476 	17139
YB+2_S6   	-37230 	1 	-38328 	598
YB+2_S7   	-24577 	-1173 	-40434 	2
YB+2_S8   	60579 	33328 	0 	2604
YB+2_S9   	1495 	0 	-49375 	348
YB+2_S10   	0 	-35218 	26 	17336 	38764
YB+2_S11   	3498 	132 	-27324 	-47743
YB+2_S12   	29737 	4187 	-42119 	-35503
YB+2_S1   	11949 	-52486 	416 	0
YB+2_S2   	3689 	-545 	689 	0
YB+2_S3   	1117 	143 	-23872 	0
YB+2_S4   	-11708 	10132 	319 	5376 	13
YB+2_S5   	21021 	2373 	12893 	0
YB+2_S6   	22486 	0 	1430 	0
YB+2_S7   	48 	-26360 	-4216 	0
YB+2_S8   	-11985 	141 	0 	0
YB+2_S9   	44377 	2 	-4303 	1
YB+2_S10   	313 	5685 	500 	40 	181
YB+2_S11   	36632 	5357 	45447 	0
YB+2_S12   	2849 	0 	2 	0
CH= 1 MOD= 90 BIAS= 46
YB+2_S1   	47174 	-37167 	46362 	12142
YB+2_S2   	12693 	88 	806 	-18048
YB+2_S3   	-26554 	-2593 	-56953 	8431
YB+2_S4   	-12713 	15307 	156 	1813 	-57340
YB+2_S5   	34956 	-32972 	4012 	-16493
YB+2_S6   	-30644 	0 	11116 	17669
YB+2_S7   	39308 	2961 	6387 	38
YB+2_S8   	6837 	35012 	0 	-57797
YB+2_S9   	2 	0 	34600 	4653
YB+2_S10   	846 	-417 	213 	-54477 	-8913
YB+2_S11   	56550 	1111 	53729 	-27566
YB+2_S12   	7261 	-50750 	7245 	3302
YB+2_S1   	-16294 	13516 	20 	0
YB+2_S2   	-27905 	8822 	2807 	0
YB+2_S3   	-50296 	-48687 	-5921 	0
YB+2_S4   	-20419 	11942 	147 	-20143 	10
YB+2_S5   	52624 	-35206 	7680 	0
YB+2_S6   	-6571 	5 	3737 	0
YB+2_S7   	412 	-4737 	12533 	0
YB+2_S8   	62023 	5498 	0 	0
YB+2_S9   	-10693 	1 	-29469 	1
YB+2_S10   	48190 	-62317 	5506 	2188 	710
YB+2_S11   	28449 	10532 	5611 	2
YB+2_S12   	10460 	0 	-63354 	0
CH= 1 MOD= 100 BIAS= 16
YB+2_S1   	0 	0 	0 	0
YB+2_S2   	0 	0 	0 	0
YB+2_S3   	0 	0 	0 	0
YB+2_S4   	0 	0 	0 	0 	0
YB+2_S5   	0 	0 	0 	0
YB+2_S6   	0 	0 	0 	0
YB+2_S7   	0 	0 	0 	0
YB+2_S8   	0 	0 	0 	0
YB+2_S9   	0 	0 	0 	0
YB+2_S10   	0 	0 	0 	0 	0
YB+2_S11   	0 	0 	0 	0
YB+2_S12   	0 	0 	0 	0
YB+2_S1   	0 	0 	0 	0
YB+2_S2   	0 	0 	0 	-12644
YB+2_S3   	14315 	0 	0 	-1249
YB+2_S4   	0 	0 	0 	0 	0
YB+2_S5   	0 	0 	0 	131
YB+2_S6   	0 	0 	0 	689
YB+2_S7   	0 	0 	0 	43
YB+2_S8   	0 	0 	0 	0
YB+2_S9   	0 	0 	0 	178
YB+2_S10   	0 	0 	0 	0 	0
YB+2_S11   	0 	0 	0 	0
YB+2_S12   	0 	0 	0 	-12380
CH= 1 MOD= 100 BIAS= 18
YB+2_S1   	0 	0 	0 	0
YB+2_S2   	0 	0 	0 	0
YB+2_S3   	0 	0 	0 	0
YB+2_S4   	0 	0 	0 	0 	0
YB+2_S5   	0 	0 	0 	0
YB+2_S6   	0 	0 	0 	0
YB+2_S7   	0 	0 	0 	0
YB+2_S8   	0 	0 	0 	0
YB+2_S9   	0 	0 	0 	0
YB+2_S10   	0 	0 	0 	0 	0
YB+2_S11   	0 	0 	0 	0
YB+2_S12   	0 	0 	0 	0
YB+2_S1   	0 	0 	0 	0
YB+2_S2   	0 	0 	0 	0
YB+2_S3   	13339 	0 	0 	11
YB+2_S4   	0 	0 	0 	0 	0
YB+2_S5   	0 	0 	0 	71
YB+2_S6   	0 	0 	0 	289
YB+2_S7   	0 	0 	0 	3
YB+2_S8   	0 	0 	0 	0
YB+2_S9   	0 	0 	0 	0
YB+2_S10   	0 	0 	0 	0 	0
YB+2_S11   	0 	0 	0 	0
YB+2_S12   	0 	0 	0 	0
CH= 1 MOD= 100 BIAS= 22
YB+2_S1   	0 	0 	0 	0
YB+2_S2   	0 	0 	0 	0
YB+2_S3   	0 	5 	0 	0
YB+2_S4   	11 	0 	0 	0 	0
YB+2_S5   	0 	1 	0 	0
YB+2_S6   	3 	0 	0 	0
YB+2_S7   	0 	0 	0 	0
YB+2_S8   	0 	0 	0 	0
YB+2_S9   	0 	0 	0 	0
YB+2_S10   	0 	0 	0 	0 	19
YB+2_S11   	0 	0 	59 	0
YB+2_S12   	0 	0 	0 	0
YB+2_S1   	0 	0 	0 	0
YB+2_S2   	0 	0 	0 	0
YB+2_S3   	-28735 	0 	17 	0
YB+2_S4   	0 	0 	0 	0 	0
YB+2_S5   	0 	0 	0 	0
YB+2_S6   	0 	0 	0 	0
YB+2_S7   	0 	0 	0 	0
YB+2_S8   	0 	0 	0 	0
YB+2_S9   	0 	0 	0 	0
YB+2_S10   	0 	0 	0 	0 	0
YB+2_S11   	0 	0 	0 	0
YB+2_S12   	0 	0 	0 	0
CH= 1 MOD= 100 BIAS= 26
YB+2_S1   	4748 	30 	66 	0
YB+2_S2   	1573 	0 	150 	32
YB+2_S3   	36186 	54 	0 	27
YB+2_S4   	4001 	67 	0 	44 	0
YB+2_S5   	1 	536 	0 	142
YB+2_S6   	20604 	0 	0 	0
YB+2_S7   	1 	9 	17 	0
YB+2_S8   	1 	340 	0 	38
YB+2_S9   	1 	0 	0 	41
YB+2_S10   	0 	26 	0 	0 	-24712
YB+2_S11   	0 	0 	3779 	0
YB+2_S12   	0 	0 	0 	17
YB+2_S1   	1 	0 	1 	0
YB+2_S2   	0 	1930 	0 	0
YB+2_S3   	-37940 	0 	3 	0
YB+2_S4   	639 	0 	0 	-15655 	0
YB+2_S5   	23 	0 	0 	0
YB+2_S6   	0 	0 	0 	0
YB+2_S7   	0 	0 	14086 	0
YB+2_S8   	0 	0 	0 	0
YB+2_S9   	756 	0 	88 	0
YB+2_S10   	0 	0 	0 	1 	0
YB+2_S11   	2 	0 	4 	0
YB+2_S12   	0 	0 	0 	0
CH= 1 MOD= 100 BIAS= 30
YB+2_S1   	-22934 	5337 	1440 	2
YB+2_S2   	17176 	0 	3251 	-26065
YB+2_S3   	46293 	2190 	12 	193
YB+2_S4   	-26846 	143 	29 	-3488 	21
YB+2_S5   	20877 	-47752 	7 	4201
YB+2_S6   	-10170 	0 	139 	15
YB+2_S7   	90 	276 	13 	0
YB+2_S8   	375 	1680 	0 	409
YB+2_S9   	3 	0 	3180 	233
YB+2_S10   	0 	2587 	16 	35 	-39224
YB+2_S11   	2 	1 	-10829 	240
YB+2_S12   	11 	22 	635 	1363
YB+2_S1   	51 	151 	37 	0
YB+2_S2   	96 	16541 	0 	0
YB+2_S3   	48681 	0 	1457 	0
YB+2_S4   	-23385 	4 	2 	4464 	17
YB+2_S5   	16365 	11 	534 	0
YB+2_S6   	4 	0 	134 	0
YB+2_S7   	0 	113 	-8317 	0
YB+2_S8   	799 	0 	0 	0
YB+2_S9   	-20684 	0 	13543 	11
YB+2_S10   	62 	21 	512 	1 	0
YB+2_S11   	763 	1343 	132 	10
YB+2_S12   	0 	0 	0 	0
CH= 1 MOD= 100 BIAS= 34
YB+2_S1   	-53697 	-21668 	4522 	0
YB+2_S2   	-1463 	13 	686 	-7454
YB+2_S3   	-17421 	17071 	3184 	10505
YB+2_S4   	-13844 	2378 	-61150 	20837 	2601
YB+2_S5   	14131 	-7581 	24 	-20378
YB+2_S6   	-50049 	0 	2026 	305
YB+2_S7   	1572 	16288 	204 	0
YB+2_S8   	24313 	-46487 	0 	938
YB+2_S9   	0 	0 	2746 	657
YB+2_S10   	0 	-35796 	1 	576 	-1860
YB+2_S11   	1537 	4 	34160 	7856
YB+2_S12   	2087 	816 	7583 	-38132
YB+2_S1   	225 	1405 	126 	0
YB+2_S2   	4694 	-16370 	50 	0
YB+2_S3   	8639 	230 	6597 	0
YB+2_S4   	10239 	3812 	6 	-9093 	21
YB+2_S5   	-20509 	10 	3343 	0
YB+2_S6   	-36930 	0 	7098 	0
YB+2_S7   	8 	1238 	2174 	0
YB+2_S8   	-24041 	6 	0 	0
YB+2_S9   	30892 	0 	-22119 	6
YB+2_S10   	347 	-45399 	269 	2 	1
YB+2_S11   	10130 	29502 	1946 	1
YB+2_S12   	651 	0 	0 	0
CH= 1 MOD= 100 BIAS= 38
YB+2_S1   	130 	-25124 	-39242 	477
YB+2_S2   	-14823 	428 	2429 	4442
YB+2_S3   	21635 	-25096 	15471 	17548
YB+2_S4   	-28473 	-31711 	345 	-42141 	-48949
YB+2_S5   	28843 	-9788 	143 	14618
YB+2_S6   	31786 	0 	-41232 	4791
YB+2_S7   	24424 	-29727 	3509 	0
YB+2_S8   	17125 	31880 	0 	-46830
YB+2_S9   	13 	0 	-1677 	7043
YB+2_S10   	66 	10083 	10 	7068 	-10284
YB+2_S11   	5434 	15 	-21039 	-24731
YB+2_S12   	-51650 	13868 	-33227 	-26568
YB+2_S1   	-62562 	-54834 	2970 	0
YB+2_S2   	15963 	-39151 	108 	0
YB+2_S3   	3991 	34631 	9016 	0
YB+2_S4   	-31360 	9841 	146 	23113 	136
YB+2_S5   	-38207 	542 	-6722 	0
YB+2_S6   	16115 	2 	-50711 	0
YB+2_S7   	191 	-24593 	-34724 	0
YB+2_S8   	-58991 	1111 	0 	0
YB+2_S9   	14685 	653 	-21757 	6
YB+2_S10   	-58999 	36075 	977 	31 	45
YB+2_S11   	-20998 	-15627 	20763 	7
YB+2_S12   	836 	0 	0 	0
CH= 1 MOD= 100 BIAS= 42
YB+2_S1   	12503 	9318 	6108 	-44280
YB+2_S2   	-18202 	825 	8632 	21584
YB+2_S3   	-10504 	-21369 	24893 	3306
YB+2_S4   	-41725 	27414 	477 	-9428 	-8151
YB+2_S5   	-6606 	12544 	-34186 	20295
YB+2_S6   	26272 	1 	-6830 	-12382
YB+2_S7   	-61537 	4846 	-34788 	8
YB+2_S8   	5136 	28954 	0 	-6642
YB+2_S9   	1577 	1 	-331 	23577
YB+2_S10   	654 	-1972 	3132 	-54406 	-38508
YB+2_S11   	-3742 	981 	-11475 	-51556
YB+2_S12   	-43833 	30336 	-2177 	-6083
YB+2_S1   	34000 	11623 	7081 	0
YB+2_S2   	20368 	-293 	4345 	0
YB+2_S3   	-35643 	13605 	36091 	0
YB+2_S4   	-16932 	25848 	10433 	34639 	2537
YB+2_S5   	5752 	38812 	17646 	0
YB+2_S6   	-13397 	1 	16869 	0
YB+2_S7   	3889 	-57301 	-15512 	0
YB+2_S8   	15387 	14718 	0 	0
YB+2_S9   	49892 	10 	-3397 	17
YB+2_S10   	-29085 	-10554 	8354 	1848 	2063
YB+2_S11   	-10424 	14560 	10773 	135
YB+2_S12   	9679 	0 	120 	0
CH= 1 MOD= 100 BIAS= 46
YB+2_S1   	4218 	988 	35942 	-1135
YB+2_S2   	36884 	19231 	-12862 	-7542
YB+2_S3   	3329 	6721 	-14000 	9908
YB+2_S4   	-45746 	31401 	6912 	-35770 	24870
YB+2_S5   	37455 	2263 	25535 	5577
YB+2_S6   	19604 	1 	10883 	-29680
YB+2_S7   	47012 	-13684 	-9550 	142
YB+2_S8   	-3909 	-39442 	0 	-40244
YB+2_S9   	160 	1 	32488 	22674
YB+2_S10   	-40477 	20783 	7853 	-39283 	47808
YB+2_S11   	-15250 	10755 	26052 	-22318
YB+2_S12   	9252 	-22624 	53978 	1853
YB+2_S1   	-13710 	41125 	14693 	0
YB+2_S2   	20645 	-8439 	22215 	1
YB+2_S3   	23166 	2102 	46016 	0
YB+2_S4   	6490 	38965 	6018 	18578 	342
YB+2_S5   	35212 	8728 	-29040 	0
YB+2_S6   	39384 	284 	-1733 	0
YB+2_S7   	18882 	-22616 	25817 	0
YB+2_S8   	17398 	-175 	33 	0
YB+2_S9   	39457 	125 	21902 	51
YB+2_S10   	38975 	2830 	2468 	19058 	-41214
YB+2_S11   	-35905 	-15943 	-19772 	656
YB+2_S12   	-28144 	5 	5141 	0
CH= 1 MOD= 110 BIAS= 16
YB+2_S1   	0 	0 	0 	0
YB+2_S2   	0 	0 	0 	0
YB+2_S3   	0 	0 	0 	0
YB+2_S4   	0 	0 	0 	0 	0
YB+2_S5   	0 	0 	0 	0
YB+2_S6   	0 	0 	0 	0
YB+2_S7   	0 	0 	0 	0
YB+2_S8   	0 	0 	0 	0
YB+2_S9   	0 	0 	0 	0
YB+2_S10   	0 	0 	0 	0 	0
YB+2_S11   	0 	0 	0 	0
YB+2_S12   	0 	0 	0 	0
YB+2_S1   	0 	0 	0 	0
YB+2_S2   	0 	0 	0 	30423
YB+2_S3   	6461 	0 	0 	-17961
YB+2_S4   	0 	0 	0 	0 	0
YB+2_S5   	0 	0 	0 	155
YB+2_S6   	0 	0 	0 	679
YB+2_S7   	0 	0 	0 	31
YB+2_S8   	0 	0 	0 	0
YB+2_S9   	0 	0 	0 	4
YB+2_S10   	0 	0 	0 	0 	0
YB+2_S11   	0 	0 	0 	0
YB+2_S12   	0 	0 	0 	31359
CH= 1 MOD= 110 BIAS= 18
YB+2_S1   	0 	0 	0 	0
YB+2_S2   	0 	0 	0 	0
YB+2_S3   	0 	0 	0 	0
YB+2_S4   	0 	0 	0 	0 	0
YB+2_S5   	0 	0 	0 	0
YB+2_S6   	1 	0 	0 	0
YB+2_S7   	0 	0 	0 	0
YB+2_S8   	0 	0 	0 	0
YB+2_S9   	0 	0 	0 	0
YB+2_S10   	0 	0 	0 	0 	0
YB+2_S11   	0 	0 	0 	0
YB+2_S12   	0 	0 	0 	0
YB+2_S1   	0 	0 	0 	0
YB+2_S2   	0 	0 	0 	0
YB+2_S3   	-37411 	0 	0 	1
YB+2_S4   	0 	0 	0 	0 	0
YB+2_S5   	0 	0 	0 	77
YB+2_S6   	0 	0 	0 	296
YB+2_S7   	0 	0 	0 	1
YB+2_S8   	0 	0 	0 	0
YB+2_S9   	0 	0 	0 	0
YB+2_S10   	0 	0 	0 	0 	0
YB+2_S11   	0 	0 	0 	0
YB+2_S12   	0 	0 	0 	0
CH= 1 MOD= 110 BIAS= 22
YB+2_S1   	0 	0 	0 	0
YB+2_S2   	167 	0 	273 	0
YB+2_S3   	0 	353 	0 	0
YB+2_S4   	627 	0 	0 	0 	0
YB+2_S5   	1 	0 	0 	0
YB+2_S6   	34 	0 	0 	0
YB+2_S7   	0 	0 	0 	0
YB+2_S8   	0 	1 	0 	107
YB+2_S9   	0 	0 	0 	0
YB+2_S10   	0 	396 	0 	0 	107
YB+2_S11   	0 	0 	6736 	0
YB+2_S12   	0 	0 	0 	0
YB+2_S1   	1 	0 	0 	0
YB+2_S2   	0 	0 	0 	0
YB+2_S3   	-32904 	0 	3117 	0
YB+2_S4   	10 	0 	0 	0 	0
YB+2_S5   	0 	0 	0 	0
YB+2_S6   	0 	0 	0 	0
YB+2_S7   	0 	0 	0 	0
YB+2_S8   	0 	0 	0 	0
YB+2_S9   	0 	0 	0 	0
YB+2_S10   	0 	0 	0 	0 	0
YB+2_S11   	767 	0 	0 	0
YB+2_S12   	0 	0 	0 	0
CH= 1 MOD= 110 BIAS= 26
YB+2_S1   	-44144 	3049 	3522 	0
YB+2_S2   	-14441 	0 	-56920 	1851
YB+2_S3   	13528 	4735 	0 	470
YB+2_S4   	11595 	744 	0 	-57239 	16
YB+2_S5   	740 	17908 	2 	3682
YB+2_S6   	16574 	1 	165 	14
YB+2_S7   	27 	343 	79 	0
YB+2_S8   	42 	-34675 	0 	11941
YB+2_S9   	1 	0 	0 	59
YB+2_S10   	0 	8373 	0 	3 	10685
YB+2_S11   	1 	0 	-22942 	10
YB+2_S12   	4 	276 	124 	1692
YB+2_S1   	4 	12 	526 	0
YB+2_S2   	67 	15455 	0 	0
YB+2_S3   	-27743 	4 	899 	0
YB+2_S4   	-47227 	76 	1 	21403 	2
YB+2_S5   	4031 	0 	0 	0
YB+2_S6   	0 	0 	8 	0
YB+2_S7   	0 	39 	17957 	0
YB+2_S8   	11 	0 	0 	0
YB+2_S9   	32 	0 	1571 	0
YB+2_S10   	48 	2 	0 	13 	0
YB+2_S11   	1084 	66 	688 	0
YB+2_S12   	2 	0 	0 	0
CH= 1 MOD= 110 BIAS= 30
YB+2_S1   	-2996 	-36709 	866 	4
YB+2_S2   	3736 	112 	-27954 	-50590
YB+2_S3   	41607 	-23599 	3499 	12144
YB+2_S4   	42281 	29841 	101 	-17915 	4072
YB+2_S5   	-39060 	29961 	36 	38063
YB+2_S6   	-5530 	1 	16707 	5914
YB+2_S7   	14939 	4409 	482 	0
YB+2_S8   	4665 	-44286 	0 	-7063
YB+2_S9   	374 	1 	38103 	13215
YB+2_S10   	4 	-26523 	275 	811 	26903
YB+2_S11   	500 	0 	-7949 	20409
YB+2_S12   	3828 	9064 	25903 	-27317
YB+2_S1   	2145 	-34558 	1119 	0
YB+2_S2   	-56966 	39405 	75 	0
YB+2_S3   	2607 	9 	-33862 	0
YB+2_S4   	-5796 	4061 	276 	-22326 	8474
YB+2_S5   	-13309 	145 	18665 	0
YB+2_S6   	6097 	0 	32024 	0
YB+2_S7   	17 	15068 	51215 	0
YB+2_S8   	-27699 	119 	0 	0
YB+2_S9   	-4148 	0 	898 	340
YB+2_S10   	6977 	2892 	5963 	31 	14
YB+2_S11   	24345 	-20282 	5607 	3943
YB+2_S12   	82 	0 	0 	0
CH= 1 MOD= 110 BIAS= 34
YB+2_S1   	-25010 	-16541 	-41848 	426
YB+2_S2   	2015 	1803 	-11450 	48100
YB+2_S3   	58463 	-29657 	-3908 	18781
YB+2_S4   	3715 	8745 	24426 	-39535 	-30915
YB+2_S5   	-14253 	4731 	189 	53990
YB+2_S6   	38312 	0 	-51098 	44919
YB+2_S7   	961 	-26529 	9604 	0
YB+2_S8   	-16742 	15435 	0 	12677
YB+2_S9   	97 	0 	-14739 	-24903
YB+2_S10   	477 	-3913 	41 	-53238 	17607
YB+2_S11   	-55087 	34 	21406 	-18546
YB+2_S12   	11644 	28269 	-6324 	-375
YB+2_S1   	20229 	9978 	2702 	0
YB+2_S2   	-14830 	8022 	783 	0
YB+2_S3   	34056 	1616 	44329 	0
YB+2_S4   	34541 	1432 	1482 	-5805 	1646
YB+2_S5   	13757 	380 	-43910 	0
YB+2_S6   	51478 	1 	4262 	0
YB+2_S7   	691 	12580 	-6419 	0
YB+2_S8   	-40996 	2923 	3 	0
YB+2_S9   	-10257 	1 	-3438 	277
YB+2_S10   	-5335 	28079 	-56631 	316 	752
YB+2_S11   	-22392 	-25239 	9530 	1057
YB+2_S12   	30063 	0 	34 	0
CH= 1 MOD= 110 BIAS= 38
YB+2_S1   	12821 	36666 	-19423 	27793
YB+2_S2   	29036 	-34874 	7266 	-5602
YB+2_S3   	13983 	7219 	4729 	-18355
YB+2_S4   	3040 	-3673 	9849 	38508 	-11926
YB+2_S5   	7782 	-19644 	2723 	22235
YB+2_S6   	-42368 	0 	31884 	5223
YB+2_S7   	5163 	13917 	25361 	11
YB+2_S8   	20756 	-51898 	22 	-3293
YB+2_S9   	4316 	0 	31359 	-11369
YB+2_S10   	12887 	-8276 	1141 	35513 	8576
YB+2_S11   	-17780 	405 	18916 	32792
YB+2_S12   	20419 	-10249 	32050 	31840
YB+2_S1   	-12744 	33026 	22216 	0
YB+2_S2   	-37772 	-6986 	3318 	7
YB+2_S3   	21967 	-22285 	4295 	0
YB+2_S4   	-8965 	10293 	14478 	39058 	-46603
YB+2_S5   	-11465 	27268 	-8827 	0
YB+2_S6   	-6689 	13 	11844 	0
YB+2_S7   	12985 	-19427 	-26028 	0
YB+2_S8   	6430 	15913 	22 	0
YB+2_S9   	7777 	8496 	-13464 	697
YB+2_S10   	3335 	-47268 	-15563 	2387 	5647
YB+2_S11   	-32328 	-27326 	-52334 	-38502
YB+2_S12   	19530 	39 	134 	0
CH= 1 MOD= 110 BIAS= 42
YB+2_S1   	62595 	9912 	9556 	17310
YB+2_S2   	29200 	41925 	50888 	8323
YB+2_S3   	30235 	-13997 	-29149 	-30499
YB+2_S4   	-34366 	17427 	11249 	22484 	9682
YB+2_S5   	24629 	-20123 	20740 	-17097
YB+2_S6   	14527 	1 	17363 	12246
YB+2_S7   	-5270 	-5789 	47077 	381
YB+2_S8   	-2072 	-35475 	99 	-16412
YB+2_S9   	12288 	6 	-914 	12637
YB+2_S10   	1270 	37140 	-34458 	-1515 	-5553
YB+2_S11   	-12604 	-52408 	-1210 	-1309
YB+2_S12   	11307 	-32011 	-21221 	4482
YB+2_S1   	12433 	-10262 	-13529 	0
YB+2_S2   	-22313 	-15551 	34680 	328
YB+2_S3   	-42468 	12428 	6082 	0
YB+2_S4   	-24175 	30725 	-18925 	41779 	-8018
YB+2_S5   	5244 	4014 	33130 	0
YB+2_S6   	30418 	1233 	-28159 	0
YB+2_S7   	-4744 	36915 	-40925 	0
YB+2_S8   	6834 	-12402 	1387 	0
YB+2_S9   	-20965 	1337 	-5406 	1231
YB+2_S10   	-20521 	1211 	2254 	-54841 	-22855
YB+2_S11   	-2682 	32005 	-33031 	-34882
YB+2_S12   	24368 	6 	4867 	0
CH= 1 MOD= 110 BIAS= 46
YB+2_S1   	-14488 	-34531 	39619 	-22989
YB+2_S2   	39614 	19163 	-9135 	36716
YB+2_S3   	33883 	43657 	25458 	27877
YB+2_S4   	-10886 	-20227 	17264 	1397 	-5288
YB+2_S5   	-2348 	-33993 	22217 	-11071
YB+2_S6   	10497 	0 	27414 	-28396
YB+2_S7   	-9734 	52127 	-10537 	2463
YB+2_S8   	-17864 	-29212 	618 	-16681
YB+2_S9   	13013 	32 	36699 	-31876
YB+2_S10   	16495 	30777 	-41931 	15616 	19384
YB+2_S11   	41160 	-12876 	39265 	19926
YB+2_S12   	11477 	48008 	-54391 	7199
YB+2_S1   	-19649 	-21979 	15138 	0
YB+2_S2   	-34549 	19170 	-5040 	905
YB+2_S3   	-58386 	-42439 	8298 	0
YB+2_S4   	-23491 	-22073 	-23219 	-53 	-26218
YB+2_S5   	-10227 	-35845 	-29817 	0
YB+2_S6   	19243 	14346 	-7952 	0
YB+2_S7   	-5017 	11593 	-39339 	12
YB+2_S8   	-1495 	-48682 	9727 	20
YB+2_S9   	13761 	33811 	-24119 	4926
YB+2_S10   	-2945 	24534 	-8965 	30672 	29369
YB+2_S11   	9185 	16183 	19347 	-17981
YB+2_S12   	-2422 	474 	-52885 	0
CH= 1 MOD= 120 BIAS= 16
YB+2_S1   	0 	0 	0 	0
YB+2_S2   	0 	0 	0 	0
YB+2_S3   	0 	0 	0 	0
YB+2_S4   	0 	0 	0 	0 	0
YB+2_S5   	0 	0 	0 	15
YB+2_S6   	23 	0 	0 	0
YB+2_S7   	0 	0 	0 	0
YB+2_S8   	0 	0 	0 	0
YB+2_S9   	0 	0 	0 	0
YB+2_S10   	0 	0 	0 	0 	0
YB+2_S11   	0 	0 	0 	0
YB+2_S12   	0 	0 	0 	0
YB+2_S1   	0 	0 	0 	0
YB+2_S2   	0 	0 	0 	16441
YB+2_S3   	6787 	0 	0 	6994
YB+2_S4   	0 	0 	0 	0 	0
YB+2_S5   	0 	0 	0 	245
YB+2_S6   	0 	0 	0 	707
YB+2_S7   	0 	0 	0 	15
YB+2_S8   	0 	0 	0 	0
YB+2_S9   	0 	0 	0 	0
YB+2_S10   	0 	0 	0 	0 	0
YB+2_S11   	0 	0 	0 	0
YB+2_S12   	0 	0 	0 	17679
CH= 1 MOD= 120 BIAS= 18
YB+2_S1   	0 	0 	0 	0
YB+2_S2   	0 	0 	0 	0
YB+2_S3   	0 	0 	0 	0
YB+2_S4   	0 	0 	0 	0 	0
YB+2_S5   	0 	0 	0 	86
YB+2_S6   	83 	0 	0 	0
YB+2_S7   	0 	0 	0 	0
YB+2_S8   	0 	0 	0 	0
YB+2_S9   	0 	0 	0 	0
YB+2_S10   	0 	0 	0 	0 	0
YB+2_S11   	0 	0 	0 	0
YB+2_S12   	0 	0 	0 	0
YB+2_S1   	0 	0 	0 	0
YB+2_S2   	0 	0 	0 	0
YB+2_S3   	17224 	0 	0 	2
YB+2_S4   	0 	0 	0 	0 	0
YB+2_S5   	0 	0 	0 	73
YB+2_S6   	0 	0 	0 	343
YB+2_S7   	0 	0 	0 	1
YB+2_S8   	0 	0 	0 	0
YB+2_S9   	0 	0 	0 	0
YB+2_S10   	0 	0 	0 	0 	0
YB+2_S11   	0 	0 	0 	0
YB+2_S12   	0 	0 	0 	0
CH= 1 MOD= 120 BIAS= 22
YB+2_S1   	1 	0 	0 	0
YB+2_S2   	2606 	0 	-36555 	0
YB+2_S3   	0 	541 	0 	0
YB+2_S4   	11 	0 	0 	0 	0
YB+2_S5   	342 	0 	0 	53
YB+2_S6   	163 	0 	0 	1
YB+2_S7   	0 	1 	1 	0
YB+2_S8   	0 	1 	0 	-49255
YB+2_S9   	0 	0 	0 	0
YB+2_S10   	0 	-37639 	0 	0 	1129
YB+2_S11   	0 	0 	-10520 	0
YB+2_S12   	4 	0 	46 	0
YB+2_S1   	0 	0 	0 	0
YB+2_S2   	0 	0 	0 	0
YB+2_S3   	-34236 	0 	1 	0
YB+2_S4   	12 	0 	427 	0 	0
YB+2_S5   	0 	0 	0 	0
YB+2_S6   	0 	0 	0 	0
YB+2_S7   	0 	0 	0 	0
YB+2_S8   	2 	0 	0 	0
YB+2_S9   	0 	0 	0 	0
YB+2_S10   	0 	0 	0 	0 	0
YB+2_S11   	1551 	3 	0 	0
YB+2_S12   	0 	0 	0 	0
CH= 1 MOD= 120 BIAS= 26
YB+2_S1   	-60050 	11452 	30938 	0
YB+2_S2   	-5538 	1 	234 	42200
YB+2_S3   	-12644 	-12595 	4 	5912
YB+2_S4   	15216 	7637 	0 	-27813 	-63802
YB+2_S5   	9184 	20194 	8 	41527
YB+2_S6   	-33896 	1 	12140 	903
YB+2_S7   	-63880 	2327 	310 	0
YB+2_S8   	139 	-12234 	0 	63
YB+2_S9   	6 	0 	29 	14
YB+2_S10   	1 	-3290 	2 	34 	-59410
YB+2_S11   	97 	1 	34075 	2032
YB+2_S12   	20 	-45427 	6753 	-13983
YB+2_S1   	54 	456 	144 	0
YB+2_S2   	3747 	42182 	7 	0
YB+2_S3   	-21687 	236 	21770 	0
YB+2_S4   	26280 	550 	384 	-2662 	32
YB+2_S5   	-20282 	0 	4 	0
YB+2_S6   	20 	0 	387 	0
YB+2_S7   	0 	1711 	-16042 	0
YB+2_S8   	772 	0 	0 	0
YB+2_S9   	0 	0 	25805 	0
YB+2_S10   	2212 	130 	5 	289 	6
YB+2_S11   	-3431 	2616 	12379 	0
YB+2_S12   	230 	0 	0 	0
CH= 1 MOD= 120 BIAS= 30
YB+2_S1   	-1857 	-12936 	11781 	35
YB+2_S2   	15681 	9263 	-44008 	-6483
YB+2_S3   	-19238 	2564 	15948 	-12315
YB+2_S4   	-27207 	3612 	3335 	-21174 	24530
YB+2_S5   	-37730 	-54830 	136 	-32779
YB+2_S6   	17583 	1 	-35483 	17846
YB+2_S7   	6461 	37822 	7456 	8
YB+2_S8   	6971 	-23054 	1 	22897
YB+2_S9   	-55205 	0 	28819 	12017
YB+2_S10   	1153 	-10903 	2653 	6940 	-14084
YB+2_S11   	-50773 	47 	17670 	-31287
YB+2_S12   	33331 	11048 	23207 	-23616
YB+2_S1   	13637 	31422 	11600 	0
YB+2_S2   	-32836 	41340 	-63384 	0
YB+2_S3   	-7317 	887 	-24461 	0
YB+2_S4   	1922 	19386 	7513 	45752 	-1541
YB+2_S5   	-4465 	11 	41311 	0
YB+2_S6   	-2960 	5 	13723 	0
YB+2_S7   	714 	-19219 	-45778 	0
YB+2_S8   	-14021 	3109 	1 	0
YB+2_S9   	-32231 	17 	54443 	2224
YB+2_S10   	-34624 	42770 	20268 	625 	1821
YB+2_S11   	9718 	-13026 	-10163 	-34418
YB+2_S12   	-56278 	0 	8 	0
CH= 1 MOD= 120 BIAS= 34
YB+2_S1   	597 	-29783 	16884 	10550
YB+2_S2   	-24658 	-26188 	12340 	37618
YB+2_S3   	11496 	59551 	-31481 	22608
YB+2_S4   	26726 	59912 	2452 	35339 	35200
YB+2_S5   	-25284 	-3156 	2213 	43417
YB+2_S6   	-19144 	0 	30891 	-8162
YB+2_S7   	5588 	-24472 	-4476 	37
YB+2_S8   	-32827 	-3233 	45 	-47438
YB+2_S9   	8076 	0 	-27378 	-18595
YB+2_S10   	-41232 	-20985 	6210 	-19140 	13417
YB+2_S11   	-416 	894 	20693 	-1871
YB+2_S12   	-61549 	15667 	-3563 	-7494
YB+2_S1   	17025 	6681 	-25672 	0
YB+2_S2   	-21787 	13008 	5411 	0
YB+2_S3   	-33875 	14459 	-1383 	0
YB+2_S4   	-10106 	33563 	40171 	-35684 	-8144
YB+2_S5   	-12911 	-16619 	-24362 	0
YB+2_S6   	-8482 	19 	12430 	0
YB+2_S7   	16913 	-48579 	2240 	0
YB+2_S8   	1951 	-38749 	102 	0
YB+2_S9   	-32579 	126 	-22127 	2004
YB+2_S10   	-12984 	-47714 	31936 	15801 	-26792
YB+2_S11   	20447 	-39581 	-34296 	-1501
YB+2_S12   	23807 	36 	1471 	0
CH= 1 MOD= 120 BIAS= 38
YB+2_S1   	14622 	-31921 	-2365 	-30135
YB+2_S2   	-7114 	-23328 	9573 	-1051
YB+2_S3   	-46778 	18939 	-12246 	2044
YB+2_S4   	-2913 	39929 	-24871 	-17806 	-10858
YB+2_S5   	-51918 	-48858 	27486 	818
YB+2_S6   	-30356 	0 	44484 	21867
YB+2_S7   	-43440 	3964 	2788 	971
YB+2_S8   	26806 	-28875 	1368 	35322
YB+2_S9   	36318 	2 	-31600 	-25434
YB+2_S10   	-51880 	21503 	-25008 	15250 	39390
YB+2_S11   	-13388 	-45326 	-11108 	54987
YB+2_S12   	23137 	34185 	-23497 	-24982
YB+2_S1   	50098 	-34812 	55722 	0
YB+2_S2   	28482 	-27316 	-26582 	1286
YB+2_S3   	18737 	-14510 	-30557 	0
YB+2_S4   	-44 	2559 	27958 	56750 	-22175
YB+2_S5   	22489 	23593 	-20955 	0
YB+2_S6   	-29755 	127 	-25831 	0
YB+2_S7   	23220 	24358 	11833 	0
YB+2_S8   	-35741 	-48593 	3317 	12
YB+2_S9   	-4696 	30396 	13296 	12340
YB+2_S10   	-11943 	-715 	-19023 	-7555 	-5065
YB+2_S11   	18948 	-15627 	-10273 	-2834
YB+2_S12   	28877 	1923 	3661 	0
CH= 1 MOD= 120 BIAS= 42
YB+2_S1   	-31326 	-30272 	38942 	-22544
YB+2_S2   	-18468 	-12120 	8175 	38948
YB+2_S3   	17102 	-1748 	-10784 	-14905
YB+2_S4   	-17834 	24557 	-14113 	-14447 	-2828
YB+2_S5   	6160 	11477 	-19359 	-5636
YB+2_S6   	64131 	0 	-32192 	-47637
YB+2_S7   	-22187 	12046 	-23206 	11360
YB+2_S8   	-26219 	23239 	2609 	-29357
YB+2_S9   	-2827 	650 	517 	-25317
YB+2_S10   	14766 	-33226 	26536 	-31109 	-18293
YB+2_S11   	-8375 	39779 	-24376 	-13272
YB+2_S12   	8974 	-18461 	-29539 	-38300
YB+2_S1   	5334 	-48745 	-21193 	0
YB+2_S2   	15372 	28711 	18891 	2011
YB+2_S3   	-30313 	54 	4692 	89
YB+2_S4   	1553 	-46240 	-5865 	-27730 	-50006
YB+2_S5   	-26266 	20870 	-3867 	0
YB+2_S6   	-25956 	9862 	-24883 	0
YB+2_S7   	54642 	-46818 	-26899 	117
YB+2_S8   	-46958 	34915 	-28951 	11
YB+2_S9   	-47765 	-37590 	8934 	-40324
YB+2_S10   	-16389 	-17982 	-52364 	35399 	6047
YB+2_S11   	32430 	19705 	164 	17036
YB+2_S12   	7509 	1940 	-12067 	0
CH= 1 MOD= 120 BIAS= 46
YB+2_S1   	-1172 	-1669 	19286 	53344
YB+2_S2   	-15994 	-12250 	-1255 	3562
YB+2_S3   	-16626 	-10975 	-49139 	37940
YB+2_S4   	14417 	46004 	2577 	9542 	-12532
YB+2_S5   	18583 	56642 	-56165 	-6729
YB+2_S6   	-22763 	0 	-25307 	16763
YB+2_S7   	5374 	-8933 	-58350 	-28332
YB+2_S8   	-10634 	34304 	13207 	-30880
YB+2_S9   	-11544 	3890 	56671 	20964
YB+2_S10   	-12702 	59975 	-30513 	58831 	-55750
YB+2_S11   	-53631 	-18058 	40777 	-29583
YB+2_S12   	26990 	14386 	6077 	42014
YB+2_S1   	-19361 	-3097 	-8238 	0
YB+2_S2   	13202 	-32923 	58212 	2739
YB+2_S3   	-6483 	23837 	15265 	113
YB+2_S4   	-62596 	-7980 	21001 	14352 	-14006
YB+2_S5   	-61192 	-12433 	-3179 	0
YB+2_S6   	7376 	48133 	38783 	14
YB+2_S7   	24631 	9122 	2279 	507
YB+2_S8   	7167 	22791 	-3251 	124
YB+2_S9   	-11709 	-2127 	19427 	-59046
YB+2_S10   	13769 	50513 	1272 	7350 	-30048
YB+2_S11   	21315 	45591 	13553 	14799
YB+2_S12   	11845 	29646 	23057 	0
