CH= 3 MOD= 10 BIAS= 10
* YB1 S5 MB2 ROB3    12469 pos_05.33	yb1 [s5 mtp1.9 mb2.3] [s5 st2.3 (SL1/3 w49-60)]	11626	125	718

CH= 3 MOD= 10 BIAS= 20
* YB1 S5 MB2 ROB3    0 pos_05.33	yb1 [s5 mtp1.9 mb2.3] [s5 st2.3 (SL1/3 w49-60)]	0	0	0

CH= 3 MOD= 10 BIAS= 40
* YB1 S5 MB2 ROB3    0 pos_05.33	yb1 [s5 mtp1.9 mb2.3] [s5 st2.3 (SL1/3 w49-60)]	0	0	0

CH= 3 MOD= 10 BIAS= 60
* YB1 S5 MB2 ROB3    14 pos_05.33	yb1 [s5 mtp1.9 mb2.3] [s5 st2.3 (SL1/3 w49-60)]	3	11	0

CH= 3 MOD= 10 BIAS= 80
* YB1 S5 MB2 ROB3    1253 pos_05.33	yb1 [s5 mtp1.9 mb2.3] [s5 st2.3 (SL1/3 w49-60)]	1240	-13	0

CH= 3 MOD= 10 BIAS= 100
* YB1 S5 MB2 ROB3    2369 pos_05.33	yb1 [s5 mtp1.9 mb2.3] [s5 st2.3 (SL1/3 w49-60)]	2307	60	2

CH= 3 MOD= 20 BIAS= 10
* YB1 S5 MB2 ROB3    15776 pos_05.33	yb1 [s5 mtp1.9 mb2.3] [s5 st2.3 (SL1/3 w49-60)]	-15345	194	-237

CH= 3 MOD= 20 BIAS= 20
* YB1 S5 MB2 ROB3    0 pos_05.33	yb1 [s5 mtp1.9 mb2.3] [s5 st2.3 (SL1/3 w49-60)]	0	0	0

CH= 3 MOD= 20 BIAS= 40
* YB1 S5 MB2 ROB3    0 pos_05.33	yb1 [s5 mtp1.9 mb2.3] [s5 st2.3 (SL1/3 w49-60)]	0	0	0

CH= 3 MOD= 20 BIAS= 60
* YB1 S5 MB2 ROB3    0 pos_05.33	yb1 [s5 mtp1.9 mb2.3] [s5 st2.3 (SL1/3 w49-60)]	0	0	0

CH= 3 MOD= 20 BIAS= 80
* YB1 S5 MB2 ROB3    0 pos_05.33	yb1 [s5 mtp1.9 mb2.3] [s5 st2.3 (SL1/3 w49-60)]	0	0	0

CH= 3 MOD= 20 BIAS= 100
* YB1 S5 MB2 ROB3    51 pos_05.33	yb1 [s5 mtp1.9 mb2.3] [s5 st2.3 (SL1/3 w49-60)]	7	44	0

CH= 3 MOD= 40 BIAS= 10
* YB1 S5 MB2 ROB3    7650 pos_05.33	yb1 [s5 mtp1.9 mb2.3] [s5 st2.3 (SL1/3 w49-60)]	6154	-11	1485

CH= 3 MOD= 40 BIAS= 20
* YB1 S5 MB2 ROB3    0 pos_05.33	yb1 [s5 mtp1.9 mb2.3] [s5 st2.3 (SL1/3 w49-60)]	0	0	0

CH= 3 MOD= 40 BIAS= 40
* YB1 S5 MB2 ROB3    0 pos_05.33	yb1 [s5 mtp1.9 mb2.3] [s5 st2.3 (SL1/3 w49-60)]	0	0	0

CH= 3 MOD= 40 BIAS= 60
* YB1 S5 MB2 ROB3    0 pos_05.33	yb1 [s5 mtp1.9 mb2.3] [s5 st2.3 (SL1/3 w49-60)]	0	0	0

CH= 3 MOD= 40 BIAS= 80
* YB1 S5 MB2 ROB3    0 pos_05.33	yb1 [s5 mtp1.9 mb2.3] [s5 st2.3 (SL1/3 w49-60)]	0	0	0

CH= 3 MOD= 40 BIAS= 100
* YB1 S5 MB2 ROB3    0 pos_05.33	yb1 [s5 mtp1.9 mb2.3] [s5 st2.3 (SL1/3 w49-60)]	0	0	0

CH= 3 MOD= 60 BIAS= 10
* YB1 S5 MB2 ROB3    2462 pos_05.33	yb1 [s5 mtp1.9 mb2.3] [s5 st2.3 (SL1/3 w49-60)]	2183	-73	206

CH= 3 MOD= 60 BIAS= 20
* YB1 S5 MB2 ROB3    0 pos_05.33	yb1 [s5 mtp1.9 mb2.3] [s5 st2.3 (SL1/3 w49-60)]	0	0	0

CH= 3 MOD= 60 BIAS= 40
* YB1 S5 MB2 ROB3    0 pos_05.33	yb1 [s5 mtp1.9 mb2.3] [s5 st2.3 (SL1/3 w49-60)]	0	0	0

CH= 3 MOD= 60 BIAS= 60
* YB1 S5 MB2 ROB3    0 pos_05.33	yb1 [s5 mtp1.9 mb2.3] [s5 st2.3 (SL1/3 w49-60)]	0	0	0

CH= 3 MOD= 60 BIAS= 80
* YB1 S5 MB2 ROB3    0 pos_05.33	yb1 [s5 mtp1.9 mb2.3] [s5 st2.3 (SL1/3 w49-60)]	0	0	0

CH= 3 MOD= 60 BIAS= 100
* YB1 S5 MB2 ROB3    0 pos_05.33	yb1 [s5 mtp1.9 mb2.3] [s5 st2.3 (SL1/3 w49-60)]	0	0	0

CH= 3 MOD= 80 BIAS= 10
* YB1 S5 MB2 ROB3    0 pos_05.33	yb1 [s5 mtp1.9 mb2.3] [s5 st2.3 (SL1/3 w49-60)]	0	0	0

CH= 3 MOD= 80 BIAS= 20
* YB1 S5 MB2 ROB3    0 pos_05.33	yb1 [s5 mtp1.9 mb2.3] [s5 st2.3 (SL1/3 w49-60)]	0	0	0

CH= 3 MOD= 80 BIAS= 40
* YB1 S5 MB2 ROB3    0 pos_05.33	yb1 [s5 mtp1.9 mb2.3] [s5 st2.3 (SL1/3 w49-60)]	0	0	0

CH= 3 MOD= 80 BIAS= 60
* YB1 S5 MB2 ROB3    0 pos_05.33	yb1 [s5 mtp1.9 mb2.3] [s5 st2.3 (SL1/3 w49-60)]	0	0	0

CH= 3 MOD= 80 BIAS= 80
* YB1 S5 MB2 ROB3    0 pos_05.33	yb1 [s5 mtp1.9 mb2.3] [s5 st2.3 (SL1/3 w49-60)]	0	0	0

CH= 3 MOD= 80 BIAS= 100
* YB1 S5 MB2 ROB3    0 pos_05.33	yb1 [s5 mtp1.9 mb2.3] [s5 st2.3 (SL1/3 w49-60)]	0	0	0

CH= 3 MOD= 100 BIAS= 10
* YB1 S5 MB2 ROB3    0 pos_05.33	yb1 [s5 mtp1.9 mb2.3] [s5 st2.3 (SL1/3 w49-60)]	0	0	0

CH= 3 MOD= 100 BIAS= 20
